{
  "slides": [
    {
      "type": "slide",
      "start_animation": 0,
      "end_animation": 1,
      "number": 1
    },
    {
      "type": "slide",
      "start_animation": 1,
      "end_animation": 2,
      "number": 2
    },
    {
      "type": "slide",
      "start_animation": 2,
      "end_animation": 3,
      "number": 3
    },
    {
      "type": "slide",
      "start_animation": 3,
      "end_animation": 4,
      "number": 4
    },
    {
      "type": "slide",
      "start_animation": 4,
      "end_animation": 5,
      "number": 5
    },
    {
      "type": "last",
      "start_animation": 5,
      "end_animation": 6,
      "number": 6
    }
  ],
  "files": [
    "slides/files/Conclusion/2902699114_3315967912_4259348257.mp4",
    "slides/files/Conclusion/3931933789_3018018125_1521586707.mp4",
    "slides/files/Conclusion/3931933789_3572450674_24626348.mp4",
    "slides/files/Conclusion/3931933789_1166170792_3906812231.mp4",
    "slides/files/Conclusion/3931933789_1546421130_2368558315.mp4",
    "slides/files/Conclusion/3931933789_2026283191_364822410.mp4"
  ],
  "resolution": [
    1920,
    1080
  ],
  "background_color": "black"
}