<?xml version='1.0' encoding='UTF-8'?>
<!-- This file was generated by dvisvgm 2.13.1 -->
<svg version='1.1' xmlns='http://www.w3.org/2000/svg' xmlns:xlink='http://www.w3.org/1999/xlink' width='312.66584pt' height='10.685519pt' viewBox='15.522768 -6.918502 312.66584 10.685519'>
<defs>
<path id='g3-105' d='M1.972603-3.108344C1.972603-3.227895 1.882939-3.32254 1.753425-3.32254C1.613948-3.32254 1.449564-3.188045 1.449564-3.023661C1.449564-2.884184 1.559153-2.809465 1.663761-2.809465C1.828144-2.809465 1.972603-2.958904 1.972603-3.108344ZM2.206725-.71731C2.206725-.787049 2.122042-.787049 2.102117-.787049C2.017435-.787049 2.012453-.767123 1.982565-.672478C1.897883-.398506 1.673724-.11457 1.424658-.11457C1.310087-.11457 1.275218-.194271 1.275218-.303861C1.275218-.408468 1.300125-.463263 1.339975-.557908C1.379826-.657534 1.419676-.757161 1.444583-.826899C1.464508-.871731 1.65878-1.334994 1.728518-1.514321C1.768369-1.613948 1.798257-1.678705 1.798257-1.763387C1.798257-2.002491 1.569116-2.201743 1.255293-2.201743C.732254-2.201743 .4533-1.564134 .4533-1.429639C.4533-1.3599 .533001-1.3599 .557908-1.3599C.64259-1.3599 .647572-1.384807 .672478-1.459527C.782067-1.8132 1.021171-2.032379 1.235367-2.032379C1.330012-2.032379 1.384807-1.977584 1.384807-1.843088C1.384807-1.823163 1.384807-1.758406 1.354919-1.663761C1.32005-1.574097 1.09589-1.041096 1.026152-.871731C.991283-.787049 .991283-.777086 .916563-.607721C.891656-.537983 .861768-.468244 .861768-.383562C.861768-.124533 1.105853 .054795 1.404732 .054795C1.927771 .054795 2.206725-.592777 2.206725-.71731Z'/>
<path id='g3-110' d='M.971357-.488169C.941469-.363636 .886675-.144458 .886675-.119552C.886675-.009963 .976339 .054795 1.070984 .054795C1.145704 .054795 1.255293 .014944 1.310087-.109589C1.315068-.134496 1.374844-.368618 1.404732-.498132C1.574097-1.17061 1.574097-1.180573 1.58406-1.200498C1.648817-1.334994 2.007472-2.032379 2.615193-2.032379C2.859278-2.032379 2.963885-1.897883 2.963885-1.673724C2.963885-1.389788 2.75467-.876712 2.6401-.592777C2.615193-.533001 2.590286-.468244 2.590286-.383562C2.590286-.124533 2.839352 .054795 3.13325 .054795C3.666252 .054795 3.940224-.592777 3.940224-.71731C3.940224-.787049 3.855542-.787049 3.835616-.787049C3.750934-.787049 3.745953-.767123 3.716065-.672478C3.62142-.373599 3.392279-.11457 3.153176-.11457C3.038605-.11457 3.003736-.194271 3.003736-.303861C3.003736-.408468 3.023661-.458281 3.068493-.56787C3.153176-.767123 3.382316-1.334994 3.382316-1.608966C3.382316-1.977584 3.118306-2.201743 2.645081-2.201743C2.191781-2.201743 1.877958-1.927771 1.703611-1.708593C1.678705-2.117061 1.280199-2.201743 1.09589-2.201743C.597758-2.201743 .4533-1.439601 .4533-1.429639C.4533-1.3599 .533001-1.3599 .557908-1.3599C.64259-1.3599 .652553-1.389788 .672478-1.454545C.747198-1.743462 .861768-2.032379 1.070984-2.032379C1.240349-2.032379 1.275218-1.872976 1.275218-1.768369C1.275218-1.69863 1.225405-1.50934 1.195517-1.379826C1.160648-1.24533 1.110834-1.041096 1.085928-.931507L.971357-.488169Z'/>
<path id='g2-112' d='M.523039 .850809C.474222 1.046077 .460274 1.101868 .18132 1.101868C.09066 1.101868-.006974 1.101868-.006974 1.248319C-.006974 1.325031 .055791 1.352927 .09066 1.352927C.27198 1.352927 .502117 1.325031 .690411 1.325031C.927522 1.325031 1.192528 1.352927 1.422665 1.352927C1.48543 1.352927 1.562142 1.332005 1.562142 1.199502C1.562142 1.101868 1.464508 1.101868 1.380822 1.101868C1.227397 1.101868 1.039103 1.101868 1.039103 1.018182C1.039103 .983313 1.08792 .801993 1.115816 .697385C1.199502 .327771 1.297136-.048817 1.373848-.341719C1.457534-.202242 1.673724 .069738 2.092154 .069738C2.942964 .069738 3.884433-.871731 3.884433-1.910834C3.884433-2.726775 3.319552-3.075467 2.838356-3.075467C2.405978-3.075467 2.036364-2.782565 1.84807-2.587298C1.729514-2.984807 1.338979-3.075467 1.129763-3.075467C.857783-3.075467 .690411-2.894147 .578829-2.705853C.439352-2.468742 .327771-2.050311 .327771-2.008468C.327771-1.917808 .425405-1.917808 .446326-1.917808C.54396-1.917808 .550934-1.93873 .599751-2.127024C.704359-2.531507 .836862-2.880199 1.108842-2.880199C1.290162-2.880199 1.338979-2.726775 1.338979-2.538481C1.338979-2.461768 1.325031-2.371108 1.318057-2.329265L.523039 .850809ZM1.841096-2.238605C2.245579-2.775592 2.594271-2.880199 2.817435-2.880199C3.089415-2.880199 3.326526-2.677958 3.326526-2.203736C3.326526-1.917808 3.173101-1.206476 2.963885-.801993C2.789539-.460274 2.447821-.125529 2.092154-.125529C1.597011-.125529 1.471482-.662516 1.471482-.732254C1.471482-.760149 1.48543-.808966 1.492403-.836862L1.841096-2.238605Z'/>
<path id='g0-70' d='M2.580324-3.347447C2.988792-3.347447 3.985056-3.327522 4.064757-2.211706C4.07472-2.092154 4.084682-1.96264 4.244085-1.96264C4.41345-1.96264 4.41345-2.102117 4.41345-2.281445V-4.98132C4.41345-5.140722 4.41345-5.300125 4.244085-5.300125C4.11457-5.300125 4.07472-5.200498 4.064757-5.090909C4.004981-3.935243 3.307597-3.73599 2.580324-3.706102V-5.808219C2.580324-6.475716 2.769614-6.475716 3.008717-6.475716H3.476961C4.752179-6.475716 5.399751-5.788294 5.459527-5.100872C5.469489-5.021171 5.479452-4.871731 5.638854-4.871731C5.808219-4.871731 5.808219-5.031133 5.808219-5.200498V-6.495641C5.808219-6.804483 5.788294-6.824408 5.479452-6.824408H.478207C.298879-6.824408 .139477-6.824408 .139477-6.645081C.139477-6.475716 .328767-6.475716 .408468-6.475716C.976339-6.475716 1.016189-6.396015 1.016189-5.907846V-.916563C1.016189-.448319 .986301-.348692 .458281-.348692C.308842-.348692 .139477-.348692 .139477-.179328C.139477 0 .298879 0 .478207 0H3.35741C3.536737 0 3.686177 0 3.686177-.179328C3.686177-.348692 3.516812-.348692 3.387298-.348692C2.620174-.348692 2.580324-.418431 2.580324-.946451V-3.347447ZM5.459527-6.475716V-6.007472C5.32005-6.156912 5.150685-6.336239 4.921544-6.475716H5.459527ZM4.064757-3.158157C3.915318-3.347447 3.656289-3.496887 3.536737-3.5467C3.726027-3.636364 3.92528-3.795766 4.064757-3.965131V-3.158157ZM1.364882-5.927771C1.364882-6.047323 1.364882-6.296389 1.285181-6.475716H2.34122C2.231631-6.246575 2.231631-5.917808 2.231631-5.828144V-.926526C2.231631-.777086 2.231631-.537983 2.331258-.348692H1.285181C1.364882-.52802 1.364882-.777086 1.364882-.896638V-5.927771Z'/>
<path id='g5-48' d='M3.598506-2.224658C3.598506-2.991781 3.507846-3.542715 3.187049-4.030884C2.970859-4.351681 2.538481-4.630635 1.980573-4.630635C.36264-4.630635 .36264-2.726775 .36264-2.224658S.36264 .139477 1.980573 .139477S3.598506-1.72254 3.598506-2.224658ZM1.980573-.055791C1.659776-.055791 1.234371-.244085 1.094894-.81594C.99726-1.227397 .99726-1.799253 .99726-2.315318C.99726-2.824408 .99726-3.354421 1.101868-3.737983C1.248319-4.288917 1.694645-4.435367 1.980573-4.435367C2.357161-4.435367 2.719801-4.20523 2.84533-3.800747C2.956912-3.424159 2.963885-2.922042 2.963885-2.315318C2.963885-1.799253 2.963885-1.283188 2.873225-.843836C2.733748-.209215 2.259527-.055791 1.980573-.055791Z'/>
<path id='g1-62' d='M6.724782-2.271482C6.834371-2.321295 6.914072-2.371108 6.914072-2.49066S6.834371-2.660025 6.724782-2.709838L1.205479-5.310087C1.075965-5.379826 1.05604-5.379826 1.026152-5.379826C.916563-5.379826 .826899-5.290162 .826899-5.180573C.826899-5.090909 .876712-5.031133 1.016189-4.961395L6.246575-2.49066L1.016189-.019925C.876712 .049813 .826899 .109589 .826899 .199253C.826899 .308842 .916563 .398506 1.026152 .398506C1.05604 .398506 1.075965 .398506 1.205479 .328767L6.724782-2.271482Z'/>
<path id='g1-100' d='M5.140722-6.804483C5.140722-6.814446 5.140722-6.914072 5.011208-6.914072C4.861768-6.914072 3.915318-6.824408 3.745953-6.804483C3.666252-6.794521 3.606476-6.744707 3.606476-6.615193C3.606476-6.495641 3.696139-6.495641 3.845579-6.495641C4.323786-6.495641 4.343711-6.425903 4.343711-6.326276L4.313823-6.127024L3.716065-3.765878C3.536737-4.134496 3.247821-4.403487 2.799502-4.403487C1.633873-4.403487 .398506-2.938979 .398506-1.484433C.398506-.547945 .946451 .109589 1.723537 .109589C1.92279 .109589 2.420922 .069738 3.01868-.637609C3.098381-.219178 3.447073 .109589 3.92528 .109589C4.273973 .109589 4.503113-.119552 4.662516-.438356C4.83188-.797011 4.961395-1.404732 4.961395-1.424658C4.961395-1.524284 4.871731-1.524284 4.841843-1.524284C4.742217-1.524284 4.732254-1.484433 4.702366-1.344956C4.533001-.697385 4.353674-.109589 3.945205-.109589C3.676214-.109589 3.646326-.368618 3.646326-.56787C3.646326-.806974 3.666252-.876712 3.706102-1.046077L5.140722-6.804483ZM3.068493-1.185554C3.01868-1.006227 3.01868-.986301 2.86924-.816936C2.430884-.268991 2.022416-.109589 1.743462-.109589C1.24533-.109589 1.105853-.657534 1.105853-1.046077C1.105853-1.544209 1.424658-2.769614 1.653798-3.227895C1.96264-3.815691 2.410959-4.184309 2.809465-4.184309C3.457036-4.184309 3.596513-3.367372 3.596513-3.307597S3.576588-3.188045 3.566625-3.138232L3.068493-1.185554Z'/>
<path id='g1-102' d='M3.656289-3.985056H4.513076C4.712329-3.985056 4.811955-3.985056 4.811955-4.184309C4.811955-4.293898 4.712329-4.293898 4.542964-4.293898H3.716065L3.92528-5.429639C3.965131-5.638854 4.104608-6.346202 4.164384-6.465753C4.254047-6.655044 4.423412-6.804483 4.632628-6.804483C4.672478-6.804483 4.931507-6.804483 5.120797-6.625156C4.682441-6.585305 4.582814-6.236613 4.582814-6.087173C4.582814-5.858032 4.762142-5.738481 4.951432-5.738481C5.210461-5.738481 5.499377-5.957659 5.499377-6.336239C5.499377-6.794521 5.041096-7.023661 4.632628-7.023661C4.293898-7.023661 3.666252-6.844334 3.367372-5.858032C3.307597-5.648817 3.277709-5.549191 3.038605-4.293898H2.351183C2.161893-4.293898 2.052304-4.293898 2.052304-4.104608C2.052304-3.985056 2.141968-3.985056 2.331258-3.985056H2.988792L2.241594-.049813C2.062267 .916563 1.892902 1.823163 1.374844 1.823163C1.334994 1.823163 1.085928 1.823163 .896638 1.643836C1.354919 1.613948 1.444583 1.255293 1.444583 1.105853C1.444583 .876712 1.265255 .757161 1.075965 .757161C.816936 .757161 .52802 .976339 .52802 1.354919C.52802 1.803238 .966376 2.042341 1.374844 2.042341C1.92279 2.042341 2.321295 1.454545 2.500623 1.075965C2.819427 .448319 3.048568-.757161 3.058531-.826899L3.656289-3.985056Z'/>
<path id='g1-110' d='M.876712-.587796C.846824-.438356 .787049-.209215 .787049-.159402C.787049 .019925 .926526 .109589 1.075965 .109589C1.195517 .109589 1.374844 .029888 1.444583-.169365C1.454545-.18929 1.574097-.657534 1.633873-.9066L1.853051-1.803238C1.912827-2.022416 1.972603-2.241594 2.022416-2.470735C2.062267-2.6401 2.141968-2.929016 2.15193-2.968867C2.30137-3.277709 2.82939-4.184309 3.775841-4.184309C4.224159-4.184309 4.313823-3.815691 4.313823-3.486924C4.313823-2.86924 3.825654-1.594022 3.666252-1.165629C3.576588-.936488 3.566625-.816936 3.566625-.707347C3.566625-.239103 3.915318 .109589 4.383562 .109589C5.32005 .109589 5.688667-1.344956 5.688667-1.424658C5.688667-1.524284 5.599004-1.524284 5.569116-1.524284C5.469489-1.524284 5.469489-1.494396 5.419676-1.344956C5.220423-.667497 4.891656-.109589 4.403487-.109589C4.234122-.109589 4.164384-.209215 4.164384-.438356C4.164384-.687422 4.254047-.926526 4.343711-1.145704C4.533001-1.673724 4.951432-2.769614 4.951432-3.337484C4.951432-4.004981 4.523039-4.403487 3.805729-4.403487C2.909091-4.403487 2.420922-3.765878 2.251557-3.536737C2.201743-4.094645 1.793275-4.403487 1.334994-4.403487S.687422-4.014944 .587796-3.835616C.428394-3.496887 .288917-2.909091 .288917-2.86924C.288917-2.769614 .388543-2.769614 .408468-2.769614C.508095-2.769614 .518057-2.779577 .577833-2.998755C.747198-3.706102 .946451-4.184309 1.305106-4.184309C1.504359-4.184309 1.613948-4.054795 1.613948-3.726027C1.613948-3.516812 1.58406-3.407223 1.454545-2.889166L.876712-.587796Z'/>
<path id='g4-46' d='M1.912827-.52802C1.912827-.816936 1.673724-1.05604 1.384807-1.05604S.856787-.816936 .856787-.52802S1.09589 0 1.384807 0S1.912827-.239103 1.912827-.52802Z'/>
<path id='g4-58' d='M1.912827-3.765878C1.912827-4.054795 1.673724-4.293898 1.384807-4.293898S.856787-4.054795 .856787-3.765878S1.09589-3.237858 1.384807-3.237858S1.912827-3.476961 1.912827-3.765878ZM1.912827-.52802C1.912827-.816936 1.673724-1.05604 1.384807-1.05604S.856787-.816936 .856787-.52802S1.09589 0 1.384807 0S1.912827-.239103 1.912827-.52802Z'/>
<path id='g4-63' d='M2.34122-2.480697C2.34122-3.73599 3.307597-4.443337 3.656289-4.702366C3.92528-4.901619 4.134496-5.260274 4.134496-5.678705C4.134496-6.256538 3.73599-7.023661 2.251557-7.023661C1.175592-7.023661 .557908-6.346202 .557908-5.69863C.557908-5.3599 .787049-5.220423 1.016189-5.220423C1.295143-5.220423 1.474471-5.419676 1.474471-5.678705C1.474471-6.127024 1.05604-6.127024 .916563-6.127024C1.225405-6.655044 1.803238-6.804483 2.221669-6.804483C3.307597-6.804483 3.307597-6.127024 3.307597-5.738481C3.307597-5.150685 3.148194-4.971357 2.968867-4.79203C2.311333-4.07472 2.092154-3.158157 2.092154-2.550436V-2.102117C2.092154-1.92279 2.092154-1.863014 2.211706-1.863014C2.34122-1.863014 2.34122-1.952677 2.34122-2.132005V-2.480697ZM2.739726-.52802C2.739726-.816936 2.500623-1.05604 2.211706-1.05604S1.683686-.816936 1.683686-.52802S1.92279 0 2.211706 0S2.739726-.239103 2.739726-.52802Z'/>
<path id='g4-67' d='M.557908-3.407223C.557908-1.344956 2.171856 .219178 4.024907 .219178C5.648817 .219178 6.625156-1.165629 6.625156-2.321295C6.625156-2.420922 6.625156-2.49066 6.495641-2.49066C6.386052-2.49066 6.386052-2.430884 6.37609-2.331258C6.296389-.9066 5.230386-.089664 4.144458-.089664C3.536737-.089664 1.58406-.428394 1.58406-3.39726C1.58406-6.37609 3.526775-6.714819 4.134496-6.714819C5.220423-6.714819 6.107098-5.808219 6.306351-4.353674C6.326276-4.214197 6.326276-4.184309 6.465753-4.184309C6.625156-4.184309 6.625156-4.214197 6.625156-4.423412V-6.784558C6.625156-6.953923 6.625156-7.023661 6.515567-7.023661C6.475716-7.023661 6.435866-7.023661 6.356164-6.90411L5.858032-6.166874C5.489415-6.525529 4.98132-7.023661 4.024907-7.023661C2.161893-7.023661 .557908-5.439601 .557908-3.407223Z'/>
<path id='g4-81' d='M3.20797-.159402C2.669988-.358655 1.554172-1.085928 1.554172-3.377335C1.554172-5.967621 2.948941-6.774595 3.865504-6.774595C4.83188-6.774595 6.1868-5.917808 6.1868-3.377335C6.1868-2.600249 6.067248-1.195517 5.011208-.418431C4.79203-.976339 4.473225-1.474471 3.88543-1.474471C3.377335-1.474471 3.068493-1.046077 3.068493-.637609C3.068493-.368618 3.198007-.179328 3.20797-.159402ZM4.752179-.259029C4.41345-.069738 4.094645-.029888 3.875467-.029888C3.367372-.029888 3.287671-.488169 3.287671-.637609C3.287671-.926526 3.496887-1.255293 3.88543-1.255293C4.423412-1.255293 4.64259-.836862 4.752179-.259029ZM5.160648-.069738C6.336239-.597758 7.183064-1.872976 7.183064-3.377335C7.183064-5.409714 5.678705-7.023661 3.865504-7.023661C2.082192-7.023661 .557908-5.429639 .557908-3.377335C.557908-1.364882 2.062267 .219178 3.875467 .219178C4.184309 .219178 4.533001 .159402 4.821918 .069738C4.971357 1.016189 5.110834 1.932752 6.03736 1.932752C7.053549 1.932752 7.242839 .607721 7.242839 .099626C7.242839 0 7.242839-.109589 7.13325-.109589C7.043587-.109589 7.033624-.029888 7.023661 .069738C6.963885 .607721 6.545455 .9066 6.117061 .9066C5.648817 .9066 5.399751 .56787 5.160648-.069738Z'/>
<path id='g4-97' d='M3.317559-.757161C3.35741-.358655 3.626401 .059776 4.094645 .059776C4.303861 .059776 4.911582-.079701 4.911582-.886675V-1.444583H4.662516V-.886675C4.662516-.308842 4.41345-.249066 4.303861-.249066C3.975093-.249066 3.935243-.697385 3.935243-.747198V-2.739726C3.935243-3.158157 3.935243-3.5467 3.576588-3.915318C3.188045-4.303861 2.689913-4.463263 2.211706-4.463263C1.39477-4.463263 .707347-3.995019 .707347-3.337484C.707347-3.038605 .9066-2.86924 1.165629-2.86924C1.444583-2.86924 1.62391-3.068493 1.62391-3.327522C1.62391-3.447073 1.574097-3.775841 1.115816-3.785803C1.384807-4.134496 1.872976-4.244085 2.191781-4.244085C2.67995-4.244085 3.247821-3.855542 3.247821-2.968867V-2.600249C2.739726-2.570361 2.042341-2.540473 1.414695-2.241594C.667497-1.902864 .418431-1.384807 .418431-.946451C.418431-.139477 1.384807 .109589 2.012453 .109589C2.669988 .109589 3.128269-.288917 3.317559-.757161ZM3.247821-2.391034V-1.39477C3.247821-.448319 2.530511-.109589 2.082192-.109589C1.594022-.109589 1.185554-.458281 1.185554-.956413C1.185554-1.504359 1.603985-2.331258 3.247821-2.391034Z'/>
<path id='g4-99' d='M1.165629-2.171856C1.165629-3.795766 1.982565-4.214197 2.510585-4.214197C2.600249-4.214197 3.227895-4.204234 3.576588-3.845579C3.16812-3.815691 3.108344-3.516812 3.108344-3.387298C3.108344-3.128269 3.287671-2.929016 3.566625-2.929016C3.825654-2.929016 4.024907-3.098381 4.024907-3.39726C4.024907-4.07472 3.267746-4.463263 2.500623-4.463263C1.255293-4.463263 .33873-3.387298 .33873-2.15193C.33873-.876712 1.325031 .109589 2.480697 .109589C3.815691 .109589 4.134496-1.085928 4.134496-1.185554S4.034869-1.285181 4.004981-1.285181C3.915318-1.285181 3.895392-1.24533 3.875467-1.185554C3.58655-.259029 2.938979-.139477 2.570361-.139477C2.042341-.139477 1.165629-.56787 1.165629-2.171856Z'/>
<path id='g4-100' d='M3.785803-.547945V.109589L5.250311 0V-.308842C4.552927-.308842 4.473225-.37858 4.473225-.86675V-6.914072L3.038605-6.804483V-6.495641C3.73599-6.495641 3.815691-6.425903 3.815691-5.937733V-3.785803C3.526775-4.144458 3.098381-4.403487 2.560399-4.403487C1.384807-4.403487 .33873-3.427148 .33873-2.141968C.33873-.876712 1.315068 .109589 2.450809 .109589C3.088418 .109589 3.536737-.229141 3.785803-.547945ZM3.785803-3.217933V-1.175592C3.785803-.996264 3.785803-.976339 3.676214-.806974C3.377335-.328767 2.929016-.109589 2.500623-.109589C2.052304-.109589 1.693649-.368618 1.454545-.747198C1.195517-1.155666 1.165629-1.723537 1.165629-2.132005C1.165629-2.500623 1.185554-3.098381 1.474471-3.5467C1.683686-3.855542 2.062267-4.184309 2.600249-4.184309C2.948941-4.184309 3.367372-4.034869 3.676214-3.58655C3.785803-3.417186 3.785803-3.39726 3.785803-3.217933Z'/>
<path id='g4-101' d='M1.115816-2.510585C1.175592-3.995019 2.012453-4.244085 2.351183-4.244085C3.377335-4.244085 3.476961-2.899128 3.476961-2.510585H1.115816ZM1.105853-2.30137H3.88543C4.104608-2.30137 4.134496-2.30137 4.134496-2.510585C4.134496-3.496887 3.596513-4.463263 2.351183-4.463263C1.195517-4.463263 .278954-3.437111 .278954-2.191781C.278954-.856787 1.325031 .109589 2.470735 .109589C3.686177 .109589 4.134496-.996264 4.134496-1.185554C4.134496-1.285181 4.054795-1.305106 4.004981-1.305106C3.915318-1.305106 3.895392-1.24533 3.875467-1.165629C3.526775-.139477 2.630137-.139477 2.530511-.139477C2.032379-.139477 1.633873-.438356 1.404732-.806974C1.105853-1.285181 1.105853-1.942715 1.105853-2.30137Z'/>
<path id='g4-102' d='M1.743462-4.293898V-5.449564C1.743462-6.326276 2.221669-6.804483 2.660025-6.804483C2.689913-6.804483 2.839352-6.804483 2.988792-6.734745C2.86924-6.694894 2.689913-6.56538 2.689913-6.316314C2.689913-6.087173 2.849315-5.88792 3.118306-5.88792C3.407223-5.88792 3.556663-6.087173 3.556663-6.326276C3.556663-6.694894 3.188045-7.023661 2.660025-7.023661C1.96264-7.023661 1.115816-6.495641 1.115816-5.439601V-4.293898H.328767V-3.985056H1.115816V-.757161C1.115816-.308842 1.006227-.308842 .33873-.308842V0C.727273-.009963 1.195517-.029888 1.474471-.029888C1.872976-.029888 2.34122-.029888 2.739726 0V-.308842H2.530511C1.793275-.308842 1.77335-.418431 1.77335-.777086V-3.985056H2.909091V-4.293898H1.743462Z'/>
<path id='g4-103' d='M2.211706-1.713574C1.344956-1.713574 1.344956-2.709838 1.344956-2.938979C1.344956-3.20797 1.354919-3.526775 1.504359-3.775841C1.58406-3.895392 1.8132-4.174346 2.211706-4.174346C3.078456-4.174346 3.078456-3.178082 3.078456-2.948941C3.078456-2.67995 3.068493-2.361146 2.919054-2.11208C2.839352-1.992528 2.610212-1.713574 2.211706-1.713574ZM1.05604-1.325031C1.05604-1.364882 1.05604-1.594022 1.225405-1.793275C1.613948-1.514321 2.022416-1.484433 2.211706-1.484433C3.138232-1.484433 3.825654-2.171856 3.825654-2.938979C3.825654-3.307597 3.666252-3.676214 3.417186-3.905355C3.775841-4.244085 4.134496-4.293898 4.313823-4.293898C4.333748-4.293898 4.383562-4.293898 4.41345-4.283935C4.303861-4.244085 4.254047-4.134496 4.254047-4.014944C4.254047-3.845579 4.383562-3.726027 4.542964-3.726027C4.64259-3.726027 4.83188-3.795766 4.83188-4.024907C4.83188-4.194271 4.712329-4.513076 4.323786-4.513076C4.124533-4.513076 3.686177-4.4533 3.267746-4.044832C2.849315-4.373599 2.430884-4.403487 2.211706-4.403487C1.285181-4.403487 .597758-3.716065 .597758-2.948941C.597758-2.510585 .816936-2.132005 1.066002-1.92279C.936488-1.77335 .757161-1.444583 .757161-1.09589C.757161-.787049 .886675-.408468 1.195517-.209215C.597758-.039851 .278954 .388543 .278954 .787049C.278954 1.504359 1.265255 2.052304 2.480697 2.052304C3.656289 2.052304 4.692403 1.544209 4.692403 .767123C4.692403 .418431 4.552927-.089664 4.044832-.368618C3.516812-.647572 2.938979-.647572 2.331258-.647572C2.082192-.647572 1.653798-.647572 1.58406-.657534C1.265255-.697385 1.05604-1.006227 1.05604-1.325031ZM2.49066 1.823163C1.484433 1.823163 .797011 1.315068 .797011 .787049C.797011 .328767 1.175592-.039851 1.613948-.069738H2.201743C3.058531-.069738 4.174346-.069738 4.174346 .787049C4.174346 1.325031 3.466999 1.823163 2.49066 1.823163Z'/>
<path id='g4-104' d='M1.09589-.757161C1.09589-.308842 .986301-.308842 .318804-.308842V0C.667497-.009963 1.175592-.029888 1.444583-.029888C1.703611-.029888 2.221669-.009963 2.560399 0V-.308842C1.892902-.308842 1.783313-.308842 1.783313-.757161V-2.590286C1.783313-3.626401 2.49066-4.184309 3.128269-4.184309C3.755915-4.184309 3.865504-3.646326 3.865504-3.078456V-.757161C3.865504-.308842 3.755915-.308842 3.088418-.308842V0C3.437111-.009963 3.945205-.029888 4.214197-.029888C4.473225-.029888 4.991283-.009963 5.330012 0V-.308842C4.811955-.308842 4.562889-.308842 4.552927-.607721V-2.510585C4.552927-3.367372 4.552927-3.676214 4.244085-4.034869C4.104608-4.204234 3.775841-4.403487 3.198007-4.403487C2.361146-4.403487 1.92279-3.805729 1.753425-3.427148V-6.914072L.318804-6.804483V-6.495641C1.016189-6.495641 1.09589-6.425903 1.09589-5.937733V-.757161Z'/>
<path id='g4-105' d='M1.763387-4.403487L.368618-4.293898V-3.985056C1.016189-3.985056 1.105853-3.92528 1.105853-3.437111V-.757161C1.105853-.308842 .996264-.308842 .328767-.308842V0C.647572-.009963 1.185554-.029888 1.424658-.029888C1.77335-.029888 2.122042-.009963 2.460772 0V-.308842C1.803238-.308842 1.763387-.358655 1.763387-.747198V-4.403487ZM1.803238-6.136986C1.803238-6.455791 1.554172-6.665006 1.275218-6.665006C.966376-6.665006 .747198-6.396015 .747198-6.136986C.747198-5.867995 .966376-5.608966 1.275218-5.608966C1.554172-5.608966 1.803238-5.818182 1.803238-6.136986Z'/>
<path id='g4-108' d='M1.763387-6.914072L.328767-6.804483V-6.495641C1.026152-6.495641 1.105853-6.425903 1.105853-5.937733V-.757161C1.105853-.308842 .996264-.308842 .328767-.308842V0C.657534-.009963 1.185554-.029888 1.43462-.029888S2.171856-.009963 2.540473 0V-.308842C1.872976-.308842 1.763387-.308842 1.763387-.757161V-6.914072Z'/>
<path id='g4-109' d='M1.09589-3.427148V-.757161C1.09589-.308842 .986301-.308842 .318804-.308842V0C.667497-.009963 1.175592-.029888 1.444583-.029888C1.703611-.029888 2.221669-.009963 2.560399 0V-.308842C1.892902-.308842 1.783313-.308842 1.783313-.757161V-2.590286C1.783313-3.626401 2.49066-4.184309 3.128269-4.184309C3.755915-4.184309 3.865504-3.646326 3.865504-3.078456V-.757161C3.865504-.308842 3.755915-.308842 3.088418-.308842V0C3.437111-.009963 3.945205-.029888 4.214197-.029888C4.473225-.029888 4.991283-.009963 5.330012 0V-.308842C4.662516-.308842 4.552927-.308842 4.552927-.757161V-2.590286C4.552927-3.626401 5.260274-4.184309 5.897883-4.184309C6.525529-4.184309 6.635118-3.646326 6.635118-3.078456V-.757161C6.635118-.308842 6.525529-.308842 5.858032-.308842V0C6.206725-.009963 6.714819-.029888 6.983811-.029888C7.242839-.029888 7.760897-.009963 8.099626 0V-.308842C7.581569-.308842 7.332503-.308842 7.32254-.607721V-2.510585C7.32254-3.367372 7.32254-3.676214 7.013699-4.034869C6.874222-4.204234 6.545455-4.403487 5.967621-4.403487C5.13076-4.403487 4.692403-3.805729 4.523039-3.427148C4.383562-4.293898 3.646326-4.403487 3.198007-4.403487C2.470735-4.403487 2.002491-3.975093 1.723537-3.35741V-4.403487L.318804-4.293898V-3.985056C1.016189-3.985056 1.09589-3.915318 1.09589-3.427148Z'/>
<path id='g4-110' d='M1.09589-3.427148V-.757161C1.09589-.308842 .986301-.308842 .318804-.308842V0C.667497-.009963 1.175592-.029888 1.444583-.029888C1.703611-.029888 2.221669-.009963 2.560399 0V-.308842C1.892902-.308842 1.783313-.308842 1.783313-.757161V-2.590286C1.783313-3.626401 2.49066-4.184309 3.128269-4.184309C3.755915-4.184309 3.865504-3.646326 3.865504-3.078456V-.757161C3.865504-.308842 3.755915-.308842 3.088418-.308842V0C3.437111-.009963 3.945205-.029888 4.214197-.029888C4.473225-.029888 4.991283-.009963 5.330012 0V-.308842C4.811955-.308842 4.562889-.308842 4.552927-.607721V-2.510585C4.552927-3.367372 4.552927-3.676214 4.244085-4.034869C4.104608-4.204234 3.775841-4.403487 3.198007-4.403487C2.470735-4.403487 2.002491-3.975093 1.723537-3.35741V-4.403487L.318804-4.293898V-3.985056C1.016189-3.985056 1.09589-3.915318 1.09589-3.427148Z'/>
<path id='g4-111' d='M4.692403-2.132005C4.692403-3.407223 3.696139-4.463263 2.49066-4.463263C1.24533-4.463263 .278954-3.377335 .278954-2.132005C.278954-.846824 1.315068 .109589 2.480697 .109589C3.686177 .109589 4.692403-.86675 4.692403-2.132005ZM2.49066-.139477C2.062267-.139477 1.62391-.348692 1.354919-.806974C1.105853-1.24533 1.105853-1.853051 1.105853-2.211706C1.105853-2.600249 1.105853-3.138232 1.344956-3.576588C1.613948-4.034869 2.082192-4.244085 2.480697-4.244085C2.919054-4.244085 3.347447-4.024907 3.606476-3.596513S3.865504-2.590286 3.865504-2.211706C3.865504-1.853051 3.865504-1.315068 3.646326-.876712C3.427148-.428394 2.988792-.139477 2.49066-.139477Z'/>
<path id='g4-112' d='M1.713574-3.745953V-4.403487L.278954-4.293898V-3.985056C.986301-3.985056 1.05604-3.92528 1.05604-3.486924V1.175592C1.05604 1.62391 .946451 1.62391 .278954 1.62391V1.932752C.617684 1.92279 1.135741 1.902864 1.39477 1.902864C1.663761 1.902864 2.171856 1.92279 2.520548 1.932752V1.62391C1.853051 1.62391 1.743462 1.62391 1.743462 1.175592V-.498132V-.587796C1.793275-.428394 2.211706 .109589 2.968867 .109589C4.154421 .109589 5.190535-.86675 5.190535-2.15193C5.190535-3.417186 4.224159-4.403487 3.108344-4.403487C2.331258-4.403487 1.912827-3.965131 1.713574-3.745953ZM1.743462-1.135741V-3.35741C2.032379-3.865504 2.520548-4.154421 3.028643-4.154421C3.755915-4.154421 4.363636-3.277709 4.363636-2.15193C4.363636-.946451 3.666252-.109589 2.929016-.109589C2.530511-.109589 2.15193-.308842 1.882939-.71731C1.743462-.926526 1.743462-.936488 1.743462-1.135741Z'/>
<path id='g4-114' d='M1.663761-3.307597V-4.403487L.278954-4.293898V-3.985056C.976339-3.985056 1.05604-3.915318 1.05604-3.427148V-.757161C1.05604-.308842 .946451-.308842 .278954-.308842V0C.667497-.009963 1.135741-.029888 1.414695-.029888C1.8132-.029888 2.281445-.029888 2.67995 0V-.308842H2.470735C1.733499-.308842 1.713574-.418431 1.713574-.777086V-2.311333C1.713574-3.297634 2.132005-4.184309 2.889166-4.184309C2.958904-4.184309 2.978829-4.184309 2.998755-4.174346C2.968867-4.164384 2.769614-4.044832 2.769614-3.785803C2.769614-3.506849 2.978829-3.35741 3.198007-3.35741C3.377335-3.35741 3.626401-3.476961 3.626401-3.795766S3.317559-4.403487 2.889166-4.403487C2.161893-4.403487 1.803238-3.73599 1.663761-3.307597Z'/>
<path id='g4-115' d='M2.072229-1.932752C2.291407-1.892902 3.108344-1.733499 3.108344-1.016189C3.108344-.508095 2.759651-.109589 1.982565-.109589C1.145704-.109589 .787049-.67746 .597758-1.524284C.56787-1.653798 .557908-1.693649 .458281-1.693649C.328767-1.693649 .328767-1.62391 .328767-1.444583V-.129514C.328767 .039851 .328767 .109589 .438356 .109589C.488169 .109589 .498132 .099626 .687422-.089664C.707347-.109589 .707347-.129514 .886675-.318804C1.325031 .099626 1.77335 .109589 1.982565 .109589C3.128269 .109589 3.58655-.557908 3.58655-1.275218C3.58655-1.803238 3.287671-2.102117 3.16812-2.221669C2.839352-2.540473 2.450809-2.620174 2.032379-2.699875C1.474471-2.809465 .806974-2.938979 .806974-3.516812C.806974-3.865504 1.066002-4.273973 1.92279-4.273973C3.01868-4.273973 3.068493-3.377335 3.088418-3.068493C3.098381-2.978829 3.188045-2.978829 3.20797-2.978829C3.337484-2.978829 3.337484-3.028643 3.337484-3.217933V-4.224159C3.337484-4.393524 3.337484-4.463263 3.227895-4.463263C3.178082-4.463263 3.158157-4.463263 3.028643-4.343711C2.998755-4.303861 2.899128-4.214197 2.859278-4.184309C2.480697-4.463263 2.072229-4.463263 1.92279-4.463263C.707347-4.463263 .328767-3.795766 .328767-3.237858C.328767-2.889166 .488169-2.610212 .757161-2.391034C1.075965-2.132005 1.354919-2.072229 2.072229-1.932752Z'/>
<path id='g4-116' d='M1.723537-3.985056H3.148194V-4.293898H1.723537V-6.127024H1.474471C1.464508-5.310087 1.165629-4.244085 .18929-4.204234V-3.985056H1.036115V-1.235367C1.036115-.009963 1.96264 .109589 2.321295 .109589C3.028643 .109589 3.307597-.597758 3.307597-1.235367V-1.803238H3.058531V-1.255293C3.058531-.518057 2.759651-.139477 2.391034-.139477C1.723537-.139477 1.723537-1.046077 1.723537-1.215442V-3.985056Z'/>
<path id='g4-117' d='M3.895392-.787049V.109589L5.330012 0V-.308842C4.632628-.308842 4.552927-.37858 4.552927-.86675V-4.403487L3.088418-4.293898V-3.985056C3.785803-3.985056 3.865504-3.915318 3.865504-3.427148V-1.653798C3.865504-.787049 3.387298-.109589 2.660025-.109589C1.823163-.109589 1.783313-.577833 1.783313-1.09589V-4.403487L.318804-4.293898V-3.985056C1.09589-3.985056 1.09589-3.955168 1.09589-3.068493V-1.574097C1.09589-.797011 1.09589 .109589 2.610212 .109589C3.16812 .109589 3.606476-.169365 3.895392-.787049Z'/>
<path id='g4-119' d='M6.166874-3.347447C6.346202-3.845579 6.655044-3.975093 7.003736-3.985056V-4.293898C6.784558-4.273973 6.495641-4.26401 6.276463-4.26401C5.987547-4.26401 5.539228-4.283935 5.349938-4.293898V-3.985056C5.708593-3.975093 5.927771-3.795766 5.927771-3.506849C5.927771-3.447073 5.927771-3.427148 5.877958-3.297634L4.971357-.747198L3.985056-3.526775C3.945205-3.646326 3.935243-3.666252 3.935243-3.716065C3.935243-3.985056 4.323786-3.985056 4.523039-3.985056V-4.293898C4.234122-4.283935 3.726027-4.26401 3.486924-4.26401C3.188045-4.26401 2.899128-4.273973 2.600249-4.293898V-3.985056C2.968867-3.985056 3.128269-3.965131 3.227895-3.835616C3.277709-3.775841 3.387298-3.476961 3.457036-3.287671L2.600249-.876712L1.653798-3.536737C1.603985-3.656289 1.603985-3.676214 1.603985-3.716065C1.603985-3.985056 1.992528-3.985056 2.191781-3.985056V-4.293898C1.892902-4.283935 1.334994-4.26401 1.105853-4.26401C1.066002-4.26401 .537983-4.273973 .179328-4.293898V-3.985056C.67746-3.985056 .797011-3.955168 .916563-3.636364L2.171856-.109589C2.221669 .029888 2.251557 .109589 2.381071 .109589S2.530511 .049813 2.580324-.089664L3.58655-2.909091L4.60274-.079701C4.64259 .029888 4.672478 .109589 4.801993 .109589S4.961395 .019925 5.001245-.079701L6.166874-3.347447Z'/>
</defs>
<g id='page1'>
<use x='15.522768' y='0' xlink:href='#g4-81'/>
<use x='23.271516' y='0' xlink:href='#g4-117'/>
<use x='28.806332' y='0' xlink:href='#g4-101'/>
<use x='33.234184' y='0' xlink:href='#g4-115'/>
<use x='37.163902' y='0' xlink:href='#g4-116'/>
<use x='41.038276' y='0' xlink:href='#g4-105'/>
<use x='43.805684' y='0' xlink:href='#g4-111'/>
<use x='48.787023' y='0' xlink:href='#g4-110'/>
<use x='54.32184' y='0' xlink:href='#g4-58'/>
<use x='61.517087' y='0' xlink:href='#g1-102'/>
<use x='66.394655' y='1.494381' xlink:href='#g5-48'/>
<use x='74.184899' y='0' xlink:href='#g4-111'/>
<use x='79.166238' y='0' xlink:href='#g4-102'/>
<use x='85.53127' y='0' xlink:href='#g4-100'/>
<use x='91.066087' y='0' xlink:href='#g4-101'/>
<use x='95.493939' y='0' xlink:href='#g4-103'/>
<use x='100.475278' y='0' xlink:href='#g4-114'/>
<use x='104.377329' y='0' xlink:href='#g4-101'/>
<use x='108.80518' y='0' xlink:href='#g4-101'/>
<use x='116.553907' y='0' xlink:href='#g1-100'/>
<use x='124.506672' y='0' xlink:href='#g1-62'/>
<use x='135.022752' y='0' xlink:href='#g1-110'/>
<use x='141.002677' y='0' xlink:href='#g4-46'/>
<use x='148.197924' y='0' xlink:href='#g4-67'/>
<use x='155.393184' y='0' xlink:href='#g4-97'/>
<use x='160.374523' y='0' xlink:href='#g4-110'/>
<use x='169.230215' y='0' xlink:href='#g4-119'/>
<use x='176.148726' y='0' xlink:href='#g4-101'/>
<use x='183.897453' y='0' xlink:href='#g4-99'/>
<use x='188.325305' y='0' xlink:href='#g4-111'/>
<use x='193.306644' y='0' xlink:href='#g4-109'/>
<use x='201.608869' y='0' xlink:href='#g4-112'/>
<use x='207.143686' y='0' xlink:href='#g4-108'/>
<use x='209.911095' y='0' xlink:href='#g4-101'/>
<use x='214.338946' y='0' xlink:href='#g4-116'/>
<use x='218.21332' y='0' xlink:href='#g4-101'/>
<use x='225.962047' y='0' xlink:href='#g4-116'/>
<use x='229.83642' y='0' xlink:href='#g4-104'/>
<use x='235.371237' y='0' xlink:href='#g4-101'/>
<use x='243.119964' y='0' xlink:href='#g4-100'/>
<use x='248.654781' y='0' xlink:href='#g4-105'/>
<use x='251.422189' y='0' xlink:href='#g4-97'/>
<use x='256.403529' y='0' xlink:href='#g4-103'/>
<use x='261.384868' y='0' xlink:href='#g4-114'/>
<use x='265.286918' y='0' xlink:href='#g4-97'/>
<use x='270.268257' y='0' xlink:href='#g4-109'/>
<use x='281.891357' y='0' xlink:href='#g4-119'/>
<use x='289.086618' y='0' xlink:href='#g4-105'/>
<use x='291.854026' y='0' xlink:href='#g4-116'/>
<use x='295.7284' y='0' xlink:href='#g4-104'/>
<use x='304.584092' y='0' xlink:href='#g0-70'/>
<use x='310.672387' y='1.494381' xlink:href='#g2-112'/>
<use x='314.779343' y='-.907714' xlink:href='#g3-110'/>
<use x='314.779343' y='3.767017' xlink:href='#g3-105'/>
<use x='323.484008' y='0' xlink:href='#g4-63'/>
</g>
</svg>