<?xml version='1.0' encoding='UTF-8'?>
<!-- This file was generated by dvisvgm 2.13.1 -->
<svg version='1.1' xmlns='http://www.w3.org/2000/svg' xmlns:xlink='http://www.w3.org/1999/xlink' width='122.577373pt' height='30.186558pt' viewBox='110.317799 -10.460846 122.577373 30.186558'>
<defs>
<path id='g0-80' d='M2.933998-2.535492C3.153176-2.814446 3.437111-3.153176 3.890411-3.153176C4.144458-3.153176 4.259029-3.053549 4.273973-2.759651C4.283935-2.495641 4.393524-2.351183 4.612702-2.311333C4.373599-2.156912 4.079701-1.942715 4.079701-1.723537C4.079701-1.489415 4.458281-1.175592 4.582814-.946451C4.622665-.876712 4.667497-.762142 4.667497-.687422C4.667497-.448319 4.448319-.308842 4.184309-.308842C3.930262-.308842 3.815691-.368618 2.938979-.607721H2.933998V-2.535492ZM2.859278-2.689913C2.729763-3.033624 2.351183-3.412204 1.917808-3.412204C1.3599-3.412204 .966376-3.103362 .821918-2.983811C.657534-2.844334 .518057-2.694894 .518057-2.495641C.518057-2.231631 .772105-2.042341 .951432-1.833126C.986301-1.793275 1.026152-1.748443 1.026152-1.69863C1.026152-1.539228 .826899-1.379826 .64259-1.295143L.737235-1.240349C1.085928-1.384807 1.469489-1.589041 1.469489-1.907846C1.469489-2.206725 .911582-2.420922 .911582-2.744707C.911582-2.998755 1.160648-3.098381 1.519303-3.098381C2.11208-3.098381 2.460772-2.535492 2.460772-1.972603V-.727273C2.356164-.752179 2.251557-.767123 2.176837-.767123C1.65878-.767123 1.389788-.363636 1.190535-.024907L1.250311 .079701C1.444583-.129514 1.653798-.398506 1.982565-.398506C2.087173-.398506 2.266501-.363636 2.460772-.313823C2.460772 .139477 2.420922 .79203 2.30137 1.036115L2.425903 1.090909C2.615193 .976339 2.963885 .767123 2.998755 .742217C2.953923 .433375 2.933998 .124533 2.933998-.184309L3.641345 .024907C3.696139 .039851 3.765878 .054795 3.825654 .054795C4.418431 .054795 4.971357-.542964 4.971357-1.061021C4.971357-1.439601 4.523039-1.688667 4.523039-1.987547C4.523039-2.1868 4.98132-2.465753 5.290162-2.600249L5.260274-2.67995C5.190535-2.660025 5.110834-2.6401 5.036115-2.6401C4.587796-2.6401 4.98132-3.447073 4.303861-3.447073C3.696139-3.447073 3.20797-3.038605 2.859278-2.689913Z'/>
<path id='g2-80' d='M4.084682-5.070984C4.443337-5.628892 4.921544-6.306351 5.678705-6.306351C6.156912-6.306351 6.296389-6.03736 6.316314-5.519303C6.336239-4.991283 6.515567-4.702366 6.874222-4.622665C6.495641-4.313823 5.997509-3.905355 5.997509-3.447073C5.997509-2.769614 6.973848-2.032379 6.973848-1.374844C6.973848-.896638 6.60523-.617684 6.166874-.617684C5.758406-.617684 5.529265-.747198 4.094645-1.215442H4.084682V-5.070984ZM3.965131-5.379826C3.73599-6.057285 3.118306-6.824408 2.391034-6.824408C1.454545-6.824408 .806974-6.206725 .56787-5.967621C.288917-5.688667 .059776-5.389788 .059776-4.991283C.059776-4.463263 .468244-4.104608 .777086-3.666252C.836862-3.58655 .9066-3.496887 .9066-3.39726C.9066-3.078456 .577833-2.759651 .268991-2.590286L.418431-2.480697C1.006227-2.779577 1.643836-3.178082 1.643836-3.815691C1.643836-4.433375 .707347-4.841843 .707347-5.489415C.707347-5.997509 1.135741-6.196762 1.723537-6.196762C2.719801-6.196762 3.297634-5.070984 3.297634-3.945205V-1.454545C3.118306-1.504359 2.948941-1.534247 2.819427-1.534247C1.96264-1.534247 1.514321-.727273 1.175592-.049813L1.275218 .159402C1.594022-.259029 1.942715-.797011 2.500623-.797011C2.669988-.797011 2.968867-.727273 3.297634-.627646C3.297634 .278954 3.237858 1.564134 3.028643 2.072229L3.237858 2.181818C3.556663 1.952677 4.134496 1.534247 4.194271 1.484433C4.11457 .86675 4.084682 .249066 4.084682-.368618L5.260274 .049813C5.3599 .079701 5.469489 .109589 5.569116 .109589C6.545455 .109589 7.481943-1.066002 7.481943-2.122042C7.481943-2.86924 6.734745-3.367372 6.734745-3.975093C6.734745-4.383562 7.511831-4.941469 8.009963-5.200498L7.960149-5.3599C7.840598-5.32005 7.711083-5.280199 7.591532-5.280199C6.814446-5.280199 7.501868-6.894147 6.366127-6.894147C5.429639-6.894147 4.443337-6.097136 3.965131-5.379826Z'/>
<path id='g4-30' d='M3.431133-4.749191C3.431133-4.839851 3.347447-4.839851 3.312578-4.839851C3.20797-4.839851 3.200996-4.804981 3.173101-4.686426L2.775592-3.089415C1.54122-3.033624 .488169-2.147945 .488169-1.21345C.488169-.425405 1.206476 .048817 1.980573 .076712C1.924782 .292902 1.875965 .516065 1.820174 .732254C1.736488 1.060025 1.673724 1.318057 1.673724 1.338979C1.673724 1.422665 1.764384 1.422665 1.785305 1.422665C1.889913 1.422665 1.896887 1.401743 1.931756 1.255293L2.224658 .083686C3.417186 .034869 4.51208-.843836 4.51208-1.792279C4.51208-2.524533 3.870486-3.047572 3.019676-3.082441L3.431133-4.749191ZM2.02939-.118555C1.492403-.146451 .99726-.439352 .99726-1.094894C.99726-1.792279 1.527273-2.775592 2.719801-2.887173L2.02939-.118555ZM2.963885-2.887173C3.500872-2.866252 4.002989-2.57335 4.002989-1.910834C4.002989-1.150685 3.403238-.216189 2.273474-.118555L2.963885-2.887173Z'/>
<path id='g4-60' d='M5.314072-3.668244C5.397758-3.710087 5.467497-3.758904 5.467497-3.849564C5.467497-3.947198 5.390785-4.02391 5.293151-4.02391C5.286177-4.02391 5.251308-4.02391 5.167621-3.982067L.9066-1.931756C.822914-1.889913 .753176-1.841096 .753176-1.750436C.753176-1.638854 .829888-1.603985 .899626-1.569116L5.153674 .481196C5.251308 .530012 5.279203 .530012 5.293151 .530012C5.390785 .530012 5.467497 .4533 5.467497 .355666C5.467497 .251059 5.383811 .209215 5.321046 .18132L1.318057-1.743462L5.314072-3.668244Z'/>
<path id='g4-66' d='M1.325031-.54396C1.262267-.306849 1.248319-.251059 .711333-.251059C.592777-.251059 .502117-.251059 .502117-.104608C.502117 0 .585803 0 .711333 0H3.410212C4.581818 0 5.481445-.801993 5.481445-1.492403C5.481445-1.987547 5.028144-2.412951 4.288917-2.489664C5.132752-2.643088 5.837111-3.173101 5.837111-3.772852C5.837111-4.302864 5.300125-4.763138 4.393524-4.763138H1.855044C1.72254-4.763138 1.63188-4.763138 1.63188-4.609714C1.63188-4.51208 1.715567-4.51208 1.855044-4.51208C1.862017-4.51208 1.994521-4.51208 2.12005-4.498132C2.266501-4.484184 2.280448-4.470237 2.280448-4.400498C2.280448-4.38655 2.280448-4.351681 2.252553-4.247073L1.325031-.54396ZM2.440847-2.57335L2.866252-4.274969C2.922042-4.491158 2.929016-4.51208 3.221918-4.51208H4.281943C4.993275-4.51208 5.153674-4.044832 5.153674-3.779826C5.153674-3.214944 4.519054-2.57335 3.584558-2.57335H2.440847ZM2.106102-.251059C1.889913-.251059 1.882939-.258032 1.882939-.320797C1.882939-.327771 1.882939-.36264 1.910834-.467248L2.39203-2.378082H3.870486C4.526027-2.378082 4.777086-1.945704 4.777086-1.54122C4.777086-.850809 4.072727-.251059 3.228892-.251059H2.106102Z'/>
<path id='g1-80' d='M3.249813-3.549689C3.528767-3.947198 3.898381-4.414446 4.470237-4.414446C4.818929-4.414446 4.937484-4.2401 4.958406-3.863512C4.972354-3.486924 5.111831-3.291656 5.383811-3.235866C5.090909-3.012702 4.714321-2.733748 4.714321-2.412951C4.714321-2.085181 5.181569-1.652802 5.348941-1.325031C5.397758-1.220423 5.460523-1.066999 5.460523-.962391C5.460523-.641594 5.181569-.432379 4.839851-.432379C4.526027-.432379 4.337733-.523039 3.263761-.850809H3.249813V-3.549689ZM3.159153-3.765878C2.998755-4.2401 2.510585-4.777086 1.959651-4.777086C1.248319-4.777086 .753176-4.344707 .571856-4.177335C.355666-3.982067 .18132-3.772852 .18132-3.493898C.18132-3.124284 .502117-2.866252 .732254-2.566376C.774097-2.510585 .829888-2.447821 .829888-2.378082C.829888-2.161893 .578829-1.931756 .341719-1.8132L.460274-1.736488C.913574-1.945704 1.387796-2.224658 1.387796-2.670984C1.387796-3.096389 .676463-3.38929 .676463-3.84259C.676463-4.184309 .983313-4.337733 1.45056-4.337733C2.203736-4.337733 2.650062-3.556663 2.650062-2.761644V-1.018182C2.517559-1.053051 2.385056-1.073973 2.287422-1.073973C1.638854-1.073973 1.297136-.523039 1.03213-.034869L1.108842 .111582C1.3599-.18132 1.624907-.557908 2.043337-.557908C2.175841-.557908 2.399004-.509091 2.650062-.439352C2.650062 .195268 2.601245 1.080946 2.447821 1.45056L2.608219 1.527273C2.852304 1.366874 3.291656 1.073973 3.333499 1.039103C3.277709 .606725 3.249813 .174346 3.249813-.258032L4.14944 .034869C4.226152 .055791 4.309838 .076712 4.38655 .076712C5.139726 .076712 5.844085-.760149 5.844085-1.48543C5.844085-2.015442 5.272229-2.364134 5.272229-2.782565C5.272229-3.068493 5.87198-3.459029 6.248568-3.640349L6.206725-3.75193C6.123039-3.724035 6.025405-3.696139 5.927771-3.696139C5.348941-3.696139 5.858032-4.825903 4.993275-4.825903C4.198257-4.825903 3.640349-4.247073 3.159153-3.765878Z'/>
<path id='g1-118' d='M.969365-1.610959C.969365-1.164633 .948443-.843836 .913574-.460274C1.185554-.258032 1.457534-.034869 1.694645 .195268L3.333499-.599751C3.459029-.878705 3.57061-1.45056 3.57061-1.708593C3.57061-2.203736 3.57061-2.440847 3.528767-2.901121C3.214944-3.012702 2.929016-3.159153 2.657036-3.326526L1.569116-2.608219V-2.84533C1.387796-3.02665 1.220423-3.200996 1.220423-3.368369C1.220423-3.486924 1.26924-3.591532 1.338979-3.689166L1.234371-3.717061C1.004234-3.507846 .627646-3.138232 .627646-2.915068C.627646-2.684932 .934496-2.580324 .934496-2.405978C.955417-2.092154 .969365-1.827148 .969365-1.610959ZM1.569116-2.426899C1.778331-2.57335 2.043337-2.747696 2.259527-2.761644C2.496638-2.719801 2.726775-2.643088 2.908095-2.496638C2.942964-2.231631 2.970859-1.959651 2.970859-1.694645C2.970859-1.21345 2.859278-.341719 2.405978-.341719C2.12005-.341719 1.889913-.648568 1.799253-.648568C1.652802-.753176 1.534247-.9066 1.54122-1.080946L1.569116-2.426899Z'/>
<path id='g8-89' d='M12.164384 13.947696V13.409714C10.839352 13.409714 10.530511 12.951432 10.530511 12.313823V1.633873C10.530511 .986301 10.849315 .537983 12.164384 .537983V0H.557908V.537983C1.882939 .537983 2.191781 .996264 2.191781 1.633873V12.313823C2.191781 12.961395 1.872976 13.409714 .557908 13.409714V13.947696H5.349938V13.409714C4.024907 13.409714 3.716065 12.951432 3.716065 12.313823V.537983H9.006227V12.313823C9.006227 12.961395 8.687422 13.409714 7.372354 13.409714V13.947696H12.164384Z'/>
<path id='g6-40' d='M2.475716-5.230386C1.150685-4.29589 .801993-2.817435 .801993-1.750436C.801993-.767123 1.094894 .760149 2.475716 1.736488C2.531507 1.736488 2.615193 1.736488 2.615193 1.652802C2.615193 1.610959 2.594271 1.597011 2.545455 1.548194C1.617933 .711333 1.276214-.474222 1.276214-1.743462C1.276214-3.626401 1.994521-4.546949 2.566376-5.063014C2.594271-5.090909 2.615193-5.111831 2.615193-5.1467C2.615193-5.230386 2.531507-5.230386 2.475716-5.230386Z'/>
<path id='g6-41' d='M.627646-5.230386C.578829-5.230386 .495143-5.230386 .495143-5.1467C.495143-5.111831 .516065-5.090909 .557908-5.042092C1.157659-4.491158 1.827148-3.549689 1.827148-1.750436C1.827148-.292902 1.373848 .808966 .620672 1.492403C.502117 1.610959 .495143 1.617933 .495143 1.652802S.516065 1.736488 .585803 1.736488C.669489 1.736488 1.332005 1.276214 1.792279 .404483C2.099128-.174346 2.30137-.927522 2.30137-1.743462C2.30137-2.726775 2.008468-4.254047 .627646-5.230386Z'/>
<path id='g6-48' d='M3.598506-2.224658C3.598506-2.991781 3.507846-3.542715 3.187049-4.030884C2.970859-4.351681 2.538481-4.630635 1.980573-4.630635C.36264-4.630635 .36264-2.726775 .36264-2.224658S.36264 .139477 1.980573 .139477S3.598506-1.72254 3.598506-2.224658ZM1.980573-.055791C1.659776-.055791 1.234371-.244085 1.094894-.81594C.99726-1.227397 .99726-1.799253 .99726-2.315318C.99726-2.824408 .99726-3.354421 1.101868-3.737983C1.248319-4.288917 1.694645-4.435367 1.980573-4.435367C2.357161-4.435367 2.719801-4.20523 2.84533-3.800747C2.956912-3.424159 2.963885-2.922042 2.963885-2.315318C2.963885-1.799253 2.963885-1.283188 2.873225-.843836C2.733748-.209215 2.259527-.055791 1.980573-.055791Z'/>
<path id='g6-49' d='M2.336239-4.435367C2.336239-4.623661 2.322291-4.630635 2.127024-4.630635C1.680697-4.191283 1.046077-4.184309 .760149-4.184309V-3.93325C.927522-3.93325 1.387796-3.93325 1.771357-4.128518V-.571856C1.771357-.341719 1.771357-.251059 1.073973-.251059H.808966V0C.934496-.006974 1.792279-.027895 2.050311-.027895C2.266501-.027895 3.145205-.006974 3.29863 0V-.251059H3.033624C2.336239-.251059 2.336239-.341719 2.336239-.571856V-4.435367Z'/>
<path id='g6-97' d='M3.110336-1.868991C3.110336-2.238605 3.110336-2.503611 2.789539-2.761644C2.503611-2.998755 2.168867-3.110336 1.75741-3.110336C1.094894-3.110336 .627646-2.859278 .627646-2.433873C.627646-2.21071 .781071-2.092154 .962391-2.092154C1.150685-2.092154 1.290162-2.231631 1.290162-2.419925C1.290162-2.538481 1.234371-2.684932 1.046077-2.740722C1.297136-2.915068 1.701619-2.915068 1.743462-2.915068C2.133998-2.915068 2.559402-2.657036 2.559402-2.071233V-1.855044C2.175841-1.841096 1.715567-1.820174 1.206476-1.63188C.578829-1.401743 .383562-1.018182 .383562-.704359C.383562-.104608 1.108842 .069738 1.603985 .069738C2.161893 .069738 2.489664-.244085 2.636115-.516065C2.66401-.230137 2.852304 .034869 3.173101 .034869C3.187049 .034869 3.863512 .034869 3.863512-.627646V-1.011208H3.626401V-.63462C3.626401-.564882 3.626401-.230137 3.368369-.230137S3.110336-.557908 3.110336-.648568V-1.868991ZM2.559402-.983313C2.559402-.313823 1.973599-.125529 1.659776-.125529C1.30411-.125529 .969365-.36264 .969365-.704359C.969365-1.08792 1.30411-1.624907 2.559402-1.673724V-.983313Z'/>
<path id='g6-100' d='M2.48269-4.763138V-4.51208C2.949938-4.51208 3.005729-4.463263 3.005729-4.121544V-2.677958C2.747696-2.929016 2.412951-3.075467 2.02939-3.075467C1.101868-3.075467 .320797-2.378082 .320797-1.499377C.320797-.627646 1.060025 .069738 1.945704 .069738C2.517559 .069738 2.859278-.237111 2.977833-.36264V.069738L4.051806 0V-.251059C3.584558-.251059 3.528767-.299875 3.528767-.641594V-4.839851L2.48269-4.763138ZM2.977833-.732254C2.796513-.404483 2.440847-.125529 1.987547-.125529C1.597011-.125529 1.318057-.355666 1.17858-.557908C1.039103-.767123 .955417-1.046077 .955417-1.492403C.955417-1.652802 .955417-2.175841 1.241345-2.503611C1.520299-2.817435 1.862017-2.880199 2.064259-2.880199C2.399004-2.880199 2.698879-2.726775 2.894147-2.475716C2.977833-2.364134 2.977833-2.357161 2.977833-2.224658V-.732254Z'/>
<path id='g6-101' d='M3.068493-1.590037C3.214944-1.590037 3.263761-1.590037 3.263761-1.743462C3.263761-2.357161 2.922042-3.110336 1.882939-3.110336C.969365-3.110336 .27198-2.385056 .27198-1.527273C.27198-.641594 1.046077 .069738 1.973599 .069738C2.915068 .069738 3.263761-.683437 3.263761-.836862C3.263761-.864757 3.249813-.934496 3.145205-.934496C3.054545-.934496 3.040598-.892653 3.019676-.822914C2.803487-.258032 2.273474-.153425 2.022416-.153425C1.694645-.153425 1.380822-.299875 1.171606-.564882C.913574-.892653 .9066-1.318057 .9066-1.590037H3.068493ZM.913574-1.771357C.990286-2.75467 1.617933-2.915068 1.882939-2.915068C2.740722-2.915068 2.768618-1.945704 2.775592-1.771357H.913574Z'/>
<path id='g6-102' d='M1.436613-2.75467H2.308344V-3.005729H1.408717V-3.7868C1.408717-4.42142 1.785305-4.714321 2.085181-4.714321C2.147945-4.714321 2.217684-4.700374 2.287422-4.679452C2.189788-4.623661 2.133998-4.51208 2.133998-4.400498C2.133998-4.212204 2.266501-4.079701 2.454795-4.079701S2.775592-4.212204 2.775592-4.400498C2.775592-4.700374 2.475716-4.909589 2.092154-4.909589C1.54122-4.909589 .913574-4.519054 .913574-3.7868V-3.005729H.313823V-2.75467H.913574V-.550934C.913574-.251059 .843836-.251059 .390535-.251059V0C.425405 0 .899626-.027895 1.185554-.027895C1.48543-.027895 1.792279-.013948 2.092154 0V-.251059H1.952677C1.436613-.251059 1.436613-.327771 1.436613-.564882V-2.75467Z'/>
<path id='g6-105' d='M1.471482-4.302864C1.471482-4.505106 1.30411-4.700374 1.066999-4.700374C.857783-4.700374 .669489-4.533001 .669489-4.302864C.669489-4.051806 .871731-3.898381 1.066999-3.898381C1.290162-3.898381 1.471482-4.072727 1.471482-4.302864ZM.411457-2.998755V-2.747696C.850809-2.747696 .913574-2.705853 .913574-2.364134V-.550934C.913574-.251059 .843836-.251059 .390535-.251059V0C.404483 0 .892653-.027895 1.171606-.027895C1.415691-.027895 1.66675-.020922 1.910834 0V-.251059C1.506351-.251059 1.436613-.251059 1.436613-.54396V-3.075467L.411457-2.998755Z'/>
<path id='g6-108' d='M1.436613-4.839851L.390535-4.763138V-4.51208C.857783-4.51208 .913574-4.463263 .913574-4.121544V-.550934C.913574-.251059 .843836-.251059 .390535-.251059V0C.404483 0 .892653-.027895 1.171606-.027895C1.436613-.027895 1.694645-.020922 1.959651 0V-.251059C1.506351-.251059 1.436613-.251059 1.436613-.550934V-4.839851Z'/>
<path id='g6-109' d='M5.732503-2.113076C5.732503-2.719801 5.432628-3.075467 4.686426-3.075467C4.135492-3.075467 3.758904-2.775592 3.57061-2.426899C3.431133-2.922042 3.054545-3.075467 2.545455-3.075467C1.973599-3.075467 1.603985-2.761644 1.408717-2.399004H1.401743V-3.075467L.376588-2.998755V-2.747696C.843836-2.747696 .899626-2.698879 .899626-2.357161V-.550934C.899626-.251059 .829888-.251059 .376588-.251059V0C.390535 0 .878705-.027895 1.171606-.027895C1.429639-.027895 1.910834-.006974 1.973599 0V-.251059C1.520299-.251059 1.45056-.251059 1.45056-.550934V-1.806227C1.45056-2.538481 2.02939-2.880199 2.489664-2.880199C2.977833-2.880199 3.040598-2.496638 3.040598-2.140971V-.550934C3.040598-.251059 2.970859-.251059 2.517559-.251059V0C2.531507 0 3.019676-.027895 3.312578-.027895C3.57061-.027895 4.051806-.006974 4.11457 0V-.251059C3.66127-.251059 3.591532-.251059 3.591532-.550934V-1.806227C3.591532-2.538481 4.170361-2.880199 4.630635-2.880199C5.118804-2.880199 5.181569-2.496638 5.181569-2.140971V-.550934C5.181569-.251059 5.111831-.251059 4.658531-.251059V0C4.672478 0 5.160648-.027895 5.453549-.027895C5.711582-.027895 6.192777-.006974 6.255542 0V-.251059C5.802242-.251059 5.732503-.251059 5.732503-.550934V-2.113076Z'/>
<path id='g6-110' d='M3.591532-2.113076C3.591532-2.719801 3.291656-3.075467 2.545455-3.075467C1.973599-3.075467 1.603985-2.761644 1.408717-2.399004H1.401743V-3.075467L.376588-2.998755V-2.747696C.843836-2.747696 .899626-2.698879 .899626-2.357161V-.550934C.899626-.251059 .829888-.251059 .376588-.251059V0C.390535 0 .878705-.027895 1.171606-.027895C1.429639-.027895 1.910834-.006974 1.973599 0V-.251059C1.520299-.251059 1.45056-.251059 1.45056-.550934V-1.806227C1.45056-2.538481 2.02939-2.880199 2.489664-2.880199C2.977833-2.880199 3.040598-2.496638 3.040598-2.140971V-.550934C3.040598-.251059 2.970859-.251059 2.517559-.251059V0C2.531507 0 3.019676-.027895 3.312578-.027895C3.57061-.027895 4.051806-.006974 4.11457 0V-.251059C3.66127-.251059 3.591532-.251059 3.591532-.550934V-2.113076Z'/>
<path id='g6-111' d='M3.689166-1.48543C3.689166-2.357161 2.942964-3.110336 1.980573-3.110336S.27198-2.357161 .27198-1.48543C.27198-.620672 1.039103 .069738 1.980573 .069738S3.689166-.620672 3.689166-1.48543ZM1.980573-.153425C1.72254-.153425 1.345953-.237111 1.115816-.578829C.927522-.864757 .9066-1.227397 .9066-1.548194C.9066-1.84807 .913574-2.259527 1.157659-2.559402C1.332005-2.761644 1.624907-2.915068 1.980573-2.915068C2.39203-2.915068 2.684932-2.719801 2.838356-2.503611C3.033624-2.231631 3.054545-1.882939 3.054545-1.548194S3.033624-.843836 2.831382-.557908C2.643088-.292902 2.322291-.153425 1.980573-.153425Z'/>
<path id='g6-112' d='M1.93873 1.101868C1.48543 1.101868 1.415691 1.101868 1.415691 .801993V-.334745C1.45056-.299875 1.778331 .069738 2.364134 .069738C3.284682 .069738 4.072727-.620672 4.072727-1.506351C4.072727-2.364134 3.361395-3.075467 2.475716-3.075467C2.078207-3.075467 1.673724-2.929016 1.387796-2.650062V-3.075467L.341719-2.998755V-2.747696C.829888-2.747696 .864757-2.712827 .864757-2.419925V.801993C.864757 1.101868 .795019 1.101868 .341719 1.101868V1.352927C.355666 1.352927 .843836 1.325031 1.136737 1.325031C1.39477 1.325031 1.875965 1.345953 1.93873 1.352927V1.101868ZM1.415691-2.322291C1.624907-2.670984 2.02939-2.852304 2.399004-2.852304C2.984807-2.852304 3.438107-2.238605 3.438107-1.506351C3.438107-.711333 2.915068-.125529 2.322291-.125529C1.708593-.125529 1.436613-.662516 1.415691-.704359V-2.322291Z'/>
<path id='g6-114' d='M1.387796-1.590037C1.387796-2.175841 1.659776-2.880199 2.322291-2.880199C2.259527-2.831382 2.203736-2.740722 2.203736-2.629141C2.203736-2.399004 2.385056-2.308344 2.517559-2.308344C2.684932-2.308344 2.838356-2.419925 2.838356-2.629141C2.838356-2.866252 2.615193-3.075467 2.287422-3.075467C1.93873-3.075467 1.555168-2.859278 1.345953-2.329265H1.338979V-3.075467L.341719-2.998755V-2.747696C.808966-2.747696 .864757-2.698879 .864757-2.357161V-.550934C.864757-.251059 .795019-.251059 .341719-.251059V0C.376588 0 .850809-.027895 1.136737-.027895C1.436613-.027895 1.743462-.013948 2.043337 0V-.251059H1.903861C1.387796-.251059 1.387796-.327771 1.387796-.564882V-1.590037Z'/>
<path id='g3-30' d='M4.353674-6.674969C4.353674-6.694894 4.383562-6.804483 4.383562-6.814446S4.383562-6.914072 4.26401-6.914072C4.164384-6.914072 4.154421-6.884184 4.11457-6.714819L3.536737-4.41345C1.952677-4.363636 .488169-3.038605 .488169-1.683686C.488169-.737235 1.185554 .049813 2.400996 .119552C2.321295 .428394 2.251557 .747198 2.171856 1.05604C2.052304 1.524284 1.952677 1.902864 1.952677 1.932752C1.952677 2.032379 2.022416 2.042341 2.072229 2.042341S2.141968 2.032379 2.171856 2.002491C2.191781 1.982565 2.251557 1.743462 2.281445 1.603985L2.660025 .119552C4.26401 .069738 5.708593-1.275218 5.708593-2.610212C5.708593-3.39726 5.180573-4.313823 3.795766-4.41345L4.353674-6.674969ZM2.450809-.099626C1.853051-.129514 1.135741-.478207 1.135741-1.474471C1.135741-2.669988 1.992528-4.064757 3.476961-4.194271L2.450809-.099626ZM3.73599-4.194271C4.493151-4.154421 5.061021-3.696139 5.061021-2.819427C5.061021-1.643836 4.204234-.219178 2.709838-.099626L3.73599-4.194271Z'/>
<path id='g7-48' d='M2.993773-1.594022C2.993773-1.952677 2.993773-3.317559 1.693649-3.317559S.393524-1.952677 .393524-1.594022C.393524-1.230386 .393524 .109589 1.693649 .109589S2.993773-1.230386 2.993773-1.594022ZM1.693649-.054795C1.50934-.054795 1.090909-.119552 .966376-.622665C.896638-.891656 .891656-1.24533 .891656-1.653798C.891656-2.022416 .891656-2.366127 .971357-2.650062C1.09589-3.068493 1.479452-3.153176 1.693649-3.153176C2.062267-3.153176 2.326276-2.963885 2.425903-2.615193C2.495641-2.361146 2.495641-1.947696 2.495641-1.653798C2.495641-1.315068 2.495641-.911582 2.420922-.612702C2.291407-.129514 1.892902-.054795 1.693649-.054795Z'/>
<path id='g7-49' d='M1.982565-3.16812C1.982565-3.317559 1.967621-3.317559 1.803238-3.317559C1.449564-2.998755 .896638-2.998755 .797011-2.998755H.712329V-2.779577H.797011C.911582-2.779577 1.235367-2.794521 1.524284-2.919054V-.428394C1.524284-.273973 1.524284-.219178 .996264-.219178H.747198V0C1.021171-.019925 1.464508-.019925 1.753425-.019925S2.485679-.019925 2.759651 0V-.219178H2.510585C1.982565-.219178 1.982565-.273973 1.982565-.428394V-3.16812Z'/>
<path id='g5-40' d='M3.297634 2.391034C3.297634 2.361146 3.297634 2.34122 3.128269 2.171856C1.882939 .916563 1.564134-.966376 1.564134-2.49066C1.564134-4.224159 1.942715-5.957659 3.16812-7.202989C3.297634-7.32254 3.297634-7.342466 3.297634-7.372354C3.297634-7.442092 3.257783-7.47198 3.198007-7.47198C3.098381-7.47198 2.201743-6.794521 1.613948-5.529265C1.105853-4.433375 .986301-3.327522 .986301-2.49066C.986301-1.713574 1.09589-.508095 1.643836 .617684C2.241594 1.843088 3.098381 2.49066 3.198007 2.49066C3.257783 2.49066 3.297634 2.460772 3.297634 2.391034Z'/>
<path id='g5-41' d='M2.879203-2.49066C2.879203-3.267746 2.769614-4.473225 2.221669-5.599004C1.62391-6.824408 .767123-7.47198 .667497-7.47198C.607721-7.47198 .56787-7.43213 .56787-7.372354C.56787-7.342466 .56787-7.32254 .757161-7.143213C1.733499-6.156912 2.30137-4.572852 2.30137-2.49066C2.30137-.787049 1.932752 .966376 .697385 2.221669C.56787 2.34122 .56787 2.361146 .56787 2.391034C.56787 2.450809 .607721 2.49066 .667497 2.49066C.767123 2.49066 1.663761 1.8132 2.251557 .547945C2.759651-.547945 2.879203-1.653798 2.879203-2.49066Z'/>
<path id='g5-61' d='M6.844334-3.257783C6.993773-3.257783 7.183064-3.257783 7.183064-3.457036S6.993773-3.656289 6.854296-3.656289H.886675C.747198-3.656289 .557908-3.656289 .557908-3.457036S.747198-3.257783 .896638-3.257783H6.844334ZM6.854296-1.325031C6.993773-1.325031 7.183064-1.325031 7.183064-1.524284S6.993773-1.723537 6.844334-1.723537H.896638C.747198-1.723537 .557908-1.723537 .557908-1.524284S.747198-1.325031 .886675-1.325031H6.854296Z'/>
</defs>
<g id='page1'>
<use x='110.317799' y='0' xlink:href='#g5-40'/>
<use x='114.192173' y='0' xlink:href='#g3-30'/>
<use x='120.12826' y='1.494381' xlink:href='#g6-48'/>
<use x='124.099501' y='1.494381' xlink:href='#g6-49'/>
<use x='128.568867' y='0' xlink:href='#g5-41'/>
<use x='135.210574' y='0' xlink:href='#g5-61'/>
<use x='163.510854' y='-9.464569' xlink:href='#g8-89'/>
<use x='145.726654' y='11.982881' xlink:href='#g1-80'/>
<use x='155.059943' y='11.982881' xlink:href='#g6-112'/>
<use x='159.460132' y='11.982881' xlink:href='#g6-114'/>
<use x='162.573475' y='11.982881' xlink:href='#g6-105'/>
<use x='164.828921' y='11.982881' xlink:href='#g6-109'/>
<use x='171.373853' y='11.982881' xlink:href='#g6-101'/>
<use x='177.600537' y='11.982881' xlink:href='#g6-105'/>
<use x='179.855982' y='11.982881' xlink:href='#g6-100'/>
<use x='184.256171' y='11.982881' xlink:href='#g6-101'/>
<use x='187.798463' y='11.982881' xlink:href='#g6-97'/>
<use x='191.769704' y='11.982881' xlink:href='#g6-108'/>
<use x='150.005362' y='19.197966' xlink:href='#g6-111'/>
<use x='153.976603' y='19.197966' xlink:href='#g6-102'/>
<use x='159.130921' y='19.197966' xlink:href='#g6-110'/>
<use x='163.53111' y='19.197966' xlink:href='#g6-111'/>
<use x='167.502351' y='19.197966' xlink:href='#g6-114'/>
<use x='170.615694' y='19.197966' xlink:href='#g6-109'/>
<use x='177.16061' y='19.197966' xlink:href='#g4-60'/>
<use x='183.38729' y='19.197966' xlink:href='#g4-66'/>
<use x='195.685518' y='0' xlink:href='#g2-80'/>
<use x='203.929872' y='-4.113496' xlink:href='#g1-118'/>
<use x='208.197471' y='-3.052016' xlink:href='#g0-80'/>
<use x='214.599732' y='-4.113496' xlink:href='#g6-40'/>
<use x='217.713075' y='-4.113496' xlink:href='#g4-30'/>
<use x='222.503459' y='-3.117232' xlink:href='#g7-48'/>
<use x='225.89358' y='-3.117232' xlink:href='#g7-49'/>
<use x='229.781829' y='-4.113496' xlink:href='#g6-41'/>
</g>
</svg>