<?xml version='1.0' encoding='UTF-8'?>
<!-- This file was generated by dvisvgm 2.13.1 -->
<svg version='1.1' xmlns='http://www.w3.org/2000/svg' xmlns:xlink='http://www.w3.org/1999/xlink' width='243.061374pt' height='9.436829pt' viewBox='50.324953 -9.436829 243.061374 9.436829'>
<defs>
<path id='g0-19' d='M3.73599-6.296389C3.825654-6.366127 3.905355-6.475716 3.905355-6.595268C3.905355-6.774595 3.726027-6.953923 3.5467-6.953923C3.39726-6.953923 3.287671-6.844334 3.247821-6.784558L2.052304-5.260274L2.221669-5.080946L3.73599-6.296389Z'/>
<path id='g0-67' d='M.557908-3.407223C.557908-1.344956 2.171856 .219178 4.024907 .219178C5.648817 .219178 6.625156-1.165629 6.625156-2.321295C6.625156-2.420922 6.625156-2.49066 6.495641-2.49066C6.386052-2.49066 6.386052-2.430884 6.37609-2.331258C6.296389-.9066 5.230386-.089664 4.144458-.089664C3.536737-.089664 1.58406-.428394 1.58406-3.39726C1.58406-6.37609 3.526775-6.714819 4.134496-6.714819C5.220423-6.714819 6.107098-5.808219 6.306351-4.353674C6.326276-4.214197 6.326276-4.184309 6.465753-4.184309C6.625156-4.184309 6.625156-4.214197 6.625156-4.423412V-6.784558C6.625156-6.953923 6.625156-7.023661 6.515567-7.023661C6.475716-7.023661 6.435866-7.023661 6.356164-6.90411L5.858032-6.166874C5.489415-6.525529 4.98132-7.023661 4.024907-7.023661C2.161893-7.023661 .557908-5.439601 .557908-3.407223Z'/>
<path id='g0-69' d='M1.354919-.777086C1.354919-.418431 1.334994-.308842 .56787-.308842H.328767V0H6.07721L6.495641-2.570361H6.246575C5.997509-1.036115 5.768369-.308842 4.054795-.308842H2.729763C2.261519-.308842 2.241594-.37858 2.241594-.707347V-3.367372H3.138232C4.104608-3.367372 4.214197-3.048568 4.214197-2.201743H4.463263V-4.841843H4.214197C4.214197-3.985056 4.104608-3.676214 3.138232-3.676214H2.241594V-6.067248C2.241594-6.396015 2.261519-6.465753 2.729763-6.465753H4.014944C5.539228-6.465753 5.808219-5.917808 5.967621-4.533001H6.216687L5.937733-6.774595H.328767V-6.465753H.56787C1.334994-6.465753 1.354919-6.356164 1.354919-5.997509V-.777086Z'/>
<path id='g0-72' d='M6.107098-6.027397C6.107098-6.386052 6.127024-6.495641 6.894147-6.495641H7.13325V-6.804483C6.784558-6.774595 6.047323-6.774595 5.668742-6.774595S4.542964-6.774595 4.194271-6.804483V-6.495641H4.433375C5.200498-6.495641 5.220423-6.386052 5.220423-6.027397V-3.696139H2.241594V-6.027397C2.241594-6.386052 2.261519-6.495641 3.028643-6.495641H3.267746V-6.804483C2.919054-6.774595 2.181818-6.774595 1.803238-6.774595S.67746-6.774595 .328767-6.804483V-6.495641H.56787C1.334994-6.495641 1.354919-6.386052 1.354919-6.027397V-.777086C1.354919-.418431 1.334994-.308842 .56787-.308842H.328767V0C.67746-.029888 1.414695-.029888 1.793275-.029888S2.919054-.029888 3.267746 0V-.308842H3.028643C2.261519-.308842 2.241594-.418431 2.241594-.777086V-3.387298H5.220423V-.777086C5.220423-.418431 5.200498-.308842 4.433375-.308842H4.194271V0C4.542964-.029888 5.280199-.029888 5.65878-.029888S6.784558-.029888 7.13325 0V-.308842H6.894147C6.127024-.308842 6.107098-.418431 6.107098-.777086V-6.027397Z'/>
<path id='g0-74' d='M3.008717-1.474471C3.008717-.557908 2.510585 0 1.982565 0C1.92279 0 1.24533 0 .886675-.577833C1.404732-.577833 1.524284-.876712 1.524284-1.135741C1.524284-1.494396 1.24533-1.693649 .966376-1.693649C.747198-1.693649 .408468-1.554172 .408468-1.115816C.408468-.37858 1.115816 .219178 2.002491 .219178C3.01868 .219178 3.745953-.478207 3.855542-1.225405C3.865504-1.305106 3.865504-1.325031 3.865504-1.663761V-6.087173C3.865504-6.495641 4.004981-6.495641 4.632628-6.495641V-6.804483C4.194271-6.784558 3.815691-6.774595 3.347447-6.774595C2.929016-6.774595 2.052304-6.774595 1.673724-6.804483V-6.495641H2.032379C3.008717-6.495641 3.008717-6.366127 3.008717-6.017435V-1.474471Z'/>
<path id='g0-77' d='M2.400996-6.585305C2.311333-6.804483 2.281445-6.804483 2.052304-6.804483H.368618V-6.495641H.607721C1.374844-6.495641 1.39477-6.386052 1.39477-6.027397V-1.046077C1.39477-.777086 1.39477-.308842 .368618-.308842V0C.71731-.009963 1.205479-.029888 1.534247-.029888S2.351183-.009963 2.699875 0V-.308842C1.673724-.308842 1.673724-.777086 1.673724-1.046077V-6.41594H1.683686L4.084682-.219178C4.134496-.089664 4.184309 0 4.283935 0C4.393524 0 4.423412-.079701 4.463263-.18929L6.914072-6.495641H6.924035V-.777086C6.924035-.418431 6.90411-.308842 6.136986-.308842H5.897883V0C6.266501-.029888 6.94396-.029888 7.332503-.029888S8.388543-.029888 8.757161 0V-.308842H8.518057C7.750934-.308842 7.731009-.418431 7.731009-.777086V-6.027397C7.731009-6.386052 7.750934-6.495641 8.518057-6.495641H8.757161V-6.804483H7.073474C6.814446-6.804483 6.814446-6.794521 6.744707-6.615193L4.562889-1.006227L2.400996-6.585305Z'/>
<path id='g0-79' d='M7.183064-3.377335C7.183064-5.409714 5.678705-7.023661 3.865504-7.023661C2.082192-7.023661 .557908-5.429639 .557908-3.377335C.557908-1.334994 2.092154 .219178 3.865504 .219178C5.678705 .219178 7.183064-1.364882 7.183064-3.377335ZM3.875467-.039851C2.919054-.039851 1.58406-.916563 1.58406-3.516812C1.58406-6.097136 3.038605-6.774595 3.865504-6.774595C4.732254-6.774595 6.156912-6.067248 6.156912-3.516812C6.156912-.876712 4.79203-.039851 3.875467-.039851Z'/>
<path id='g0-80' d='M2.261519-3.148194H3.945205C5.140722-3.148194 6.216687-3.955168 6.216687-4.951432C6.216687-5.927771 5.230386-6.804483 3.865504-6.804483H.348692V-6.495641H.587796C1.354919-6.495641 1.374844-6.386052 1.374844-6.027397V-.777086C1.374844-.418431 1.354919-.308842 .587796-.308842H.348692V0C.697385-.029888 1.43462-.029888 1.8132-.029888S2.938979-.029888 3.287671 0V-.308842H3.048568C2.281445-.308842 2.261519-.418431 2.261519-.777086V-3.148194ZM2.231631-3.407223V-6.097136C2.231631-6.425903 2.251557-6.495641 2.719801-6.495641H3.606476C5.190535-6.495641 5.190535-5.439601 5.190535-4.951432C5.190535-4.483188 5.190535-3.407223 3.606476-3.407223H2.231631Z'/>
<path id='g0-84' d='M6.635118-6.744707H.547945L.358655-4.503113H.607721C.747198-6.107098 .896638-6.435866 2.400996-6.435866C2.580324-6.435866 2.839352-6.435866 2.938979-6.41594C3.148194-6.37609 3.148194-6.266501 3.148194-6.03736V-.787049C3.148194-.448319 3.148194-.308842 2.102117-.308842H1.703611V0C2.11208-.029888 3.128269-.029888 3.58655-.029888S5.070984-.029888 5.479452 0V-.308842H5.080946C4.034869-.308842 4.034869-.448319 4.034869-.787049V-6.03736C4.034869-6.236613 4.034869-6.37609 4.214197-6.41594C4.323786-6.435866 4.592777-6.435866 4.782067-6.435866C6.286426-6.435866 6.435866-6.107098 6.575342-4.503113H6.824408L6.635118-6.744707Z'/>
<path id='g0-97' d='M3.317559-.757161C3.35741-.358655 3.626401 .059776 4.094645 .059776C4.303861 .059776 4.911582-.079701 4.911582-.886675V-1.444583H4.662516V-.886675C4.662516-.308842 4.41345-.249066 4.303861-.249066C3.975093-.249066 3.935243-.697385 3.935243-.747198V-2.739726C3.935243-3.158157 3.935243-3.5467 3.576588-3.915318C3.188045-4.303861 2.689913-4.463263 2.211706-4.463263C1.39477-4.463263 .707347-3.995019 .707347-3.337484C.707347-3.038605 .9066-2.86924 1.165629-2.86924C1.444583-2.86924 1.62391-3.068493 1.62391-3.327522C1.62391-3.447073 1.574097-3.775841 1.115816-3.785803C1.384807-4.134496 1.872976-4.244085 2.191781-4.244085C2.67995-4.244085 3.247821-3.855542 3.247821-2.968867V-2.600249C2.739726-2.570361 2.042341-2.540473 1.414695-2.241594C.667497-1.902864 .418431-1.384807 .418431-.946451C.418431-.139477 1.384807 .109589 2.012453 .109589C2.669988 .109589 3.128269-.288917 3.317559-.757161ZM3.247821-2.391034V-1.39477C3.247821-.448319 2.530511-.109589 2.082192-.109589C1.594022-.109589 1.185554-.458281 1.185554-.956413C1.185554-1.504359 1.603985-2.331258 3.247821-2.391034Z'/>
<path id='g0-99' d='M1.165629-2.171856C1.165629-3.795766 1.982565-4.214197 2.510585-4.214197C2.600249-4.214197 3.227895-4.204234 3.576588-3.845579C3.16812-3.815691 3.108344-3.516812 3.108344-3.387298C3.108344-3.128269 3.287671-2.929016 3.566625-2.929016C3.825654-2.929016 4.024907-3.098381 4.024907-3.39726C4.024907-4.07472 3.267746-4.463263 2.500623-4.463263C1.255293-4.463263 .33873-3.387298 .33873-2.15193C.33873-.876712 1.325031 .109589 2.480697 .109589C3.815691 .109589 4.134496-1.085928 4.134496-1.185554S4.034869-1.285181 4.004981-1.285181C3.915318-1.285181 3.895392-1.24533 3.875467-1.185554C3.58655-.259029 2.938979-.139477 2.570361-.139477C2.042341-.139477 1.165629-.56787 1.165629-2.171856Z'/>
<path id='g0-100' d='M3.785803-.547945V.109589L5.250311 0V-.308842C4.552927-.308842 4.473225-.37858 4.473225-.86675V-6.914072L3.038605-6.804483V-6.495641C3.73599-6.495641 3.815691-6.425903 3.815691-5.937733V-3.785803C3.526775-4.144458 3.098381-4.403487 2.560399-4.403487C1.384807-4.403487 .33873-3.427148 .33873-2.141968C.33873-.876712 1.315068 .109589 2.450809 .109589C3.088418 .109589 3.536737-.229141 3.785803-.547945ZM3.785803-3.217933V-1.175592C3.785803-.996264 3.785803-.976339 3.676214-.806974C3.377335-.328767 2.929016-.109589 2.500623-.109589C2.052304-.109589 1.693649-.368618 1.454545-.747198C1.195517-1.155666 1.165629-1.723537 1.165629-2.132005C1.165629-2.500623 1.185554-3.098381 1.474471-3.5467C1.683686-3.855542 2.062267-4.184309 2.600249-4.184309C2.948941-4.184309 3.367372-4.034869 3.676214-3.58655C3.785803-3.417186 3.785803-3.39726 3.785803-3.217933Z'/>
<path id='g0-101' d='M1.115816-2.510585C1.175592-3.995019 2.012453-4.244085 2.351183-4.244085C3.377335-4.244085 3.476961-2.899128 3.476961-2.510585H1.115816ZM1.105853-2.30137H3.88543C4.104608-2.30137 4.134496-2.30137 4.134496-2.510585C4.134496-3.496887 3.596513-4.463263 2.351183-4.463263C1.195517-4.463263 .278954-3.437111 .278954-2.191781C.278954-.856787 1.325031 .109589 2.470735 .109589C3.686177 .109589 4.134496-.996264 4.134496-1.185554C4.134496-1.285181 4.054795-1.305106 4.004981-1.305106C3.915318-1.305106 3.895392-1.24533 3.875467-1.165629C3.526775-.139477 2.630137-.139477 2.530511-.139477C2.032379-.139477 1.633873-.438356 1.404732-.806974C1.105853-1.285181 1.105853-1.942715 1.105853-2.30137Z'/>
<path id='g0-104' d='M1.09589-.757161C1.09589-.308842 .986301-.308842 .318804-.308842V0C.667497-.009963 1.175592-.029888 1.444583-.029888C1.703611-.029888 2.221669-.009963 2.560399 0V-.308842C1.892902-.308842 1.783313-.308842 1.783313-.757161V-2.590286C1.783313-3.626401 2.49066-4.184309 3.128269-4.184309C3.755915-4.184309 3.865504-3.646326 3.865504-3.078456V-.757161C3.865504-.308842 3.755915-.308842 3.088418-.308842V0C3.437111-.009963 3.945205-.029888 4.214197-.029888C4.473225-.029888 4.991283-.009963 5.330012 0V-.308842C4.811955-.308842 4.562889-.308842 4.552927-.607721V-2.510585C4.552927-3.367372 4.552927-3.676214 4.244085-4.034869C4.104608-4.204234 3.775841-4.403487 3.198007-4.403487C2.361146-4.403487 1.92279-3.805729 1.753425-3.427148V-6.914072L.318804-6.804483V-6.495641C1.016189-6.495641 1.09589-6.425903 1.09589-5.937733V-.757161Z'/>
<path id='g0-105' d='M1.763387-4.403487L.368618-4.293898V-3.985056C1.016189-3.985056 1.105853-3.92528 1.105853-3.437111V-.757161C1.105853-.308842 .996264-.308842 .328767-.308842V0C.647572-.009963 1.185554-.029888 1.424658-.029888C1.77335-.029888 2.122042-.009963 2.460772 0V-.308842C1.803238-.308842 1.763387-.358655 1.763387-.747198V-4.403487ZM1.803238-6.136986C1.803238-6.455791 1.554172-6.665006 1.275218-6.665006C.966376-6.665006 .747198-6.396015 .747198-6.136986C.747198-5.867995 .966376-5.608966 1.275218-5.608966C1.554172-5.608966 1.803238-5.818182 1.803238-6.136986Z'/>
<path id='g0-107' d='M1.05604-.757161C1.05604-.308842 .946451-.308842 .278954-.308842V0C.607721-.009963 1.075965-.029888 1.364882-.029888C1.663761-.029888 2.062267-.019925 2.460772 0V-.308842C1.793275-.308842 1.683686-.308842 1.683686-.757161V-1.783313L2.321295-2.331258C3.088418-1.275218 3.506849-.71731 3.506849-.537983C3.506849-.348692 3.337484-.308842 3.148194-.308842V0C3.427148-.009963 4.014944-.029888 4.224159-.029888C4.513076-.029888 4.801993-.019925 5.090909 0V-.308842C4.722291-.308842 4.503113-.308842 4.124533-.836862L2.859278-2.620174C2.849315-2.6401 2.799502-2.699875 2.799502-2.729763C2.799502-2.769614 3.506849-3.367372 3.606476-3.447073C4.234122-3.955168 4.652553-3.975093 4.861768-3.985056V-4.293898C4.572852-4.26401 4.443337-4.26401 4.164384-4.26401C3.805729-4.26401 3.188045-4.283935 3.048568-4.293898V-3.985056C3.237858-3.975093 3.337484-3.865504 3.337484-3.73599C3.337484-3.536737 3.198007-3.417186 3.118306-3.347447L1.713574-2.132005V-6.914072L.278954-6.804483V-6.495641C.976339-6.495641 1.05604-6.425903 1.05604-5.937733V-.757161Z'/>
<path id='g0-108' d='M1.763387-6.914072L.328767-6.804483V-6.495641C1.026152-6.495641 1.105853-6.425903 1.105853-5.937733V-.757161C1.105853-.308842 .996264-.308842 .328767-.308842V0C.657534-.009963 1.185554-.029888 1.43462-.029888S2.171856-.009963 2.540473 0V-.308842C1.872976-.308842 1.763387-.308842 1.763387-.757161V-6.914072Z'/>
<path id='g0-109' d='M1.09589-3.427148V-.757161C1.09589-.308842 .986301-.308842 .318804-.308842V0C.667497-.009963 1.175592-.029888 1.444583-.029888C1.703611-.029888 2.221669-.009963 2.560399 0V-.308842C1.892902-.308842 1.783313-.308842 1.783313-.757161V-2.590286C1.783313-3.626401 2.49066-4.184309 3.128269-4.184309C3.755915-4.184309 3.865504-3.646326 3.865504-3.078456V-.757161C3.865504-.308842 3.755915-.308842 3.088418-.308842V0C3.437111-.009963 3.945205-.029888 4.214197-.029888C4.473225-.029888 4.991283-.009963 5.330012 0V-.308842C4.662516-.308842 4.552927-.308842 4.552927-.757161V-2.590286C4.552927-3.626401 5.260274-4.184309 5.897883-4.184309C6.525529-4.184309 6.635118-3.646326 6.635118-3.078456V-.757161C6.635118-.308842 6.525529-.308842 5.858032-.308842V0C6.206725-.009963 6.714819-.029888 6.983811-.029888C7.242839-.029888 7.760897-.009963 8.099626 0V-.308842C7.581569-.308842 7.332503-.308842 7.32254-.607721V-2.510585C7.32254-3.367372 7.32254-3.676214 7.013699-4.034869C6.874222-4.204234 6.545455-4.403487 5.967621-4.403487C5.13076-4.403487 4.692403-3.805729 4.523039-3.427148C4.383562-4.293898 3.646326-4.403487 3.198007-4.403487C2.470735-4.403487 2.002491-3.975093 1.723537-3.35741V-4.403487L.318804-4.293898V-3.985056C1.016189-3.985056 1.09589-3.915318 1.09589-3.427148Z'/>
<path id='g0-110' d='M1.09589-3.427148V-.757161C1.09589-.308842 .986301-.308842 .318804-.308842V0C.667497-.009963 1.175592-.029888 1.444583-.029888C1.703611-.029888 2.221669-.009963 2.560399 0V-.308842C1.892902-.308842 1.783313-.308842 1.783313-.757161V-2.590286C1.783313-3.626401 2.49066-4.184309 3.128269-4.184309C3.755915-4.184309 3.865504-3.646326 3.865504-3.078456V-.757161C3.865504-.308842 3.755915-.308842 3.088418-.308842V0C3.437111-.009963 3.945205-.029888 4.214197-.029888C4.473225-.029888 4.991283-.009963 5.330012 0V-.308842C4.811955-.308842 4.562889-.308842 4.552927-.607721V-2.510585C4.552927-3.367372 4.552927-3.676214 4.244085-4.034869C4.104608-4.204234 3.775841-4.403487 3.198007-4.403487C2.470735-4.403487 2.002491-3.975093 1.723537-3.35741V-4.403487L.318804-4.293898V-3.985056C1.016189-3.985056 1.09589-3.915318 1.09589-3.427148Z'/>
<path id='g0-111' d='M4.692403-2.132005C4.692403-3.407223 3.696139-4.463263 2.49066-4.463263C1.24533-4.463263 .278954-3.377335 .278954-2.132005C.278954-.846824 1.315068 .109589 2.480697 .109589C3.686177 .109589 4.692403-.86675 4.692403-2.132005ZM2.49066-.139477C2.062267-.139477 1.62391-.348692 1.354919-.806974C1.105853-1.24533 1.105853-1.853051 1.105853-2.211706C1.105853-2.600249 1.105853-3.138232 1.344956-3.576588C1.613948-4.034869 2.082192-4.244085 2.480697-4.244085C2.919054-4.244085 3.347447-4.024907 3.606476-3.596513S3.865504-2.590286 3.865504-2.211706C3.865504-1.853051 3.865504-1.315068 3.646326-.876712C3.427148-.428394 2.988792-.139477 2.49066-.139477Z'/>
<path id='g0-114' d='M1.663761-3.307597V-4.403487L.278954-4.293898V-3.985056C.976339-3.985056 1.05604-3.915318 1.05604-3.427148V-.757161C1.05604-.308842 .946451-.308842 .278954-.308842V0C.667497-.009963 1.135741-.029888 1.414695-.029888C1.8132-.029888 2.281445-.029888 2.67995 0V-.308842H2.470735C1.733499-.308842 1.713574-.418431 1.713574-.777086V-2.311333C1.713574-3.297634 2.132005-4.184309 2.889166-4.184309C2.958904-4.184309 2.978829-4.184309 2.998755-4.174346C2.968867-4.164384 2.769614-4.044832 2.769614-3.785803C2.769614-3.506849 2.978829-3.35741 3.198007-3.35741C3.377335-3.35741 3.626401-3.476961 3.626401-3.795766S3.317559-4.403487 2.889166-4.403487C2.161893-4.403487 1.803238-3.73599 1.663761-3.307597Z'/>
<path id='g0-116' d='M1.723537-3.985056H3.148194V-4.293898H1.723537V-6.127024H1.474471C1.464508-5.310087 1.165629-4.244085 .18929-4.204234V-3.985056H1.036115V-1.235367C1.036115-.009963 1.96264 .109589 2.321295 .109589C3.028643 .109589 3.307597-.597758 3.307597-1.235367V-1.803238H3.058531V-1.255293C3.058531-.518057 2.759651-.139477 2.391034-.139477C1.723537-.139477 1.723537-1.046077 1.723537-1.215442V-3.985056Z'/>
<path id='g0-117' d='M3.895392-.787049V.109589L5.330012 0V-.308842C4.632628-.308842 4.552927-.37858 4.552927-.86675V-4.403487L3.088418-4.293898V-3.985056C3.785803-3.985056 3.865504-3.915318 3.865504-3.427148V-1.653798C3.865504-.787049 3.387298-.109589 2.660025-.109589C1.823163-.109589 1.783313-.577833 1.783313-1.09589V-4.403487L.318804-4.293898V-3.985056C1.09589-3.985056 1.09589-3.955168 1.09589-3.068493V-1.574097C1.09589-.797011 1.09589 .109589 2.610212 .109589C3.16812 .109589 3.606476-.169365 3.895392-.787049Z'/>
<path id='g0-119' d='M6.166874-3.347447C6.346202-3.845579 6.655044-3.975093 7.003736-3.985056V-4.293898C6.784558-4.273973 6.495641-4.26401 6.276463-4.26401C5.987547-4.26401 5.539228-4.283935 5.349938-4.293898V-3.985056C5.708593-3.975093 5.927771-3.795766 5.927771-3.506849C5.927771-3.447073 5.927771-3.427148 5.877958-3.297634L4.971357-.747198L3.985056-3.526775C3.945205-3.646326 3.935243-3.666252 3.935243-3.716065C3.935243-3.985056 4.323786-3.985056 4.523039-3.985056V-4.293898C4.234122-4.283935 3.726027-4.26401 3.486924-4.26401C3.188045-4.26401 2.899128-4.273973 2.600249-4.293898V-3.985056C2.968867-3.985056 3.128269-3.965131 3.227895-3.835616C3.277709-3.775841 3.387298-3.476961 3.457036-3.287671L2.600249-.876712L1.653798-3.536737C1.603985-3.656289 1.603985-3.676214 1.603985-3.716065C1.603985-3.985056 1.992528-3.985056 2.191781-3.985056V-4.293898C1.892902-4.283935 1.334994-4.26401 1.105853-4.26401C1.066002-4.26401 .537983-4.273973 .179328-4.293898V-3.985056C.67746-3.985056 .797011-3.955168 .916563-3.636364L2.171856-.109589C2.221669 .029888 2.251557 .109589 2.381071 .109589S2.530511 .049813 2.580324-.089664L3.58655-2.909091L4.60274-.079701C4.64259 .029888 4.672478 .109589 4.801993 .109589S4.961395 .019925 5.001245-.079701L6.166874-3.347447Z'/>
</defs>
<g id='page1'>
<use x='50.324953' y='0' xlink:href='#g0-74'/>
<use x='55.444657' y='0' xlink:href='#g0-111'/>
<use x='60.425996' y='0' xlink:href='#g0-105'/>
<use x='63.193405' y='0' xlink:href='#g0-110'/>
<use x='68.451473' y='0' xlink:href='#g0-116'/>
<use x='75.646722' y='0' xlink:href='#g0-119'/>
<use x='82.565234' y='0' xlink:href='#g0-111'/>
<use x='87.546573' y='0' xlink:href='#g0-114'/>
<use x='91.448623' y='0' xlink:href='#g0-107'/>
<use x='100.027586' y='0' xlink:href='#g0-119'/>
<use x='107.222846' y='0' xlink:href='#g0-105'/>
<use x='109.990254' y='0' xlink:href='#g0-116'/>
<use x='113.864628' y='0' xlink:href='#g0-104'/>
<use x='122.72032' y='0' xlink:href='#g0-67'/>
<use x='129.638831' y='0' xlink:href='#g0-19'/>
<use x='129.915584' y='0' xlink:href='#g0-101'/>
<use x='134.343435' y='0' xlink:href='#g0-99'/>
<use x='138.771287' y='0' xlink:href='#g0-105'/>
<use x='141.538696' y='0' xlink:href='#g0-108'/>
<use x='144.306104' y='0' xlink:href='#g0-101'/>
<use x='152.054831' y='0' xlink:href='#g0-80'/>
<use x='158.834978' y='0' xlink:href='#g0-105'/>
<use x='161.602386' y='0' xlink:href='#g0-101'/>
<use x='166.030238' y='0' xlink:href='#g0-114'/>
<use x='169.932288' y='0' xlink:href='#g0-114'/>
<use x='173.834339' y='0' xlink:href='#g0-111'/>
<use x='178.815678' y='0' xlink:href='#g0-116'/>
<use x='186.010927' y='0' xlink:href='#g0-97'/>
<use x='190.992266' y='0' xlink:href='#g0-110'/>
<use x='196.527083' y='0' xlink:href='#g0-100'/>
<use x='205.382774' y='0' xlink:href='#g0-69'/>
<use x='212.162921' y='0' xlink:href='#g0-109'/>
<use x='220.465147' y='0' xlink:href='#g0-109'/>
<use x='228.767372' y='0' xlink:href='#g0-97'/>
<use x='233.748711' y='0' xlink:href='#g0-110'/>
<use x='239.00678' y='0' xlink:href='#g0-117'/>
<use x='244.541597' y='0' xlink:href='#g0-101'/>
<use x='248.969448' y='0' xlink:href='#g0-108'/>
<use x='255.057732' y='0' xlink:href='#g0-84'/>
<use x='262.252992' y='0' xlink:href='#g0-72'/>
<use x='269.724991' y='0' xlink:href='#g0-79'/>
<use x='277.473739' y='0' xlink:href='#g0-77'/>
<use x='287.505594' y='-2.518327' xlink:href='#g0-19'/>
<use x='286.606181' y='0' xlink:href='#g0-69'/>
</g>
</svg>