<?xml version='1.0' encoding='UTF-8'?>
<!-- This file was generated by dvisvgm 2.13.1 -->
<svg version='1.1' xmlns='http://www.w3.org/2000/svg' xmlns:xlink='http://www.w3.org/1999/xlink' width='157.16106pt' height='8.855684pt' viewBox='93.275081 -6.918502 157.16106 8.855684'>
<defs>
<path id='g0-12' d='M3.287671-3.985056C3.745953-3.985056 3.815691-3.855542 3.815691-3.447073V-.757161C3.815691-.308842 3.706102-.308842 3.038605-.308842V0C3.367372-.009963 3.895392-.029888 4.144458-.029888S4.881694-.009963 5.250311 0V-.308842C4.582814-.308842 4.473225-.308842 4.473225-.757161V-4.41345L3.217933-4.323786C3.058531-4.313823 3.048568-4.303861 3.038605-4.303861C3.01868-4.293898 2.998755-4.293898 2.859278-4.293898H1.683686V-5.419676C1.683686-6.405978 2.540473-6.804483 3.158157-6.804483C3.457036-6.804483 3.815691-6.704857 4.014944-6.475716C3.606476-6.455791 3.5467-6.176837 3.5467-6.017435C3.5467-5.688667 3.805729-5.559153 3.995019-5.559153C4.224159-5.559153 4.4533-5.718555 4.4533-6.017435C4.4533-6.60523 3.905355-7.023661 3.16812-7.023661C2.241594-7.023661 1.05604-6.515567 1.05604-5.429639V-4.293898H.268991V-3.985056H1.05604V-.757161C1.05604-.308842 .946451-.308842 .278954-.308842V0C.607721-.009963 1.135741-.029888 1.384807-.029888S2.122042-.009963 2.49066 0V-.308842C1.823163-.308842 1.713574-.308842 1.713574-.757161V-3.985056H3.287671Z'/>
<path id='g0-46' d='M1.912827-.52802C1.912827-.816936 1.673724-1.05604 1.384807-1.05604S.856787-.816936 .856787-.52802S1.09589 0 1.384807 0S1.912827-.239103 1.912827-.52802Z'/>
<path id='g0-97' d='M3.317559-.757161C3.35741-.358655 3.626401 .059776 4.094645 .059776C4.303861 .059776 4.911582-.079701 4.911582-.886675V-1.444583H4.662516V-.886675C4.662516-.308842 4.41345-.249066 4.303861-.249066C3.975093-.249066 3.935243-.697385 3.935243-.747198V-2.739726C3.935243-3.158157 3.935243-3.5467 3.576588-3.915318C3.188045-4.303861 2.689913-4.463263 2.211706-4.463263C1.39477-4.463263 .707347-3.995019 .707347-3.337484C.707347-3.038605 .9066-2.86924 1.165629-2.86924C1.444583-2.86924 1.62391-3.068493 1.62391-3.327522C1.62391-3.447073 1.574097-3.775841 1.115816-3.785803C1.384807-4.134496 1.872976-4.244085 2.191781-4.244085C2.67995-4.244085 3.247821-3.855542 3.247821-2.968867V-2.600249C2.739726-2.570361 2.042341-2.540473 1.414695-2.241594C.667497-1.902864 .418431-1.384807 .418431-.946451C.418431-.139477 1.384807 .109589 2.012453 .109589C2.669988 .109589 3.128269-.288917 3.317559-.757161ZM3.247821-2.391034V-1.39477C3.247821-.448319 2.530511-.109589 2.082192-.109589C1.594022-.109589 1.185554-.458281 1.185554-.956413C1.185554-1.504359 1.603985-2.331258 3.247821-2.391034Z'/>
<path id='g0-100' d='M3.785803-.547945V.109589L5.250311 0V-.308842C4.552927-.308842 4.473225-.37858 4.473225-.86675V-6.914072L3.038605-6.804483V-6.495641C3.73599-6.495641 3.815691-6.425903 3.815691-5.937733V-3.785803C3.526775-4.144458 3.098381-4.403487 2.560399-4.403487C1.384807-4.403487 .33873-3.427148 .33873-2.141968C.33873-.876712 1.315068 .109589 2.450809 .109589C3.088418 .109589 3.536737-.229141 3.785803-.547945ZM3.785803-3.217933V-1.175592C3.785803-.996264 3.785803-.976339 3.676214-.806974C3.377335-.328767 2.929016-.109589 2.500623-.109589C2.052304-.109589 1.693649-.368618 1.454545-.747198C1.195517-1.155666 1.165629-1.723537 1.165629-2.132005C1.165629-2.500623 1.185554-3.098381 1.474471-3.5467C1.683686-3.855542 2.062267-4.184309 2.600249-4.184309C2.948941-4.184309 3.367372-4.034869 3.676214-3.58655C3.785803-3.417186 3.785803-3.39726 3.785803-3.217933Z'/>
<path id='g0-101' d='M1.115816-2.510585C1.175592-3.995019 2.012453-4.244085 2.351183-4.244085C3.377335-4.244085 3.476961-2.899128 3.476961-2.510585H1.115816ZM1.105853-2.30137H3.88543C4.104608-2.30137 4.134496-2.30137 4.134496-2.510585C4.134496-3.496887 3.596513-4.463263 2.351183-4.463263C1.195517-4.463263 .278954-3.437111 .278954-2.191781C.278954-.856787 1.325031 .109589 2.470735 .109589C3.686177 .109589 4.134496-.996264 4.134496-1.185554C4.134496-1.285181 4.054795-1.305106 4.004981-1.305106C3.915318-1.305106 3.895392-1.24533 3.875467-1.165629C3.526775-.139477 2.630137-.139477 2.530511-.139477C2.032379-.139477 1.633873-.438356 1.404732-.806974C1.105853-1.285181 1.105853-1.942715 1.105853-2.30137Z'/>
<path id='g0-102' d='M1.743462-4.293898V-5.449564C1.743462-6.326276 2.221669-6.804483 2.660025-6.804483C2.689913-6.804483 2.839352-6.804483 2.988792-6.734745C2.86924-6.694894 2.689913-6.56538 2.689913-6.316314C2.689913-6.087173 2.849315-5.88792 3.118306-5.88792C3.407223-5.88792 3.556663-6.087173 3.556663-6.326276C3.556663-6.694894 3.188045-7.023661 2.660025-7.023661C1.96264-7.023661 1.115816-6.495641 1.115816-5.439601V-4.293898H.328767V-3.985056H1.115816V-.757161C1.115816-.308842 1.006227-.308842 .33873-.308842V0C.727273-.009963 1.195517-.029888 1.474471-.029888C1.872976-.029888 2.34122-.029888 2.739726 0V-.308842H2.530511C1.793275-.308842 1.77335-.418431 1.77335-.777086V-3.985056H2.909091V-4.293898H1.743462Z'/>
<path id='g0-103' d='M2.211706-1.713574C1.344956-1.713574 1.344956-2.709838 1.344956-2.938979C1.344956-3.20797 1.354919-3.526775 1.504359-3.775841C1.58406-3.895392 1.8132-4.174346 2.211706-4.174346C3.078456-4.174346 3.078456-3.178082 3.078456-2.948941C3.078456-2.67995 3.068493-2.361146 2.919054-2.11208C2.839352-1.992528 2.610212-1.713574 2.211706-1.713574ZM1.05604-1.325031C1.05604-1.364882 1.05604-1.594022 1.225405-1.793275C1.613948-1.514321 2.022416-1.484433 2.211706-1.484433C3.138232-1.484433 3.825654-2.171856 3.825654-2.938979C3.825654-3.307597 3.666252-3.676214 3.417186-3.905355C3.775841-4.244085 4.134496-4.293898 4.313823-4.293898C4.333748-4.293898 4.383562-4.293898 4.41345-4.283935C4.303861-4.244085 4.254047-4.134496 4.254047-4.014944C4.254047-3.845579 4.383562-3.726027 4.542964-3.726027C4.64259-3.726027 4.83188-3.795766 4.83188-4.024907C4.83188-4.194271 4.712329-4.513076 4.323786-4.513076C4.124533-4.513076 3.686177-4.4533 3.267746-4.044832C2.849315-4.373599 2.430884-4.403487 2.211706-4.403487C1.285181-4.403487 .597758-3.716065 .597758-2.948941C.597758-2.510585 .816936-2.132005 1.066002-1.92279C.936488-1.77335 .757161-1.444583 .757161-1.09589C.757161-.787049 .886675-.408468 1.195517-.209215C.597758-.039851 .278954 .388543 .278954 .787049C.278954 1.504359 1.265255 2.052304 2.480697 2.052304C3.656289 2.052304 4.692403 1.544209 4.692403 .767123C4.692403 .418431 4.552927-.089664 4.044832-.368618C3.516812-.647572 2.938979-.647572 2.331258-.647572C2.082192-.647572 1.653798-.647572 1.58406-.657534C1.265255-.697385 1.05604-1.006227 1.05604-1.325031ZM2.49066 1.823163C1.484433 1.823163 .797011 1.315068 .797011 .787049C.797011 .328767 1.175592-.039851 1.613948-.069738H2.201743C3.058531-.069738 4.174346-.069738 4.174346 .787049C4.174346 1.325031 3.466999 1.823163 2.49066 1.823163Z'/>
<path id='g0-105' d='M1.763387-4.403487L.368618-4.293898V-3.985056C1.016189-3.985056 1.105853-3.92528 1.105853-3.437111V-.757161C1.105853-.308842 .996264-.308842 .328767-.308842V0C.647572-.009963 1.185554-.029888 1.424658-.029888C1.77335-.029888 2.122042-.009963 2.460772 0V-.308842C1.803238-.308842 1.763387-.358655 1.763387-.747198V-4.403487ZM1.803238-6.136986C1.803238-6.455791 1.554172-6.665006 1.275218-6.665006C.966376-6.665006 .747198-6.396015 .747198-6.136986C.747198-5.867995 .966376-5.608966 1.275218-5.608966C1.554172-5.608966 1.803238-5.818182 1.803238-6.136986Z'/>
<path id='g0-108' d='M1.763387-6.914072L.328767-6.804483V-6.495641C1.026152-6.495641 1.105853-6.425903 1.105853-5.937733V-.757161C1.105853-.308842 .996264-.308842 .328767-.308842V0C.657534-.009963 1.185554-.029888 1.43462-.029888S2.171856-.009963 2.540473 0V-.308842C1.872976-.308842 1.763387-.308842 1.763387-.757161V-6.914072Z'/>
<path id='g0-109' d='M1.09589-3.427148V-.757161C1.09589-.308842 .986301-.308842 .318804-.308842V0C.667497-.009963 1.175592-.029888 1.444583-.029888C1.703611-.029888 2.221669-.009963 2.560399 0V-.308842C1.892902-.308842 1.783313-.308842 1.783313-.757161V-2.590286C1.783313-3.626401 2.49066-4.184309 3.128269-4.184309C3.755915-4.184309 3.865504-3.646326 3.865504-3.078456V-.757161C3.865504-.308842 3.755915-.308842 3.088418-.308842V0C3.437111-.009963 3.945205-.029888 4.214197-.029888C4.473225-.029888 4.991283-.009963 5.330012 0V-.308842C4.662516-.308842 4.552927-.308842 4.552927-.757161V-2.590286C4.552927-3.626401 5.260274-4.184309 5.897883-4.184309C6.525529-4.184309 6.635118-3.646326 6.635118-3.078456V-.757161C6.635118-.308842 6.525529-.308842 5.858032-.308842V0C6.206725-.009963 6.714819-.029888 6.983811-.029888C7.242839-.029888 7.760897-.009963 8.099626 0V-.308842C7.581569-.308842 7.332503-.308842 7.32254-.607721V-2.510585C7.32254-3.367372 7.32254-3.676214 7.013699-4.034869C6.874222-4.204234 6.545455-4.403487 5.967621-4.403487C5.13076-4.403487 4.692403-3.805729 4.523039-3.427148C4.383562-4.293898 3.646326-4.403487 3.198007-4.403487C2.470735-4.403487 2.002491-3.975093 1.723537-3.35741V-4.403487L.318804-4.293898V-3.985056C1.016189-3.985056 1.09589-3.915318 1.09589-3.427148Z'/>
<path id='g0-110' d='M1.09589-3.427148V-.757161C1.09589-.308842 .986301-.308842 .318804-.308842V0C.667497-.009963 1.175592-.029888 1.444583-.029888C1.703611-.029888 2.221669-.009963 2.560399 0V-.308842C1.892902-.308842 1.783313-.308842 1.783313-.757161V-2.590286C1.783313-3.626401 2.49066-4.184309 3.128269-4.184309C3.755915-4.184309 3.865504-3.646326 3.865504-3.078456V-.757161C3.865504-.308842 3.755915-.308842 3.088418-.308842V0C3.437111-.009963 3.945205-.029888 4.214197-.029888C4.473225-.029888 4.991283-.009963 5.330012 0V-.308842C4.811955-.308842 4.562889-.308842 4.552927-.607721V-2.510585C4.552927-3.367372 4.552927-3.676214 4.244085-4.034869C4.104608-4.204234 3.775841-4.403487 3.198007-4.403487C2.470735-4.403487 2.002491-3.975093 1.723537-3.35741V-4.403487L.318804-4.293898V-3.985056C1.016189-3.985056 1.09589-3.915318 1.09589-3.427148Z'/>
<path id='g0-111' d='M4.692403-2.132005C4.692403-3.407223 3.696139-4.463263 2.49066-4.463263C1.24533-4.463263 .278954-3.377335 .278954-2.132005C.278954-.846824 1.315068 .109589 2.480697 .109589C3.686177 .109589 4.692403-.86675 4.692403-2.132005ZM2.49066-.139477C2.062267-.139477 1.62391-.348692 1.354919-.806974C1.105853-1.24533 1.105853-1.853051 1.105853-2.211706C1.105853-2.600249 1.105853-3.138232 1.344956-3.576588C1.613948-4.034869 2.082192-4.244085 2.480697-4.244085C2.919054-4.244085 3.347447-4.024907 3.606476-3.596513S3.865504-2.590286 3.865504-2.211706C3.865504-1.853051 3.865504-1.315068 3.646326-.876712C3.427148-.428394 2.988792-.139477 2.49066-.139477Z'/>
<path id='g0-114' d='M1.663761-3.307597V-4.403487L.278954-4.293898V-3.985056C.976339-3.985056 1.05604-3.915318 1.05604-3.427148V-.757161C1.05604-.308842 .946451-.308842 .278954-.308842V0C.667497-.009963 1.135741-.029888 1.414695-.029888C1.8132-.029888 2.281445-.029888 2.67995 0V-.308842H2.470735C1.733499-.308842 1.713574-.418431 1.713574-.777086V-2.311333C1.713574-3.297634 2.132005-4.184309 2.889166-4.184309C2.958904-4.184309 2.978829-4.184309 2.998755-4.174346C2.968867-4.164384 2.769614-4.044832 2.769614-3.785803C2.769614-3.506849 2.978829-3.35741 3.198007-3.35741C3.377335-3.35741 3.626401-3.476961 3.626401-3.795766S3.317559-4.403487 2.889166-4.403487C2.161893-4.403487 1.803238-3.73599 1.663761-3.307597Z'/>
<path id='g0-115' d='M2.072229-1.932752C2.291407-1.892902 3.108344-1.733499 3.108344-1.016189C3.108344-.508095 2.759651-.109589 1.982565-.109589C1.145704-.109589 .787049-.67746 .597758-1.524284C.56787-1.653798 .557908-1.693649 .458281-1.693649C.328767-1.693649 .328767-1.62391 .328767-1.444583V-.129514C.328767 .039851 .328767 .109589 .438356 .109589C.488169 .109589 .498132 .099626 .687422-.089664C.707347-.109589 .707347-.129514 .886675-.318804C1.325031 .099626 1.77335 .109589 1.982565 .109589C3.128269 .109589 3.58655-.557908 3.58655-1.275218C3.58655-1.803238 3.287671-2.102117 3.16812-2.221669C2.839352-2.540473 2.450809-2.620174 2.032379-2.699875C1.474471-2.809465 .806974-2.938979 .806974-3.516812C.806974-3.865504 1.066002-4.273973 1.92279-4.273973C3.01868-4.273973 3.068493-3.377335 3.088418-3.068493C3.098381-2.978829 3.188045-2.978829 3.20797-2.978829C3.337484-2.978829 3.337484-3.028643 3.337484-3.217933V-4.224159C3.337484-4.393524 3.337484-4.463263 3.227895-4.463263C3.178082-4.463263 3.158157-4.463263 3.028643-4.343711C2.998755-4.303861 2.899128-4.214197 2.859278-4.184309C2.480697-4.463263 2.072229-4.463263 1.92279-4.463263C.707347-4.463263 .328767-3.795766 .328767-3.237858C.328767-2.889166 .488169-2.610212 .757161-2.391034C1.075965-2.132005 1.354919-2.072229 2.072229-1.932752Z'/>
<path id='g0-116' d='M1.723537-3.985056H3.148194V-4.293898H1.723537V-6.127024H1.474471C1.464508-5.310087 1.165629-4.244085 .18929-4.204234V-3.985056H1.036115V-1.235367C1.036115-.009963 1.96264 .109589 2.321295 .109589C3.028643 .109589 3.307597-.597758 3.307597-1.235367V-1.803238H3.058531V-1.255293C3.058531-.518057 2.759651-.139477 2.391034-.139477C1.723537-.139477 1.723537-1.046077 1.723537-1.215442V-3.985056Z'/>
</defs>
<g id='page1'>
<use x='93.275081' y='0' xlink:href='#g0-115'/>
<use x='97.204799' y='0' xlink:href='#g0-116'/>
<use x='101.079173' y='0' xlink:href='#g0-97'/>
<use x='106.060512' y='0' xlink:href='#g0-114'/>
<use x='109.962562' y='0' xlink:href='#g0-116'/>
<use x='113.836936' y='0' xlink:href='#g0-105'/>
<use x='116.604344' y='0' xlink:href='#g0-110'/>
<use x='122.139161' y='0' xlink:href='#g0-103'/>
<use x='130.441375' y='0' xlink:href='#g0-97'/>
<use x='135.422714' y='0' xlink:href='#g0-116'/>
<use x='142.617963' y='0' xlink:href='#g0-115'/>
<use x='146.547681' y='0' xlink:href='#g0-111'/>
<use x='151.52902' y='0' xlink:href='#g0-109'/>
<use x='159.831245' y='0' xlink:href='#g0-101'/>
<use x='167.579972' y='0' xlink:href='#g0-116'/>
<use x='171.454346' y='0' xlink:href='#g0-101'/>
<use x='175.882197' y='0' xlink:href='#g0-110'/>
<use x='181.417014' y='0' xlink:href='#g0-115'/>
<use x='188.667607' y='0' xlink:href='#g0-111'/>
<use x='193.648946' y='0' xlink:href='#g0-102'/>
<use x='200.013978' y='0' xlink:href='#g0-12'/>
<use x='205.548795' y='0' xlink:href='#g0-110'/>
<use x='211.083612' y='0' xlink:href='#g0-105'/>
<use x='213.85102' y='0' xlink:href='#g0-116'/>
<use x='217.725394' y='0' xlink:href='#g0-101'/>
<use x='225.474121' y='0' xlink:href='#g0-12'/>
<use x='231.008938' y='0' xlink:href='#g0-101'/>
<use x='235.436789' y='0' xlink:href='#g0-108'/>
<use x='238.204198' y='0' xlink:href='#g0-100'/>
<use x='243.739015' y='0' xlink:href='#g0-115'/>
<use x='247.668733' y='0' xlink:href='#g0-46'/>
</g>
</svg>