<?xml version='1.0' encoding='UTF-8'?>
<!-- This file was generated by dvisvgm 2.13.1 -->
<svg version='1.1' xmlns='http://www.w3.org/2000/svg' xmlns:xlink='http://www.w3.org/1999/xlink' width='585.652767pt' height='9.43798pt' viewBox='0 -8.607754 585.652767 9.43798'>
<defs>
<path id='g0-0' d='M6.56538-2.291407C6.734745-2.291407 6.914072-2.291407 6.914072-2.49066S6.734745-2.689913 6.56538-2.689913H1.175592C1.006227-2.689913 .826899-2.689913 .826899-2.49066S1.006227-2.291407 1.175592-2.291407H6.56538Z'/>
<path id='g3-50' d='M3.521793-1.26924H3.284682C3.263761-1.115816 3.194022-.704359 3.103362-.63462C3.047572-.592777 2.510585-.592777 2.412951-.592777H1.129763C1.862017-1.241345 2.106102-1.436613 2.524533-1.764384C3.040598-2.175841 3.521793-2.608219 3.521793-3.270735C3.521793-4.11457 2.782565-4.630635 1.889913-4.630635C1.025156-4.630635 .439352-4.02391 .439352-3.382316C.439352-3.02665 .739228-2.991781 .808966-2.991781C.976339-2.991781 1.17858-3.110336 1.17858-3.361395C1.17858-3.486924 1.129763-3.731009 .767123-3.731009C.983313-4.226152 1.457534-4.379577 1.785305-4.379577C2.48269-4.379577 2.84533-3.835616 2.84533-3.270735C2.84533-2.66401 2.412951-2.182814 2.189788-1.931756L.509091-.27198C.439352-.209215 .439352-.195268 .439352 0H3.312578L3.521793-1.26924Z'/>
<path id='g3-51' d='M1.903861-2.329265C2.447821-2.329265 2.838356-1.952677 2.838356-1.206476C2.838356-.341719 2.336239-.083686 1.931756-.083686C1.652802-.083686 1.039103-.160399 .746202-.571856C1.073973-.585803 1.150685-.81594 1.150685-.962391C1.150685-1.185554 .983313-1.345953 .767123-1.345953C.571856-1.345953 .376588-1.227397 .376588-.941469C.376588-.285928 1.101868 .139477 1.945704 .139477C2.915068 .139477 3.584558-.509091 3.584558-1.206476C3.584558-1.750436 3.138232-2.294396 2.371108-2.454795C3.103362-2.719801 3.368369-3.242839 3.368369-3.668244C3.368369-4.219178 2.733748-4.630635 1.959651-4.630635S.592777-4.254047 .592777-3.696139C.592777-3.459029 .746202-3.326526 .955417-3.326526C1.171606-3.326526 1.311083-3.486924 1.311083-3.682192C1.311083-3.884433 1.171606-4.030884 .955417-4.044832C1.199502-4.351681 1.680697-4.428394 1.93873-4.428394C2.252553-4.428394 2.691905-4.274969 2.691905-3.668244C2.691905-3.375342 2.594271-3.054545 2.412951-2.838356C2.182814-2.57335 1.987547-2.559402 1.638854-2.538481C1.464508-2.524533 1.45056-2.524533 1.415691-2.517559C1.401743-2.517559 1.345953-2.503611 1.345953-2.426899C1.345953-2.329265 1.408717-2.329265 1.527273-2.329265H1.903861Z'/>
<path id='g1-88' d='M4.83188-4.094645L3.995019-6.07721C3.965131-6.156912 3.945205-6.196762 3.945205-6.206725C3.945205-6.266501 4.11457-6.455791 4.533001-6.495641C4.632628-6.505604 4.732254-6.515567 4.732254-6.684932C4.732254-6.804483 4.612702-6.804483 4.582814-6.804483C4.174346-6.804483 3.745953-6.774595 3.327522-6.774595C3.078456-6.774595 2.460772-6.804483 2.211706-6.804483C2.15193-6.804483 2.032379-6.804483 2.032379-6.60523C2.032379-6.495641 2.132005-6.495641 2.261519-6.495641C2.859278-6.495641 2.919054-6.396015 3.008717-6.176837L4.184309-3.39726L2.082192-1.135741L1.952677-1.026152C1.464508-.498132 .996264-.33873 .488169-.308842C.358655-.298879 .268991-.298879 .268991-.109589C.268991-.099626 .268991 0 .398506 0C.697385 0 1.026152-.029888 1.334994-.029888C1.703611-.029888 2.092154 0 2.450809 0C2.510585 0 2.630137 0 2.630137-.199253C2.630137-.298879 2.530511-.308842 2.510585-.308842C2.420922-.318804 2.11208-.33873 2.11208-.617684C2.11208-.777086 2.261519-.936488 2.381071-1.066002L3.39726-2.141968L4.293898-3.118306L5.300125-.737235C5.339975-.627646 5.349938-.617684 5.349938-.597758C5.349938-.518057 5.160648-.348692 4.772105-.308842C4.662516-.298879 4.572852-.288917 4.572852-.119552C4.572852 0 4.682441 0 4.722291 0C5.001245 0 5.69863-.029888 5.977584-.029888C6.22665-.029888 6.834371 0 7.083437 0C7.153176 0 7.272727 0 7.272727-.18929C7.272727-.308842 7.173101-.308842 7.0934-.308842C6.425903-.318804 6.405978-.348692 6.236613-.747198C5.84807-1.673724 5.180573-3.227895 4.951432-3.825654C5.628892-4.523039 6.674969-5.708593 6.993773-5.987547C7.28269-6.22665 7.66127-6.465753 8.259029-6.495641C8.388543-6.505604 8.478207-6.505604 8.478207-6.694894C8.478207-6.704857 8.478207-6.804483 8.348692-6.804483C8.049813-6.804483 7.721046-6.774595 7.412204-6.774595C7.043587-6.774595 6.665006-6.804483 6.306351-6.804483C6.246575-6.804483 6.117061-6.804483 6.117061-6.60523C6.117061-6.535492 6.166874-6.505604 6.236613-6.495641C6.326276-6.485679 6.635118-6.465753 6.635118-6.1868C6.635118-6.047323 6.525529-5.917808 6.445828-5.828144L4.83188-4.094645Z'/>
<path id='g2-43' d='M4.07472-2.291407H6.854296C6.993773-2.291407 7.183064-2.291407 7.183064-2.49066S6.993773-2.689913 6.854296-2.689913H4.07472V-5.479452C4.07472-5.618929 4.07472-5.808219 3.875467-5.808219S3.676214-5.618929 3.676214-5.479452V-2.689913H.886675C.747198-2.689913 .557908-2.689913 .557908-2.49066S.747198-2.291407 .886675-2.291407H3.676214V.498132C3.676214 .637609 3.676214 .826899 3.875467 .826899S4.07472 .637609 4.07472 .498132V-2.291407Z'/>
<path id='g2-48' d='M4.582814-3.188045C4.582814-3.985056 4.533001-4.782067 4.184309-5.519303C3.726027-6.475716 2.909091-6.635118 2.49066-6.635118C1.892902-6.635118 1.165629-6.37609 .757161-5.449564C.438356-4.762142 .388543-3.985056 .388543-3.188045C.388543-2.440847 .428394-1.544209 .836862-.787049C1.265255 .019925 1.992528 .219178 2.480697 .219178C3.01868 .219178 3.775841 .009963 4.214197-.936488C4.533001-1.62391 4.582814-2.400996 4.582814-3.188045ZM2.480697 0C2.092154 0 1.504359-.249066 1.325031-1.205479C1.215442-1.803238 1.215442-2.719801 1.215442-3.307597C1.215442-3.945205 1.215442-4.60274 1.295143-5.140722C1.484433-6.326276 2.231631-6.41594 2.480697-6.41594C2.809465-6.41594 3.466999-6.236613 3.656289-5.250311C3.755915-4.692403 3.755915-3.935243 3.755915-3.307597C3.755915-2.560399 3.755915-1.882939 3.646326-1.24533C3.496887-.298879 2.929016 0 2.480697 0Z'/>
<path id='g2-49' d='M2.929016-6.37609C2.929016-6.615193 2.929016-6.635118 2.699875-6.635118C2.082192-5.997509 1.205479-5.997509 .886675-5.997509V-5.688667C1.085928-5.688667 1.673724-5.688667 2.191781-5.947696V-.787049C2.191781-.428394 2.161893-.308842 1.265255-.308842H.946451V0C1.295143-.029888 2.161893-.029888 2.560399-.029888S3.825654-.029888 4.174346 0V-.308842H3.855542C2.958904-.308842 2.929016-.418431 2.929016-.787049V-6.37609Z'/>
<path id='g2-50' d='M1.265255-.767123L2.321295-1.793275C3.875467-3.16812 4.473225-3.706102 4.473225-4.702366C4.473225-5.838107 3.576588-6.635118 2.361146-6.635118C1.235367-6.635118 .498132-5.718555 .498132-4.83188C.498132-4.273973 .996264-4.273973 1.026152-4.273973C1.195517-4.273973 1.544209-4.393524 1.544209-4.801993C1.544209-5.061021 1.364882-5.32005 1.016189-5.32005C.936488-5.32005 .916563-5.32005 .886675-5.310087C1.115816-5.957659 1.653798-6.326276 2.231631-6.326276C3.138232-6.326276 3.566625-5.519303 3.566625-4.702366C3.566625-3.905355 3.068493-3.118306 2.520548-2.500623L.607721-.368618C.498132-.259029 .498132-.239103 .498132 0H4.194271L4.473225-1.733499H4.224159C4.174346-1.43462 4.104608-.996264 4.004981-.846824C3.935243-.767123 3.277709-.767123 3.058531-.767123H1.265255Z'/>
<path id='g2-51' d='M2.889166-3.506849C3.706102-3.775841 4.283935-4.473225 4.283935-5.260274C4.283935-6.07721 3.407223-6.635118 2.450809-6.635118C1.444583-6.635118 .687422-6.03736 .687422-5.280199C.687422-4.951432 .9066-4.762142 1.195517-4.762142C1.504359-4.762142 1.703611-4.98132 1.703611-5.270237C1.703611-5.768369 1.235367-5.768369 1.085928-5.768369C1.39477-6.256538 2.052304-6.386052 2.410959-6.386052C2.819427-6.386052 3.367372-6.166874 3.367372-5.270237C3.367372-5.150685 3.347447-4.572852 3.088418-4.134496C2.789539-3.656289 2.450809-3.626401 2.201743-3.616438C2.122042-3.606476 1.882939-3.58655 1.8132-3.58655C1.733499-3.576588 1.663761-3.566625 1.663761-3.466999C1.663761-3.35741 1.733499-3.35741 1.902864-3.35741H2.34122C3.158157-3.35741 3.526775-2.67995 3.526775-1.703611C3.526775-.348692 2.839352-.059776 2.400996-.059776C1.972603-.059776 1.225405-.229141 .876712-.816936C1.225405-.767123 1.534247-.986301 1.534247-1.364882C1.534247-1.723537 1.265255-1.92279 .976339-1.92279C.737235-1.92279 .418431-1.783313 .418431-1.344956C.418431-.438356 1.344956 .219178 2.430884 .219178C3.646326 .219178 4.552927-.687422 4.552927-1.703611C4.552927-2.520548 3.92528-3.297634 2.889166-3.506849Z'/>
<path id='g2-52' d='M2.929016-1.643836V-.777086C2.929016-.418431 2.909091-.308842 2.171856-.308842H1.96264V0C2.371108-.029888 2.889166-.029888 3.307597-.029888S4.254047-.029888 4.662516 0V-.308842H4.4533C3.716065-.308842 3.696139-.418431 3.696139-.777086V-1.643836H4.692403V-1.952677H3.696139V-6.485679C3.696139-6.684932 3.696139-6.744707 3.536737-6.744707C3.447073-6.744707 3.417186-6.744707 3.337484-6.625156L.278954-1.952677V-1.643836H2.929016ZM2.988792-1.952677H.557908L2.988792-5.668742V-1.952677Z'/>
<path id='g2-53' d='M4.473225-2.002491C4.473225-3.188045 3.656289-4.184309 2.580324-4.184309C2.102117-4.184309 1.673724-4.024907 1.315068-3.676214V-5.618929C1.514321-5.559153 1.843088-5.489415 2.161893-5.489415C3.387298-5.489415 4.084682-6.396015 4.084682-6.525529C4.084682-6.585305 4.054795-6.635118 3.985056-6.635118C3.975093-6.635118 3.955168-6.635118 3.905355-6.60523C3.706102-6.515567 3.217933-6.316314 2.550436-6.316314C2.15193-6.316314 1.693649-6.386052 1.225405-6.595268C1.145704-6.625156 1.125778-6.625156 1.105853-6.625156C1.006227-6.625156 1.006227-6.545455 1.006227-6.386052V-3.437111C1.006227-3.257783 1.006227-3.178082 1.145704-3.178082C1.215442-3.178082 1.235367-3.20797 1.275218-3.267746C1.384807-3.427148 1.753425-3.965131 2.560399-3.965131C3.078456-3.965131 3.327522-3.506849 3.407223-3.327522C3.566625-2.958904 3.58655-2.570361 3.58655-2.072229C3.58655-1.723537 3.58655-1.125778 3.347447-.707347C3.108344-.318804 2.739726-.059776 2.281445-.059776C1.554172-.059776 .986301-.587796 .816936-1.175592C.846824-1.165629 .876712-1.155666 .986301-1.155666C1.315068-1.155666 1.484433-1.404732 1.484433-1.643836S1.315068-2.132005 .986301-2.132005C.846824-2.132005 .498132-2.062267 .498132-1.603985C.498132-.747198 1.185554 .219178 2.30137 .219178C3.457036 .219178 4.473225-.737235 4.473225-2.002491Z'/>
<path id='g2-54' d='M1.315068-3.267746V-3.506849C1.315068-6.027397 2.550436-6.386052 3.058531-6.386052C3.297634-6.386052 3.716065-6.326276 3.935243-5.987547C3.785803-5.987547 3.387298-5.987547 3.387298-5.539228C3.387298-5.230386 3.626401-5.080946 3.845579-5.080946C4.004981-5.080946 4.303861-5.17061 4.303861-5.559153C4.303861-6.156912 3.865504-6.635118 3.038605-6.635118C1.763387-6.635118 .418431-5.349938 .418431-3.148194C.418431-.488169 1.574097 .219178 2.500623 .219178C3.606476 .219178 4.552927-.71731 4.552927-2.032379C4.552927-3.297634 3.666252-4.254047 2.560399-4.254047C1.882939-4.254047 1.514321-3.745953 1.315068-3.267746ZM2.500623-.059776C1.872976-.059776 1.574097-.657534 1.514321-.806974C1.334994-1.275218 1.334994-2.072229 1.334994-2.251557C1.334994-3.028643 1.653798-4.024907 2.550436-4.024907C2.709838-4.024907 3.16812-4.024907 3.476961-3.407223C3.656289-3.038605 3.656289-2.530511 3.656289-2.042341C3.656289-1.564134 3.656289-1.066002 3.486924-.707347C3.188045-.109589 2.729763-.059776 2.500623-.059776Z'/>
<path id='g2-55' d='M4.742217-6.067248C4.83188-6.1868 4.83188-6.206725 4.83188-6.41594H2.410959C1.195517-6.41594 1.175592-6.545455 1.135741-6.734745H.886675L.557908-4.682441H.806974C.836862-4.841843 .926526-5.469489 1.05604-5.589041C1.125778-5.648817 1.902864-5.648817 2.032379-5.648817H4.094645C3.985056-5.489415 3.198007-4.403487 2.978829-4.07472C2.082192-2.729763 1.753425-1.344956 1.753425-.328767C1.753425-.229141 1.753425 .219178 2.211706 .219178S2.669988-.229141 2.669988-.328767V-.836862C2.669988-1.384807 2.699875-1.932752 2.779577-2.470735C2.819427-2.699875 2.958904-3.556663 3.39726-4.174346L4.742217-6.067248Z'/>
<path id='g2-56' d='M1.62391-4.552927C1.165629-4.851806 1.125778-5.190535 1.125778-5.3599C1.125778-5.967621 1.77335-6.386052 2.480697-6.386052C3.20797-6.386052 3.845579-5.867995 3.845579-5.150685C3.845579-4.582814 3.457036-4.104608 2.859278-3.755915L1.62391-4.552927ZM3.078456-3.606476C3.795766-3.975093 4.283935-4.493151 4.283935-5.150685C4.283935-6.067248 3.39726-6.635118 2.49066-6.635118C1.494396-6.635118 .687422-5.897883 .687422-4.971357C.687422-4.79203 .707347-4.343711 1.125778-3.875467C1.235367-3.755915 1.603985-3.506849 1.853051-3.337484C1.275218-3.048568 .418431-2.49066 .418431-1.504359C.418431-.448319 1.43462 .219178 2.480697 .219178C3.606476 .219178 4.552927-.607721 4.552927-1.673724C4.552927-2.032379 4.443337-2.480697 4.064757-2.899128C3.875467-3.108344 3.716065-3.20797 3.078456-3.606476ZM2.082192-3.188045L3.307597-2.410959C3.58655-2.221669 4.054795-1.92279 4.054795-1.315068C4.054795-.577833 3.307597-.059776 2.49066-.059776C1.633873-.059776 .916563-.67746 .916563-1.504359C.916563-2.082192 1.235367-2.719801 2.082192-3.188045Z'/>
<path id='g2-57' d='M3.656289-3.16812V-2.849315C3.656289-.518057 2.620174-.059776 2.042341-.059776C1.872976-.059776 1.334994-.079701 1.066002-.418431C1.504359-.418431 1.58406-.707347 1.58406-.876712C1.58406-1.185554 1.344956-1.334994 1.125778-1.334994C.966376-1.334994 .667497-1.24533 .667497-.856787C.667497-.18929 1.205479 .219178 2.052304 .219178C3.337484 .219178 4.552927-1.135741 4.552927-3.277709C4.552927-5.957659 3.407223-6.635118 2.520548-6.635118C1.972603-6.635118 1.484433-6.455791 1.05604-6.007472C.647572-5.559153 .418431-5.140722 .418431-4.393524C.418431-3.148194 1.295143-2.171856 2.410959-2.171856C3.01868-2.171856 3.427148-2.590286 3.656289-3.16812ZM2.420922-2.400996C2.261519-2.400996 1.803238-2.400996 1.494396-3.028643C1.315068-3.39726 1.315068-3.895392 1.315068-4.383562C1.315068-4.921544 1.315068-5.389788 1.524284-5.758406C1.793275-6.256538 2.171856-6.386052 2.520548-6.386052C2.978829-6.386052 3.307597-6.047323 3.476961-5.599004C3.596513-5.280199 3.636364-4.652553 3.636364-4.194271C3.636364-3.367372 3.297634-2.400996 2.420922-2.400996Z'/>
</defs>
<g id='page1'>
<use x='0' y='0' xlink:href='#g2-49'/>
<use x='4.981339' y='0' xlink:href='#g2-55'/>
<use x='9.962678' y='0' xlink:href='#g2-54'/>
<use x='14.944017' y='0' xlink:href='#g2-55'/>
<use x='19.925356' y='0' xlink:href='#g2-56'/>
<use x='24.906695' y='0' xlink:href='#g2-57'/>
<use x='29.888034' y='0' xlink:href='#g2-57'/>
<use x='34.869373' y='0' xlink:href='#g2-53'/>
<use x='39.850712' y='0' xlink:href='#g2-49'/>
<use x='44.832051' y='0' xlink:href='#g2-49'/>
<use x='49.813391' y='0' xlink:href='#g2-57'/>
<use x='54.79473' y='0' xlink:href='#g2-56'/>
<use x='59.776069' y='0' xlink:href='#g2-53'/>
<use x='64.757408' y='0' xlink:href='#g2-52'/>
<use x='69.738747' y='0' xlink:href='#g2-51'/>
<use x='74.720086' y='0' xlink:href='#g2-53'/>
<use x='79.701425' y='0' xlink:href='#g2-53'/>
<use x='84.682764' y='0' xlink:href='#g2-56'/>
<use x='89.664103' y='0' xlink:href='#g2-49'/>
<use x='94.645442' y='0' xlink:href='#g2-50'/>
<use x='99.626781' y='0' xlink:href='#g2-54'/>
<use x='104.60812' y='0' xlink:href='#g2-50'/>
<use x='109.589459' y='0' xlink:href='#g2-50'/>
<use x='114.570798' y='0' xlink:href='#g2-52'/>
<use x='119.552137' y='0' xlink:href='#g2-53'/>
<use x='124.533476' y='0' xlink:href='#g2-56'/>
<use x='129.514815' y='0' xlink:href='#g1-88'/>
<use x='138.550371' y='-4.113496' xlink:href='#g3-51'/>
<use x='145.233607' y='0' xlink:href='#g2-43'/>
<use x='155.19622' y='0' xlink:href='#g2-52'/>
<use x='160.177559' y='0' xlink:href='#g2-51'/>
<use x='165.158898' y='0' xlink:href='#g2-56'/>
<use x='170.140237' y='0' xlink:href='#g2-54'/>
<use x='175.121576' y='0' xlink:href='#g2-54'/>
<use x='180.102915' y='0' xlink:href='#g2-48'/>
<use x='185.084254' y='0' xlink:href='#g2-55'/>
<use x='190.065593' y='0' xlink:href='#g2-48'/>
<use x='195.046932' y='0' xlink:href='#g2-57'/>
<use x='200.028272' y='0' xlink:href='#g2-50'/>
<use x='205.009611' y='0' xlink:href='#g2-50'/>
<use x='209.99095' y='0' xlink:href='#g2-54'/>
<use x='214.972289' y='0' xlink:href='#g2-57'/>
<use x='219.953628' y='0' xlink:href='#g2-50'/>
<use x='224.934967' y='0' xlink:href='#g2-57'/>
<use x='229.916306' y='0' xlink:href='#g2-54'/>
<use x='234.897645' y='0' xlink:href='#g2-57'/>
<use x='239.878984' y='0' xlink:href='#g2-53'/>
<use x='244.860323' y='0' xlink:href='#g2-48'/>
<use x='249.841662' y='0' xlink:href='#g2-49'/>
<use x='254.823001' y='0' xlink:href='#g2-54'/>
<use x='259.80434' y='0' xlink:href='#g2-54'/>
<use x='264.785679' y='0' xlink:href='#g2-53'/>
<use x='269.767018' y='0' xlink:href='#g2-56'/>
<use x='274.748357' y='0' xlink:href='#g2-49'/>
<use x='279.729696' y='0' xlink:href='#g2-49'/>
<use x='284.711035' y='0' xlink:href='#g1-88'/>
<use x='293.746591' y='-4.113496' xlink:href='#g3-50'/>
<use x='300.429827' y='0' xlink:href='#g0-0'/>
<use x='310.39244' y='0' xlink:href='#g2-57'/>
<use x='315.373779' y='0' xlink:href='#g2-49'/>
<use x='320.355118' y='0' xlink:href='#g2-55'/>
<use x='325.336457' y='0' xlink:href='#g2-48'/>
<use x='330.317796' y='0' xlink:href='#g2-57'/>
<use x='335.299135' y='0' xlink:href='#g2-49'/>
<use x='340.280474' y='0' xlink:href='#g2-52'/>
<use x='345.261813' y='0' xlink:href='#g2-52'/>
<use x='350.243153' y='0' xlink:href='#g2-51'/>
<use x='355.224492' y='0' xlink:href='#g2-54'/>
<use x='360.205831' y='0' xlink:href='#g2-56'/>
<use x='365.18717' y='0' xlink:href='#g2-55'/>
<use x='370.168509' y='0' xlink:href='#g2-48'/>
<use x='375.149848' y='0' xlink:href='#g2-48'/>
<use x='380.131187' y='0' xlink:href='#g2-57'/>
<use x='385.112526' y='0' xlink:href='#g2-55'/>
<use x='390.093865' y='0' xlink:href='#g2-57'/>
<use x='395.075204' y='0' xlink:href='#g2-51'/>
<use x='400.056543' y='0' xlink:href='#g2-54'/>
<use x='405.037882' y='0' xlink:href='#g2-50'/>
<use x='410.019221' y='0' xlink:href='#g2-48'/>
<use x='415.00056' y='0' xlink:href='#g2-49'/>
<use x='419.981899' y='0' xlink:href='#g2-53'/>
<use x='424.963238' y='0' xlink:href='#g2-54'/>
<use x='429.944577' y='0' xlink:href='#g2-51'/>
<use x='434.925916' y='0' xlink:href='#g1-88'/>
<use x='446.175338' y='0' xlink:href='#g0-0'/>
<use x='456.137951' y='0' xlink:href='#g2-49'/>
<use x='461.119291' y='0' xlink:href='#g2-55'/>
<use x='466.10063' y='0' xlink:href='#g2-54'/>
<use x='471.081969' y='0' xlink:href='#g2-55'/>
<use x='476.063308' y='0' xlink:href='#g2-56'/>
<use x='481.044647' y='0' xlink:href='#g2-57'/>
<use x='486.025986' y='0' xlink:href='#g2-57'/>
<use x='491.007325' y='0' xlink:href='#g2-53'/>
<use x='495.988664' y='0' xlink:href='#g2-49'/>
<use x='500.970003' y='0' xlink:href='#g2-49'/>
<use x='505.951342' y='0' xlink:href='#g2-57'/>
<use x='510.932681' y='0' xlink:href='#g2-56'/>
<use x='515.91402' y='0' xlink:href='#g2-53'/>
<use x='520.895359' y='0' xlink:href='#g2-52'/>
<use x='525.876698' y='0' xlink:href='#g2-51'/>
<use x='530.858037' y='0' xlink:href='#g2-53'/>
<use x='535.839376' y='0' xlink:href='#g2-53'/>
<use x='540.820715' y='0' xlink:href='#g2-56'/>
<use x='545.802054' y='0' xlink:href='#g2-49'/>
<use x='550.783393' y='0' xlink:href='#g2-50'/>
<use x='555.764733' y='0' xlink:href='#g2-54'/>
<use x='560.746072' y='0' xlink:href='#g2-50'/>
<use x='565.727411' y='0' xlink:href='#g2-50'/>
<use x='570.70875' y='0' xlink:href='#g2-52'/>
<use x='575.690089' y='0' xlink:href='#g2-53'/>
<use x='580.671428' y='0' xlink:href='#g2-56'/>
</g>
</svg>