<?xml version='1.0' encoding='UTF-8'?>
<!-- This file was generated by dvisvgm 2.13.1 -->
<svg version='1.1' xmlns='http://www.w3.org/2000/svg' xmlns:xlink='http://www.w3.org/1999/xlink' width='6.641782pt' height='6.863149pt' viewBox='168.534652 -6.863149 6.641782 6.863149'>
<defs>
<path id='g0-76' d='M2.600249-5.907846C2.600249-6.396015 2.630137-6.475716 3.148194-6.475716C3.257783-6.475716 3.427148-6.475716 3.427148-6.645081C3.427148-6.824408 3.277709-6.824408 3.098381-6.824408H.478207C.298879-6.824408 .139477-6.824408 .139477-6.645081C.139477-6.475716 .328767-6.475716 .408468-6.475716C.976339-6.475716 1.016189-6.396015 1.016189-5.907846V-.916563C1.016189-.448319 .986301-.348692 .458281-.348692C.308842-.348692 .139477-.348692 .139477-.179328C.139477 0 .298879 0 .478207 0H5.758406C5.947696 0 6.03736 0 6.07721-.129514C6.087173-.159402 6.366127-2.012453 6.366127-2.052304C6.366127-2.161893 6.276463-2.231631 6.196762-2.231631S6.03736-2.171856 6.017435-2.092154C5.957659-1.803238 5.84807-1.315068 5.021171-.797011C4.383562-.388543 3.875467-.348692 3.5467-.348692H3.028643C2.789539-.348692 2.600249-.348692 2.600249-1.016189V-5.907846ZM1.364882-5.927771C1.364882-6.047323 1.364882-6.296389 1.285181-6.475716H2.331258C2.251557-6.296389 2.251557-6.057285 2.251557-5.927771V-.996264C2.251557-.637609 2.321295-.438356 2.361146-.348692H1.285181C1.364882-.52802 1.364882-.777086 1.364882-.896638V-5.927771ZM5.758406-.348692H4.98132V-.358655C5.429639-.607721 5.688667-.856787 5.858032-1.026152L5.758406-.348692Z'/>
</defs>
<g id='page1'>
<use x='168.534652' y='0' xlink:href='#g0-76'/>
</g>
</svg>