<?xml version='1.0' encoding='UTF-8'?>
<!-- This file was generated by dvisvgm 2.13.1 -->
<svg version='1.1' xmlns='http://www.w3.org/2000/svg' xmlns:xlink='http://www.w3.org/1999/xlink' width='179.159305pt' height='10.045659pt' viewBox='82.275968 -6.918502 179.159305 10.045659'>
<defs>
<path id='g3-51' d='M1.643836-1.648817C2.102117-1.648817 2.405978-1.364882 2.405978-.871731C2.405978-.363636 2.092154-.094645 1.648817-.094645C1.594022-.094645 1.001245-.094645 .747198-.353674C.951432-.383562 1.011208-.537983 1.011208-.657534C1.011208-.841843 .871731-.961395 .707347-.961395C.547945-.961395 .398506-.856787 .398506-.647572C.398506-.129514 .986301 .109589 1.663761 .109589C2.480697 .109589 2.988792-.383562 2.988792-.86675C2.988792-1.275218 2.625156-1.62391 2.057285-1.753425C2.655044-1.947696 2.814446-2.326276 2.814446-2.60523C2.814446-3.013699 2.306351-3.317559 1.678705-3.317559C1.066002-3.317559 .572852-3.058531 .572852-2.610212C.572852-2.37609 .762142-2.316314 .856787-2.316314C1.001245-2.316314 1.140722-2.420922 1.140722-2.600249C1.140722-2.714819 1.080946-2.854296 .901619-2.884184C1.115816-3.113325 1.559153-3.128269 1.663761-3.128269C2.027397-3.128269 2.286426-2.94396 2.286426-2.60523C2.286426-2.316314 2.097136-1.863014 1.574097-1.833126C1.43462-1.828144 1.414695-1.823163 1.285181-1.818182C1.230386-1.8132 1.175592-1.808219 1.175592-1.733499C1.175592-1.648817 1.225405-1.648817 1.315068-1.648817H1.643836Z'/>
<path id='g1-112' d='M.523039 .850809C.474222 1.046077 .460274 1.101868 .18132 1.101868C.09066 1.101868-.006974 1.101868-.006974 1.248319C-.006974 1.325031 .055791 1.352927 .09066 1.352927C.27198 1.352927 .502117 1.325031 .690411 1.325031C.927522 1.325031 1.192528 1.352927 1.422665 1.352927C1.48543 1.352927 1.562142 1.332005 1.562142 1.199502C1.562142 1.101868 1.464508 1.101868 1.380822 1.101868C1.227397 1.101868 1.039103 1.101868 1.039103 1.018182C1.039103 .983313 1.08792 .801993 1.115816 .697385C1.199502 .327771 1.297136-.048817 1.373848-.341719C1.457534-.202242 1.673724 .069738 2.092154 .069738C2.942964 .069738 3.884433-.871731 3.884433-1.910834C3.884433-2.726775 3.319552-3.075467 2.838356-3.075467C2.405978-3.075467 2.036364-2.782565 1.84807-2.587298C1.729514-2.984807 1.338979-3.075467 1.129763-3.075467C.857783-3.075467 .690411-2.894147 .578829-2.705853C.439352-2.468742 .327771-2.050311 .327771-2.008468C.327771-1.917808 .425405-1.917808 .446326-1.917808C.54396-1.917808 .550934-1.93873 .599751-2.127024C.704359-2.531507 .836862-2.880199 1.108842-2.880199C1.290162-2.880199 1.338979-2.726775 1.338979-2.538481C1.338979-2.461768 1.325031-2.371108 1.318057-2.329265L.523039 .850809ZM1.841096-2.238605C2.245579-2.775592 2.594271-2.880199 2.817435-2.880199C3.089415-2.880199 3.326526-2.677958 3.326526-2.203736C3.326526-1.917808 3.173101-1.206476 2.963885-.801993C2.789539-.460274 2.447821-.125529 2.092154-.125529C1.597011-.125529 1.471482-.662516 1.471482-.732254C1.471482-.760149 1.48543-.808966 1.492403-.836862L1.841096-2.238605Z'/>
<path id='g0-70' d='M2.580324-3.347447C2.988792-3.347447 3.985056-3.327522 4.064757-2.211706C4.07472-2.092154 4.084682-1.96264 4.244085-1.96264C4.41345-1.96264 4.41345-2.102117 4.41345-2.281445V-4.98132C4.41345-5.140722 4.41345-5.300125 4.244085-5.300125C4.11457-5.300125 4.07472-5.200498 4.064757-5.090909C4.004981-3.935243 3.307597-3.73599 2.580324-3.706102V-5.808219C2.580324-6.475716 2.769614-6.475716 3.008717-6.475716H3.476961C4.752179-6.475716 5.399751-5.788294 5.459527-5.100872C5.469489-5.021171 5.479452-4.871731 5.638854-4.871731C5.808219-4.871731 5.808219-5.031133 5.808219-5.200498V-6.495641C5.808219-6.804483 5.788294-6.824408 5.479452-6.824408H.478207C.298879-6.824408 .139477-6.824408 .139477-6.645081C.139477-6.475716 .328767-6.475716 .408468-6.475716C.976339-6.475716 1.016189-6.396015 1.016189-5.907846V-.916563C1.016189-.448319 .986301-.348692 .458281-.348692C.308842-.348692 .139477-.348692 .139477-.179328C.139477 0 .298879 0 .478207 0H3.35741C3.536737 0 3.686177 0 3.686177-.179328C3.686177-.348692 3.516812-.348692 3.387298-.348692C2.620174-.348692 2.580324-.418431 2.580324-.946451V-3.347447ZM5.459527-6.475716V-6.007472C5.32005-6.156912 5.150685-6.336239 4.921544-6.475716H5.459527ZM4.064757-3.158157C3.915318-3.347447 3.656289-3.496887 3.536737-3.5467C3.726027-3.636364 3.92528-3.795766 4.064757-3.965131V-3.158157ZM1.364882-5.927771C1.364882-6.047323 1.364882-6.296389 1.285181-6.475716H2.34122C2.231631-6.246575 2.231631-5.917808 2.231631-5.828144V-.926526C2.231631-.777086 2.231631-.537983 2.331258-.348692H1.285181C1.364882-.52802 1.364882-.777086 1.364882-.896638V-5.927771Z'/>
<path id='g2-48' d='M4.582814-3.188045C4.582814-3.985056 4.533001-4.782067 4.184309-5.519303C3.726027-6.475716 2.909091-6.635118 2.49066-6.635118C1.892902-6.635118 1.165629-6.37609 .757161-5.449564C.438356-4.762142 .388543-3.985056 .388543-3.188045C.388543-2.440847 .428394-1.544209 .836862-.787049C1.265255 .019925 1.992528 .219178 2.480697 .219178C3.01868 .219178 3.775841 .009963 4.214197-.936488C4.533001-1.62391 4.582814-2.400996 4.582814-3.188045ZM2.480697 0C2.092154 0 1.504359-.249066 1.325031-1.205479C1.215442-1.803238 1.215442-2.719801 1.215442-3.307597C1.215442-3.945205 1.215442-4.60274 1.295143-5.140722C1.484433-6.326276 2.231631-6.41594 2.480697-6.41594C2.809465-6.41594 3.466999-6.236613 3.656289-5.250311C3.755915-4.692403 3.755915-3.935243 3.755915-3.307597C3.755915-2.560399 3.755915-1.882939 3.646326-1.24533C3.496887-.298879 2.929016 0 2.480697 0Z'/>
<path id='g2-53' d='M4.473225-2.002491C4.473225-3.188045 3.656289-4.184309 2.580324-4.184309C2.102117-4.184309 1.673724-4.024907 1.315068-3.676214V-5.618929C1.514321-5.559153 1.843088-5.489415 2.161893-5.489415C3.387298-5.489415 4.084682-6.396015 4.084682-6.525529C4.084682-6.585305 4.054795-6.635118 3.985056-6.635118C3.975093-6.635118 3.955168-6.635118 3.905355-6.60523C3.706102-6.515567 3.217933-6.316314 2.550436-6.316314C2.15193-6.316314 1.693649-6.386052 1.225405-6.595268C1.145704-6.625156 1.125778-6.625156 1.105853-6.625156C1.006227-6.625156 1.006227-6.545455 1.006227-6.386052V-3.437111C1.006227-3.257783 1.006227-3.178082 1.145704-3.178082C1.215442-3.178082 1.235367-3.20797 1.275218-3.267746C1.384807-3.427148 1.753425-3.965131 2.560399-3.965131C3.078456-3.965131 3.327522-3.506849 3.407223-3.327522C3.566625-2.958904 3.58655-2.570361 3.58655-2.072229C3.58655-1.723537 3.58655-1.125778 3.347447-.707347C3.108344-.318804 2.739726-.059776 2.281445-.059776C1.554172-.059776 .986301-.587796 .816936-1.175592C.846824-1.165629 .876712-1.155666 .986301-1.155666C1.315068-1.155666 1.484433-1.404732 1.484433-1.643836S1.315068-2.132005 .986301-2.132005C.846824-2.132005 .498132-2.062267 .498132-1.603985C.498132-.747198 1.185554 .219178 2.30137 .219178C3.457036 .219178 4.473225-.737235 4.473225-2.002491Z'/>
<path id='g2-56' d='M1.62391-4.552927C1.165629-4.851806 1.125778-5.190535 1.125778-5.3599C1.125778-5.967621 1.77335-6.386052 2.480697-6.386052C3.20797-6.386052 3.845579-5.867995 3.845579-5.150685C3.845579-4.582814 3.457036-4.104608 2.859278-3.755915L1.62391-4.552927ZM3.078456-3.606476C3.795766-3.975093 4.283935-4.493151 4.283935-5.150685C4.283935-6.067248 3.39726-6.635118 2.49066-6.635118C1.494396-6.635118 .687422-5.897883 .687422-4.971357C.687422-4.79203 .707347-4.343711 1.125778-3.875467C1.235367-3.755915 1.603985-3.506849 1.853051-3.337484C1.275218-3.048568 .418431-2.49066 .418431-1.504359C.418431-.448319 1.43462 .219178 2.480697 .219178C3.606476 .219178 4.552927-.607721 4.552927-1.673724C4.552927-2.032379 4.443337-2.480697 4.064757-2.899128C3.875467-3.108344 3.716065-3.20797 3.078456-3.606476ZM2.082192-3.188045L3.307597-2.410959C3.58655-2.221669 4.054795-1.92279 4.054795-1.315068C4.054795-.577833 3.307597-.059776 2.49066-.059776C1.633873-.059776 .916563-.67746 .916563-1.504359C.916563-2.082192 1.235367-2.719801 2.082192-3.188045Z'/>
<path id='g2-70' d='M5.798257-6.774595H.328767V-6.465753H.56787C1.334994-6.465753 1.354919-6.356164 1.354919-5.997509V-.777086C1.354919-.418431 1.334994-.308842 .56787-.308842H.328767V0C.67746-.029888 1.454545-.029888 1.843088-.029888C2.251557-.029888 3.158157-.029888 3.516812 0V-.308842H3.188045C2.241594-.308842 2.241594-.438356 2.241594-.787049V-3.237858H3.098381C4.054795-3.237858 4.154421-2.919054 4.154421-2.072229H4.403487V-4.712329H4.154421C4.154421-3.875467 4.054795-3.5467 3.098381-3.5467H2.241594V-6.067248C2.241594-6.396015 2.261519-6.465753 2.729763-6.465753H3.92528C5.419676-6.465753 5.668742-5.907846 5.828144-4.533001H6.07721L5.798257-6.774595Z'/>
<path id='g2-78' d='M2.311333-6.674969C2.221669-6.794521 2.211706-6.804483 2.022416-6.804483H.328767V-6.495641H.617684C.767123-6.495641 .966376-6.485679 1.115816-6.475716C1.344956-6.445828 1.354919-6.435866 1.354919-6.246575V-1.046077C1.354919-.777086 1.354919-.308842 .328767-.308842V0C.67746-.009963 1.165629-.029888 1.494396-.029888S2.311333-.009963 2.660025 0V-.308842C1.633873-.308842 1.633873-.777086 1.633873-1.046077V-6.22665C1.683686-6.176837 1.693649-6.166874 1.733499-6.107098L5.798257-.129514C5.88792-.009963 5.897883 0 5.967621 0C6.107098 0 6.107098-.069738 6.107098-.259029V-5.758406C6.107098-6.027397 6.107098-6.495641 7.13325-6.495641V-6.804483C6.784558-6.794521 6.296389-6.774595 5.967621-6.774595S5.150685-6.794521 4.801993-6.804483V-6.495641C5.828144-6.495641 5.828144-6.027397 5.828144-5.758406V-1.504359L2.311333-6.674969Z'/>
<path id='g2-82' d='M2.231631-3.516812V-6.097136C2.231631-6.326276 2.231631-6.445828 2.450809-6.475716C2.550436-6.495641 2.839352-6.495641 3.038605-6.495641C3.935243-6.495641 5.051059-6.455791 5.051059-5.011208C5.051059-4.323786 4.811955-3.516812 3.337484-3.516812H2.231631ZM4.333748-3.387298C5.300125-3.626401 6.07721-4.234122 6.07721-5.011208C6.07721-5.967621 4.941469-6.804483 3.476961-6.804483H.348692V-6.495641H.587796C1.354919-6.495641 1.374844-6.386052 1.374844-6.027397V-.777086C1.374844-.418431 1.354919-.308842 .587796-.308842H.348692V0C.707347-.029888 1.414695-.029888 1.803238-.029888S2.899128-.029888 3.257783 0V-.308842H3.01868C2.251557-.308842 2.231631-.418431 2.231631-.777086V-3.297634H3.377335C3.536737-3.297634 3.955168-3.297634 4.303861-2.958904C4.682441-2.600249 4.682441-2.291407 4.682441-1.62391C4.682441-.976339 4.682441-.577833 5.090909-.199253C5.499377 .159402 6.047323 .219178 6.346202 .219178C7.123288 .219178 7.292653-.597758 7.292653-.876712C7.292653-.936488 7.292653-1.046077 7.163138-1.046077C7.053549-1.046077 7.053549-.956413 7.043587-.886675C6.983811-.179328 6.635118 0 6.386052 0C5.897883 0 5.818182-.508095 5.678705-1.43462L5.549191-2.231631C5.369863-2.86924 4.881694-3.198007 4.333748-3.387298Z'/>
<path id='g2-83' d='M3.476961-3.865504L2.201743-4.174346C1.58406-4.323786 1.195517-4.861768 1.195517-5.439601C1.195517-6.136986 1.733499-6.744707 2.510585-6.744707C4.174346-6.744707 4.393524-5.110834 4.4533-4.662516C4.463263-4.60274 4.463263-4.542964 4.572852-4.542964C4.702366-4.542964 4.702366-4.592777 4.702366-4.782067V-6.784558C4.702366-6.953923 4.702366-7.023661 4.592777-7.023661C4.523039-7.023661 4.513076-7.013699 4.443337-6.894147L4.094645-6.326276C3.795766-6.615193 3.387298-7.023661 2.500623-7.023661C1.39477-7.023661 .557908-6.146949 .557908-5.090909C.557908-4.26401 1.085928-3.536737 1.863014-3.267746C1.972603-3.227895 2.480697-3.108344 3.178082-2.938979C3.447073-2.86924 3.745953-2.799502 4.024907-2.430884C4.234122-2.171856 4.333748-1.843088 4.333748-1.514321C4.333748-.806974 3.835616-.089664 2.998755-.089664C2.709838-.089664 1.952677-.139477 1.424658-.627646C.846824-1.165629 .816936-1.803238 .806974-2.161893C.797011-2.261519 .71731-2.261519 .687422-2.261519C.557908-2.261519 .557908-2.191781 .557908-2.012453V-.019925C.557908 .14944 .557908 .219178 .667497 .219178C.737235 .219178 .747198 .199253 .816936 .089664C.816936 .079701 .846824 .049813 1.175592-.478207C1.484433-.139477 2.122042 .219178 3.008717 .219178C4.174346 .219178 4.971357-.757161 4.971357-1.853051C4.971357-2.849315 4.313823-3.666252 3.476961-3.865504Z'/>
<path id='g2-98' d='M1.713574-3.755915V-6.914072L.278954-6.804483V-6.495641C.976339-6.495641 1.05604-6.425903 1.05604-5.937733V0H1.305106C1.315068-.009963 1.39477-.14944 1.663761-.617684C1.8132-.388543 2.231631 .109589 2.968867 .109589C4.154421 .109589 5.190535-.86675 5.190535-2.15193C5.190535-3.417186 4.214197-4.403487 3.078456-4.403487C2.30137-4.403487 1.872976-3.935243 1.713574-3.755915ZM1.743462-1.135741V-3.188045C1.743462-3.377335 1.743462-3.387298 1.853051-3.5467C2.241594-4.104608 2.789539-4.184309 3.028643-4.184309C3.476961-4.184309 3.835616-3.92528 4.07472-3.5467C4.333748-3.138232 4.363636-2.570361 4.363636-2.161893C4.363636-1.793275 4.343711-1.195517 4.054795-.747198C3.845579-.438356 3.466999-.109589 2.929016-.109589C2.480697-.109589 2.122042-.348692 1.882939-.71731C1.743462-.926526 1.743462-.956413 1.743462-1.135741Z'/>
<path id='g2-99' d='M1.165629-2.171856C1.165629-3.795766 1.982565-4.214197 2.510585-4.214197C2.600249-4.214197 3.227895-4.204234 3.576588-3.845579C3.16812-3.815691 3.108344-3.516812 3.108344-3.387298C3.108344-3.128269 3.287671-2.929016 3.566625-2.929016C3.825654-2.929016 4.024907-3.098381 4.024907-3.39726C4.024907-4.07472 3.267746-4.463263 2.500623-4.463263C1.255293-4.463263 .33873-3.387298 .33873-2.15193C.33873-.876712 1.325031 .109589 2.480697 .109589C3.815691 .109589 4.134496-1.085928 4.134496-1.185554S4.034869-1.285181 4.004981-1.285181C3.915318-1.285181 3.895392-1.24533 3.875467-1.185554C3.58655-.259029 2.938979-.139477 2.570361-.139477C2.042341-.139477 1.165629-.56787 1.165629-2.171856Z'/>
<path id='g2-100' d='M3.785803-.547945V.109589L5.250311 0V-.308842C4.552927-.308842 4.473225-.37858 4.473225-.86675V-6.914072L3.038605-6.804483V-6.495641C3.73599-6.495641 3.815691-6.425903 3.815691-5.937733V-3.785803C3.526775-4.144458 3.098381-4.403487 2.560399-4.403487C1.384807-4.403487 .33873-3.427148 .33873-2.141968C.33873-.876712 1.315068 .109589 2.450809 .109589C3.088418 .109589 3.536737-.229141 3.785803-.547945ZM3.785803-3.217933V-1.175592C3.785803-.996264 3.785803-.976339 3.676214-.806974C3.377335-.328767 2.929016-.109589 2.500623-.109589C2.052304-.109589 1.693649-.368618 1.454545-.747198C1.195517-1.155666 1.165629-1.723537 1.165629-2.132005C1.165629-2.500623 1.185554-3.098381 1.474471-3.5467C1.683686-3.855542 2.062267-4.184309 2.600249-4.184309C2.948941-4.184309 3.367372-4.034869 3.676214-3.58655C3.785803-3.417186 3.785803-3.39726 3.785803-3.217933Z'/>
<path id='g2-101' d='M1.115816-2.510585C1.175592-3.995019 2.012453-4.244085 2.351183-4.244085C3.377335-4.244085 3.476961-2.899128 3.476961-2.510585H1.115816ZM1.105853-2.30137H3.88543C4.104608-2.30137 4.134496-2.30137 4.134496-2.510585C4.134496-3.496887 3.596513-4.463263 2.351183-4.463263C1.195517-4.463263 .278954-3.437111 .278954-2.191781C.278954-.856787 1.325031 .109589 2.470735 .109589C3.686177 .109589 4.134496-.996264 4.134496-1.185554C4.134496-1.285181 4.054795-1.305106 4.004981-1.305106C3.915318-1.305106 3.895392-1.24533 3.875467-1.165629C3.526775-.139477 2.630137-.139477 2.530511-.139477C2.032379-.139477 1.633873-.438356 1.404732-.806974C1.105853-1.285181 1.105853-1.942715 1.105853-2.30137Z'/>
<path id='g2-102' d='M1.743462-4.293898V-5.449564C1.743462-6.326276 2.221669-6.804483 2.660025-6.804483C2.689913-6.804483 2.839352-6.804483 2.988792-6.734745C2.86924-6.694894 2.689913-6.56538 2.689913-6.316314C2.689913-6.087173 2.849315-5.88792 3.118306-5.88792C3.407223-5.88792 3.556663-6.087173 3.556663-6.326276C3.556663-6.694894 3.188045-7.023661 2.660025-7.023661C1.96264-7.023661 1.115816-6.495641 1.115816-5.439601V-4.293898H.328767V-3.985056H1.115816V-.757161C1.115816-.308842 1.006227-.308842 .33873-.308842V0C.727273-.009963 1.195517-.029888 1.474471-.029888C1.872976-.029888 2.34122-.029888 2.739726 0V-.308842H2.530511C1.793275-.308842 1.77335-.418431 1.77335-.777086V-3.985056H2.909091V-4.293898H1.743462Z'/>
<path id='g2-103' d='M2.211706-1.713574C1.344956-1.713574 1.344956-2.709838 1.344956-2.938979C1.344956-3.20797 1.354919-3.526775 1.504359-3.775841C1.58406-3.895392 1.8132-4.174346 2.211706-4.174346C3.078456-4.174346 3.078456-3.178082 3.078456-2.948941C3.078456-2.67995 3.068493-2.361146 2.919054-2.11208C2.839352-1.992528 2.610212-1.713574 2.211706-1.713574ZM1.05604-1.325031C1.05604-1.364882 1.05604-1.594022 1.225405-1.793275C1.613948-1.514321 2.022416-1.484433 2.211706-1.484433C3.138232-1.484433 3.825654-2.171856 3.825654-2.938979C3.825654-3.307597 3.666252-3.676214 3.417186-3.905355C3.775841-4.244085 4.134496-4.293898 4.313823-4.293898C4.333748-4.293898 4.383562-4.293898 4.41345-4.283935C4.303861-4.244085 4.254047-4.134496 4.254047-4.014944C4.254047-3.845579 4.383562-3.726027 4.542964-3.726027C4.64259-3.726027 4.83188-3.795766 4.83188-4.024907C4.83188-4.194271 4.712329-4.513076 4.323786-4.513076C4.124533-4.513076 3.686177-4.4533 3.267746-4.044832C2.849315-4.373599 2.430884-4.403487 2.211706-4.403487C1.285181-4.403487 .597758-3.716065 .597758-2.948941C.597758-2.510585 .816936-2.132005 1.066002-1.92279C.936488-1.77335 .757161-1.444583 .757161-1.09589C.757161-.787049 .886675-.408468 1.195517-.209215C.597758-.039851 .278954 .388543 .278954 .787049C.278954 1.504359 1.265255 2.052304 2.480697 2.052304C3.656289 2.052304 4.692403 1.544209 4.692403 .767123C4.692403 .418431 4.552927-.089664 4.044832-.368618C3.516812-.647572 2.938979-.647572 2.331258-.647572C2.082192-.647572 1.653798-.647572 1.58406-.657534C1.265255-.697385 1.05604-1.006227 1.05604-1.325031ZM2.49066 1.823163C1.484433 1.823163 .797011 1.315068 .797011 .787049C.797011 .328767 1.175592-.039851 1.613948-.069738H2.201743C3.058531-.069738 4.174346-.069738 4.174346 .787049C4.174346 1.325031 3.466999 1.823163 2.49066 1.823163Z'/>
<path id='g2-105' d='M1.763387-4.403487L.368618-4.293898V-3.985056C1.016189-3.985056 1.105853-3.92528 1.105853-3.437111V-.757161C1.105853-.308842 .996264-.308842 .328767-.308842V0C.647572-.009963 1.185554-.029888 1.424658-.029888C1.77335-.029888 2.122042-.009963 2.460772 0V-.308842C1.803238-.308842 1.763387-.358655 1.763387-.747198V-4.403487ZM1.803238-6.136986C1.803238-6.455791 1.554172-6.665006 1.275218-6.665006C.966376-6.665006 .747198-6.396015 .747198-6.136986C.747198-5.867995 .966376-5.608966 1.275218-5.608966C1.554172-5.608966 1.803238-5.818182 1.803238-6.136986Z'/>
<path id='g2-110' d='M1.09589-3.427148V-.757161C1.09589-.308842 .986301-.308842 .318804-.308842V0C.667497-.009963 1.175592-.029888 1.444583-.029888C1.703611-.029888 2.221669-.009963 2.560399 0V-.308842C1.892902-.308842 1.783313-.308842 1.783313-.757161V-2.590286C1.783313-3.626401 2.49066-4.184309 3.128269-4.184309C3.755915-4.184309 3.865504-3.646326 3.865504-3.078456V-.757161C3.865504-.308842 3.755915-.308842 3.088418-.308842V0C3.437111-.009963 3.945205-.029888 4.214197-.029888C4.473225-.029888 4.991283-.009963 5.330012 0V-.308842C4.811955-.308842 4.562889-.308842 4.552927-.607721V-2.510585C4.552927-3.367372 4.552927-3.676214 4.244085-4.034869C4.104608-4.204234 3.775841-4.403487 3.198007-4.403487C2.470735-4.403487 2.002491-3.975093 1.723537-3.35741V-4.403487L.318804-4.293898V-3.985056C1.016189-3.985056 1.09589-3.915318 1.09589-3.427148Z'/>
<path id='g2-111' d='M4.692403-2.132005C4.692403-3.407223 3.696139-4.463263 2.49066-4.463263C1.24533-4.463263 .278954-3.377335 .278954-2.132005C.278954-.846824 1.315068 .109589 2.480697 .109589C3.686177 .109589 4.692403-.86675 4.692403-2.132005ZM2.49066-.139477C2.062267-.139477 1.62391-.348692 1.354919-.806974C1.105853-1.24533 1.105853-1.853051 1.105853-2.211706C1.105853-2.600249 1.105853-3.138232 1.344956-3.576588C1.613948-4.034869 2.082192-4.244085 2.480697-4.244085C2.919054-4.244085 3.347447-4.024907 3.606476-3.596513S3.865504-2.590286 3.865504-2.211706C3.865504-1.853051 3.865504-1.315068 3.646326-.876712C3.427148-.428394 2.988792-.139477 2.49066-.139477Z'/>
<path id='g2-114' d='M1.663761-3.307597V-4.403487L.278954-4.293898V-3.985056C.976339-3.985056 1.05604-3.915318 1.05604-3.427148V-.757161C1.05604-.308842 .946451-.308842 .278954-.308842V0C.667497-.009963 1.135741-.029888 1.414695-.029888C1.8132-.029888 2.281445-.029888 2.67995 0V-.308842H2.470735C1.733499-.308842 1.713574-.418431 1.713574-.777086V-2.311333C1.713574-3.297634 2.132005-4.184309 2.889166-4.184309C2.958904-4.184309 2.978829-4.184309 2.998755-4.174346C2.968867-4.164384 2.769614-4.044832 2.769614-3.785803C2.769614-3.506849 2.978829-3.35741 3.198007-3.35741C3.377335-3.35741 3.626401-3.476961 3.626401-3.795766S3.317559-4.403487 2.889166-4.403487C2.161893-4.403487 1.803238-3.73599 1.663761-3.307597Z'/>
<path id='g2-115' d='M2.072229-1.932752C2.291407-1.892902 3.108344-1.733499 3.108344-1.016189C3.108344-.508095 2.759651-.109589 1.982565-.109589C1.145704-.109589 .787049-.67746 .597758-1.524284C.56787-1.653798 .557908-1.693649 .458281-1.693649C.328767-1.693649 .328767-1.62391 .328767-1.444583V-.129514C.328767 .039851 .328767 .109589 .438356 .109589C.488169 .109589 .498132 .099626 .687422-.089664C.707347-.109589 .707347-.129514 .886675-.318804C1.325031 .099626 1.77335 .109589 1.982565 .109589C3.128269 .109589 3.58655-.557908 3.58655-1.275218C3.58655-1.803238 3.287671-2.102117 3.16812-2.221669C2.839352-2.540473 2.450809-2.620174 2.032379-2.699875C1.474471-2.809465 .806974-2.938979 .806974-3.516812C.806974-3.865504 1.066002-4.273973 1.92279-4.273973C3.01868-4.273973 3.068493-3.377335 3.088418-3.068493C3.098381-2.978829 3.188045-2.978829 3.20797-2.978829C3.337484-2.978829 3.337484-3.028643 3.337484-3.217933V-4.224159C3.337484-4.393524 3.337484-4.463263 3.227895-4.463263C3.178082-4.463263 3.158157-4.463263 3.028643-4.343711C2.998755-4.303861 2.899128-4.214197 2.859278-4.184309C2.480697-4.463263 2.072229-4.463263 1.92279-4.463263C.707347-4.463263 .328767-3.795766 .328767-3.237858C.328767-2.889166 .488169-2.610212 .757161-2.391034C1.075965-2.132005 1.354919-2.072229 2.072229-1.932752Z'/>
<path id='g2-116' d='M1.723537-3.985056H3.148194V-4.293898H1.723537V-6.127024H1.474471C1.464508-5.310087 1.165629-4.244085 .18929-4.204234V-3.985056H1.036115V-1.235367C1.036115-.009963 1.96264 .109589 2.321295 .109589C3.028643 .109589 3.307597-.597758 3.307597-1.235367V-1.803238H3.058531V-1.255293C3.058531-.518057 2.759651-.139477 2.391034-.139477C1.723537-.139477 1.723537-1.046077 1.723537-1.215442V-3.985056Z'/>
<path id='g2-117' d='M3.895392-.787049V.109589L5.330012 0V-.308842C4.632628-.308842 4.552927-.37858 4.552927-.86675V-4.403487L3.088418-4.293898V-3.985056C3.785803-3.985056 3.865504-3.915318 3.865504-3.427148V-1.653798C3.865504-.787049 3.387298-.109589 2.660025-.109589C1.823163-.109589 1.783313-.577833 1.783313-1.09589V-4.403487L.318804-4.293898V-3.985056C1.09589-3.985056 1.09589-3.955168 1.09589-3.068493V-1.574097C1.09589-.797011 1.09589 .109589 2.610212 .109589C3.16812 .109589 3.606476-.169365 3.895392-.787049Z'/>
<path id='g2-122' d='M3.88543-3.995019C3.975093-4.104608 3.975093-4.124533 3.975093-4.164384C3.975093-4.293898 3.895392-4.293898 3.716065-4.293898H.52802L.418431-2.689913H.667497C.727273-3.706102 .916563-4.07472 2.012453-4.07472H3.148194L.368618-.318804C.278954-.209215 .278954-.18929 .278954-.139477C.278954 0 .348692 0 .537983 0H3.825654L3.995019-1.863014H3.745953C3.656289-.687422 3.447073-.249066 2.291407-.249066H1.115816L3.88543-3.995019Z'/>
</defs>
<g id='page1'>
<use x='82.275968' y='0' xlink:href='#g2-82'/>
<use x='89.609593' y='0' xlink:href='#g2-101'/>
<use x='94.037445' y='0' xlink:href='#g2-99'/>
<use x='98.465296' y='0' xlink:href='#g2-111'/>
<use x='103.446636' y='0' xlink:href='#g2-114'/>
<use x='107.348686' y='0' xlink:href='#g2-100'/>
<use x='116.204378' y='0' xlink:href='#g2-111'/>
<use x='121.185717' y='0' xlink:href='#g2-110'/>
<use x='130.041409' y='0' xlink:href='#g0-70'/>
<use x='136.129704' y='1.771129' xlink:href='#g1-112'/>
<use x='140.23666' y='-.221384' xlink:href='#g3-51'/>
<use x='147.943906' y='0' xlink:href='#g2-111'/>
<use x='152.925245' y='0' xlink:href='#g2-102'/>
<use x='159.290277' y='0' xlink:href='#g2-115'/>
<use x='163.219994' y='0' xlink:href='#g2-105'/>
<use x='165.987403' y='0' xlink:href='#g2-122'/>
<use x='170.415255' y='0' xlink:href='#g2-101'/>
<use x='178.163981' y='0' xlink:href='#g2-53'/>
<use x='183.14532' y='0' xlink:href='#g2-48'/>
<use x='188.126659' y='0' xlink:href='#g2-56'/>
<use x='196.428873' y='0' xlink:href='#g2-98'/>
<use x='201.96369' y='0' xlink:href='#g2-105'/>
<use x='204.731099' y='0' xlink:href='#g2-116'/>
<use x='208.605472' y='0' xlink:href='#g2-115'/>
<use x='215.856065' y='0' xlink:href='#g2-117'/>
<use x='221.390882' y='0' xlink:href='#g2-115'/>
<use x='225.3206' y='0' xlink:href='#g2-105'/>
<use x='228.088008' y='0' xlink:href='#g2-110'/>
<use x='233.622825' y='0' xlink:href='#g2-103'/>
<use x='241.925039' y='0' xlink:href='#g2-78'/>
<use x='249.397038' y='0' xlink:href='#g2-70'/>
<use x='255.900456' y='0' xlink:href='#g2-83'/>
</g>
</svg>