<?xml version='1.0' encoding='UTF-8'?>
<!-- This file was generated by dvisvgm 2.13.1 -->
<svg version='1.1' xmlns='http://www.w3.org/2000/svg' xmlns:xlink='http://www.w3.org/1999/xlink' width='14.999352pt' height='6.918502pt' viewBox='164.355879 -6.918502 14.999352 6.918502'>
<defs>
<path id='g0-98' d='M1.713574-3.755915V-6.914072L.278954-6.804483V-6.495641C.976339-6.495641 1.05604-6.425903 1.05604-5.937733V0H1.305106C1.315068-.009963 1.39477-.14944 1.663761-.617684C1.8132-.388543 2.231631 .109589 2.968867 .109589C4.154421 .109589 5.190535-.86675 5.190535-2.15193C5.190535-3.417186 4.214197-4.403487 3.078456-4.403487C2.30137-4.403487 1.872976-3.935243 1.713574-3.755915ZM1.743462-1.135741V-3.188045C1.743462-3.377335 1.743462-3.387298 1.853051-3.5467C2.241594-4.104608 2.789539-4.184309 3.028643-4.184309C3.476961-4.184309 3.835616-3.92528 4.07472-3.5467C4.333748-3.138232 4.363636-2.570361 4.363636-2.161893C4.363636-1.793275 4.343711-1.195517 4.054795-.747198C3.845579-.438356 3.466999-.109589 2.929016-.109589C2.480697-.109589 2.122042-.348692 1.882939-.71731C1.743462-.926526 1.743462-.956413 1.743462-1.135741Z'/>
<path id='g0-115' d='M2.072229-1.932752C2.291407-1.892902 3.108344-1.733499 3.108344-1.016189C3.108344-.508095 2.759651-.109589 1.982565-.109589C1.145704-.109589 .787049-.67746 .597758-1.524284C.56787-1.653798 .557908-1.693649 .458281-1.693649C.328767-1.693649 .328767-1.62391 .328767-1.444583V-.129514C.328767 .039851 .328767 .109589 .438356 .109589C.488169 .109589 .498132 .099626 .687422-.089664C.707347-.109589 .707347-.129514 .886675-.318804C1.325031 .099626 1.77335 .109589 1.982565 .109589C3.128269 .109589 3.58655-.557908 3.58655-1.275218C3.58655-1.803238 3.287671-2.102117 3.16812-2.221669C2.839352-2.540473 2.450809-2.620174 2.032379-2.699875C1.474471-2.809465 .806974-2.938979 .806974-3.516812C.806974-3.865504 1.066002-4.273973 1.92279-4.273973C3.01868-4.273973 3.068493-3.377335 3.088418-3.068493C3.098381-2.978829 3.188045-2.978829 3.20797-2.978829C3.337484-2.978829 3.337484-3.028643 3.337484-3.217933V-4.224159C3.337484-4.393524 3.337484-4.463263 3.227895-4.463263C3.178082-4.463263 3.158157-4.463263 3.028643-4.343711C2.998755-4.303861 2.899128-4.214197 2.859278-4.184309C2.480697-4.463263 2.072229-4.463263 1.92279-4.463263C.707347-4.463263 .328767-3.795766 .328767-3.237858C.328767-2.889166 .488169-2.610212 .757161-2.391034C1.075965-2.132005 1.354919-2.072229 2.072229-1.932752Z'/>
<path id='g0-117' d='M3.895392-.787049V.109589L5.330012 0V-.308842C4.632628-.308842 4.552927-.37858 4.552927-.86675V-4.403487L3.088418-4.293898V-3.985056C3.785803-3.985056 3.865504-3.915318 3.865504-3.427148V-1.653798C3.865504-.787049 3.387298-.109589 2.660025-.109589C1.823163-.109589 1.783313-.577833 1.783313-1.09589V-4.403487L.318804-4.293898V-3.985056C1.09589-3.985056 1.09589-3.955168 1.09589-3.068493V-1.574097C1.09589-.797011 1.09589 .109589 2.610212 .109589C3.16812 .109589 3.606476-.169365 3.895392-.787049Z'/>
</defs>
<g id='page1'>
<use x='164.355879' y='0' xlink:href='#g0-115'/>
<use x='168.285597' y='0' xlink:href='#g0-117'/>
<use x='173.820414' y='0' xlink:href='#g0-98'/>
</g>
</svg>