<?xml version='1.0' encoding='UTF-8'?>
<!-- This file was generated by dvisvgm 2.13.1 -->
<svg version='1.1' xmlns='http://www.w3.org/2000/svg' xmlns:xlink='http://www.w3.org/1999/xlink' width='13.585372pt' height='9.990305pt' viewBox='164.564736 -6.863149 13.585372 9.990305'>
<defs>
<path id='g2-50' d='M2.933998-.961395H2.724782C2.709838-.86675 2.660025-.557908 2.580324-.508095C2.540473-.478207 2.122042-.478207 2.047323-.478207H1.070984C1.399751-.722291 1.768369-1.001245 2.067248-1.200498C2.515567-1.50934 2.933998-1.798257 2.933998-2.326276C2.933998-2.963885 2.331258-3.317559 1.618929-3.317559C.946451-3.317559 .4533-2.929016 .4533-2.440847C.4533-2.181818 .672478-2.136986 .742217-2.136986C.876712-2.136986 1.036115-2.22665 1.036115-2.430884C1.036115-2.610212 .9066-2.709838 .752179-2.724782C.891656-2.948941 1.180573-3.098381 1.514321-3.098381C1.997509-3.098381 2.400996-2.809465 2.400996-2.321295C2.400996-1.902864 2.11208-1.58406 1.728518-1.260274L.513076-.229141C.463263-.184309 .458281-.184309 .4533-.14944V0H2.769614L2.933998-.961395Z'/>
<path id='g1-112' d='M.523039 .850809C.474222 1.046077 .460274 1.101868 .18132 1.101868C.09066 1.101868-.006974 1.101868-.006974 1.248319C-.006974 1.325031 .055791 1.352927 .09066 1.352927C.27198 1.352927 .502117 1.325031 .690411 1.325031C.927522 1.325031 1.192528 1.352927 1.422665 1.352927C1.48543 1.352927 1.562142 1.332005 1.562142 1.199502C1.562142 1.101868 1.464508 1.101868 1.380822 1.101868C1.227397 1.101868 1.039103 1.101868 1.039103 1.018182C1.039103 .983313 1.08792 .801993 1.115816 .697385C1.199502 .327771 1.297136-.048817 1.373848-.341719C1.457534-.202242 1.673724 .069738 2.092154 .069738C2.942964 .069738 3.884433-.871731 3.884433-1.910834C3.884433-2.726775 3.319552-3.075467 2.838356-3.075467C2.405978-3.075467 2.036364-2.782565 1.84807-2.587298C1.729514-2.984807 1.338979-3.075467 1.129763-3.075467C.857783-3.075467 .690411-2.894147 .578829-2.705853C.439352-2.468742 .327771-2.050311 .327771-2.008468C.327771-1.917808 .425405-1.917808 .446326-1.917808C.54396-1.917808 .550934-1.93873 .599751-2.127024C.704359-2.531507 .836862-2.880199 1.108842-2.880199C1.290162-2.880199 1.338979-2.726775 1.338979-2.538481C1.338979-2.461768 1.325031-2.371108 1.318057-2.329265L.523039 .850809ZM1.841096-2.238605C2.245579-2.775592 2.594271-2.880199 2.817435-2.880199C3.089415-2.880199 3.326526-2.677958 3.326526-2.203736C3.326526-1.917808 3.173101-1.206476 2.963885-.801993C2.789539-.460274 2.447821-.125529 2.092154-.125529C1.597011-.125529 1.471482-.662516 1.471482-.732254C1.471482-.760149 1.48543-.808966 1.492403-.836862L1.841096-2.238605Z'/>
<path id='g0-70' d='M2.580324-3.347447C2.988792-3.347447 3.985056-3.327522 4.064757-2.211706C4.07472-2.092154 4.084682-1.96264 4.244085-1.96264C4.41345-1.96264 4.41345-2.102117 4.41345-2.281445V-4.98132C4.41345-5.140722 4.41345-5.300125 4.244085-5.300125C4.11457-5.300125 4.07472-5.200498 4.064757-5.090909C4.004981-3.935243 3.307597-3.73599 2.580324-3.706102V-5.808219C2.580324-6.475716 2.769614-6.475716 3.008717-6.475716H3.476961C4.752179-6.475716 5.399751-5.788294 5.459527-5.100872C5.469489-5.021171 5.479452-4.871731 5.638854-4.871731C5.808219-4.871731 5.808219-5.031133 5.808219-5.200498V-6.495641C5.808219-6.804483 5.788294-6.824408 5.479452-6.824408H.478207C.298879-6.824408 .139477-6.824408 .139477-6.645081C.139477-6.475716 .328767-6.475716 .408468-6.475716C.976339-6.475716 1.016189-6.396015 1.016189-5.907846V-.916563C1.016189-.448319 .986301-.348692 .458281-.348692C.308842-.348692 .139477-.348692 .139477-.179328C.139477 0 .298879 0 .478207 0H3.35741C3.536737 0 3.686177 0 3.686177-.179328C3.686177-.348692 3.516812-.348692 3.387298-.348692C2.620174-.348692 2.580324-.418431 2.580324-.946451V-3.347447ZM5.459527-6.475716V-6.007472C5.32005-6.156912 5.150685-6.336239 4.921544-6.475716H5.459527ZM4.064757-3.158157C3.915318-3.347447 3.656289-3.496887 3.536737-3.5467C3.726027-3.636364 3.92528-3.795766 4.064757-3.965131V-3.158157ZM1.364882-5.927771C1.364882-6.047323 1.364882-6.296389 1.285181-6.475716H2.34122C2.231631-6.246575 2.231631-5.917808 2.231631-5.828144V-.926526C2.231631-.777086 2.231631-.537983 2.331258-.348692H1.285181C1.364882-.52802 1.364882-.777086 1.364882-.896638V-5.927771Z'/>
</defs>
<g id='page1'>
<use x='164.564736' y='0' xlink:href='#g0-70'/>
<use x='170.653031' y='1.771129' xlink:href='#g1-112'/>
<use x='174.759988' y='-.221384' xlink:href='#g2-50'/>
</g>
</svg>