<?xml version='1.0' encoding='UTF-8'?>
<!-- This file was generated by dvisvgm 2.13.1 -->
<svg version='1.1' xmlns='http://www.w3.org/2000/svg' xmlns:xlink='http://www.w3.org/1999/xlink' width='429.048284pt' height='196.463214pt' viewBox='0 -100.722267 429.048284 196.463214'>
<defs>
<path id='g1-61' d='M4.373599-7.0934C4.423412-7.222914 4.423412-7.262765 4.423412-7.272727C4.423412-7.382316 4.333748-7.47198 4.224159-7.47198C4.154421-7.47198 4.084682-7.442092 4.054795-7.382316L.597758 2.11208C.547945 2.241594 .547945 2.281445 .547945 2.291407C.547945 2.400996 .637609 2.49066 .747198 2.49066C.876712 2.49066 .9066 2.420922 .966376 2.251557L4.373599-7.0934Z'/>
<path id='g1-76' d='M3.726027-6.027397C3.815691-6.386052 3.845579-6.495641 4.782067-6.495641C5.080946-6.495641 5.160648-6.495641 5.160648-6.684932C5.160648-6.804483 5.051059-6.804483 5.001245-6.804483C4.672478-6.804483 3.855542-6.774595 3.526775-6.774595C3.227895-6.774595 2.500623-6.804483 2.201743-6.804483C2.132005-6.804483 2.012453-6.804483 2.012453-6.60523C2.012453-6.495641 2.102117-6.495641 2.291407-6.495641C2.311333-6.495641 2.500623-6.495641 2.669988-6.475716C2.849315-6.455791 2.938979-6.445828 2.938979-6.316314C2.938979-6.276463 2.929016-6.246575 2.899128-6.127024L1.564134-.777086C1.464508-.388543 1.444583-.308842 .657534-.308842C.488169-.308842 .388543-.308842 .388543-.109589C.388543 0 .478207 0 .657534 0H5.270237C5.50934 0 5.519303 0 5.579078-.169365L6.366127-2.321295C6.405978-2.430884 6.405978-2.450809 6.405978-2.460772C6.405978-2.500623 6.37609-2.570361 6.286426-2.570361S6.1868-2.520548 6.117061-2.361146C5.778331-1.444583 5.339975-.308842 3.616438-.308842H2.67995C2.540473-.308842 2.520548-.308842 2.460772-.318804C2.361146-.328767 2.331258-.33873 2.331258-.418431C2.331258-.448319 2.331258-.468244 2.381071-.647572L3.726027-6.027397Z'/>
<path id='g1-112' d='M.448319 1.215442C.368618 1.554172 .348692 1.62391-.089664 1.62391C-.209215 1.62391-.318804 1.62391-.318804 1.8132C-.318804 1.892902-.268991 1.932752-.18929 1.932752C.079701 1.932752 .368618 1.902864 .647572 1.902864C.976339 1.902864 1.315068 1.932752 1.633873 1.932752C1.683686 1.932752 1.8132 1.932752 1.8132 1.733499C1.8132 1.62391 1.713574 1.62391 1.574097 1.62391C1.075965 1.62391 1.075965 1.554172 1.075965 1.464508C1.075965 1.344956 1.494396-.278954 1.564134-.52802C1.693649-.239103 1.972603 .109589 2.480697 .109589C3.636364 .109589 4.881694-1.344956 4.881694-2.809465C4.881694-3.745953 4.313823-4.403487 3.556663-4.403487C3.058531-4.403487 2.580324-4.044832 2.251557-3.656289C2.15193-4.194271 1.723537-4.403487 1.354919-4.403487C.896638-4.403487 .707347-4.014944 .617684-3.835616C.438356-3.496887 .308842-2.899128 .308842-2.86924C.308842-2.769614 .408468-2.769614 .428394-2.769614C.52802-2.769614 .537983-2.779577 .597758-2.998755C.767123-3.706102 .966376-4.184309 1.325031-4.184309C1.494396-4.184309 1.633873-4.104608 1.633873-3.726027C1.633873-3.496887 1.603985-3.387298 1.564134-3.217933L.448319 1.215442ZM2.201743-3.108344C2.271482-3.377335 2.540473-3.656289 2.719801-3.805729C3.068493-4.11457 3.35741-4.184309 3.526775-4.184309C3.92528-4.184309 4.164384-3.835616 4.164384-3.247821S3.835616-1.514321 3.656289-1.135741C3.317559-.438356 2.839352-.109589 2.470735-.109589C1.8132-.109589 1.683686-.936488 1.683686-.996264C1.683686-1.016189 1.683686-1.036115 1.713574-1.155666L2.201743-3.108344Z'/>
<path id='g3-12' d='M3.287671-3.985056C3.745953-3.985056 3.815691-3.855542 3.815691-3.447073V-.757161C3.815691-.308842 3.706102-.308842 3.038605-.308842V0C3.367372-.009963 3.895392-.029888 4.144458-.029888S4.881694-.009963 5.250311 0V-.308842C4.582814-.308842 4.473225-.308842 4.473225-.757161V-4.41345L3.217933-4.323786C3.058531-4.313823 3.048568-4.303861 3.038605-4.303861C3.01868-4.293898 2.998755-4.293898 2.859278-4.293898H1.683686V-5.419676C1.683686-6.405978 2.540473-6.804483 3.158157-6.804483C3.457036-6.804483 3.815691-6.704857 4.014944-6.475716C3.606476-6.455791 3.5467-6.176837 3.5467-6.017435C3.5467-5.688667 3.805729-5.559153 3.995019-5.559153C4.224159-5.559153 4.4533-5.718555 4.4533-6.017435C4.4533-6.60523 3.905355-7.023661 3.16812-7.023661C2.241594-7.023661 1.05604-6.515567 1.05604-5.429639V-4.293898H.268991V-3.985056H1.05604V-.757161C1.05604-.308842 .946451-.308842 .278954-.308842V0C.607721-.009963 1.135741-.029888 1.384807-.029888S2.122042-.009963 2.49066 0V-.308842C1.823163-.308842 1.713574-.308842 1.713574-.757161V-3.985056H3.287671Z'/>
<path id='g3-40' d='M3.297634 2.391034C3.297634 2.361146 3.297634 2.34122 3.128269 2.171856C1.882939 .916563 1.564134-.966376 1.564134-2.49066C1.564134-4.224159 1.942715-5.957659 3.16812-7.202989C3.297634-7.32254 3.297634-7.342466 3.297634-7.372354C3.297634-7.442092 3.257783-7.47198 3.198007-7.47198C3.098381-7.47198 2.201743-6.794521 1.613948-5.529265C1.105853-4.433375 .986301-3.327522 .986301-2.49066C.986301-1.713574 1.09589-.508095 1.643836 .617684C2.241594 1.843088 3.098381 2.49066 3.198007 2.49066C3.257783 2.49066 3.297634 2.460772 3.297634 2.391034Z'/>
<path id='g3-41' d='M2.879203-2.49066C2.879203-3.267746 2.769614-4.473225 2.221669-5.599004C1.62391-6.824408 .767123-7.47198 .667497-7.47198C.607721-7.47198 .56787-7.43213 .56787-7.372354C.56787-7.342466 .56787-7.32254 .757161-7.143213C1.733499-6.156912 2.30137-4.572852 2.30137-2.49066C2.30137-.787049 1.932752 .966376 .697385 2.221669C.56787 2.34122 .56787 2.361146 .56787 2.391034C.56787 2.450809 .607721 2.49066 .667497 2.49066C.767123 2.49066 1.663761 1.8132 2.251557 .547945C2.759651-.547945 2.879203-1.653798 2.879203-2.49066Z'/>
<path id='g3-45' d='M2.749689-1.863014V-2.440847H.109589V-1.863014H2.749689Z'/>
<path id='g3-46' d='M1.912827-.52802C1.912827-.816936 1.673724-1.05604 1.384807-1.05604S.856787-.816936 .856787-.52802S1.09589 0 1.384807 0S1.912827-.239103 1.912827-.52802Z'/>
<path id='g3-48' d='M4.582814-3.188045C4.582814-3.985056 4.533001-4.782067 4.184309-5.519303C3.726027-6.475716 2.909091-6.635118 2.49066-6.635118C1.892902-6.635118 1.165629-6.37609 .757161-5.449564C.438356-4.762142 .388543-3.985056 .388543-3.188045C.388543-2.440847 .428394-1.544209 .836862-.787049C1.265255 .019925 1.992528 .219178 2.480697 .219178C3.01868 .219178 3.775841 .009963 4.214197-.936488C4.533001-1.62391 4.582814-2.400996 4.582814-3.188045ZM2.480697 0C2.092154 0 1.504359-.249066 1.325031-1.205479C1.215442-1.803238 1.215442-2.719801 1.215442-3.307597C1.215442-3.945205 1.215442-4.60274 1.295143-5.140722C1.484433-6.326276 2.231631-6.41594 2.480697-6.41594C2.809465-6.41594 3.466999-6.236613 3.656289-5.250311C3.755915-4.692403 3.755915-3.935243 3.755915-3.307597C3.755915-2.560399 3.755915-1.882939 3.646326-1.24533C3.496887-.298879 2.929016 0 2.480697 0Z'/>
<path id='g3-49' d='M2.929016-6.37609C2.929016-6.615193 2.929016-6.635118 2.699875-6.635118C2.082192-5.997509 1.205479-5.997509 .886675-5.997509V-5.688667C1.085928-5.688667 1.673724-5.688667 2.191781-5.947696V-.787049C2.191781-.428394 2.161893-.308842 1.265255-.308842H.946451V0C1.295143-.029888 2.161893-.029888 2.560399-.029888S3.825654-.029888 4.174346 0V-.308842H3.855542C2.958904-.308842 2.929016-.418431 2.929016-.787049V-6.37609Z'/>
<path id='g3-50' d='M1.265255-.767123L2.321295-1.793275C3.875467-3.16812 4.473225-3.706102 4.473225-4.702366C4.473225-5.838107 3.576588-6.635118 2.361146-6.635118C1.235367-6.635118 .498132-5.718555 .498132-4.83188C.498132-4.273973 .996264-4.273973 1.026152-4.273973C1.195517-4.273973 1.544209-4.393524 1.544209-4.801993C1.544209-5.061021 1.364882-5.32005 1.016189-5.32005C.936488-5.32005 .916563-5.32005 .886675-5.310087C1.115816-5.957659 1.653798-6.326276 2.231631-6.326276C3.138232-6.326276 3.566625-5.519303 3.566625-4.702366C3.566625-3.905355 3.068493-3.118306 2.520548-2.500623L.607721-.368618C.498132-.259029 .498132-.239103 .498132 0H4.194271L4.473225-1.733499H4.224159C4.174346-1.43462 4.104608-.996264 4.004981-.846824C3.935243-.767123 3.277709-.767123 3.058531-.767123H1.265255Z'/>
<path id='g3-51' d='M2.889166-3.506849C3.706102-3.775841 4.283935-4.473225 4.283935-5.260274C4.283935-6.07721 3.407223-6.635118 2.450809-6.635118C1.444583-6.635118 .687422-6.03736 .687422-5.280199C.687422-4.951432 .9066-4.762142 1.195517-4.762142C1.504359-4.762142 1.703611-4.98132 1.703611-5.270237C1.703611-5.768369 1.235367-5.768369 1.085928-5.768369C1.39477-6.256538 2.052304-6.386052 2.410959-6.386052C2.819427-6.386052 3.367372-6.166874 3.367372-5.270237C3.367372-5.150685 3.347447-4.572852 3.088418-4.134496C2.789539-3.656289 2.450809-3.626401 2.201743-3.616438C2.122042-3.606476 1.882939-3.58655 1.8132-3.58655C1.733499-3.576588 1.663761-3.566625 1.663761-3.466999C1.663761-3.35741 1.733499-3.35741 1.902864-3.35741H2.34122C3.158157-3.35741 3.526775-2.67995 3.526775-1.703611C3.526775-.348692 2.839352-.059776 2.400996-.059776C1.972603-.059776 1.225405-.229141 .876712-.816936C1.225405-.767123 1.534247-.986301 1.534247-1.364882C1.534247-1.723537 1.265255-1.92279 .976339-1.92279C.737235-1.92279 .418431-1.783313 .418431-1.344956C.418431-.438356 1.344956 .219178 2.430884 .219178C3.646326 .219178 4.552927-.687422 4.552927-1.703611C4.552927-2.520548 3.92528-3.297634 2.889166-3.506849Z'/>
<path id='g3-52' d='M2.929016-1.643836V-.777086C2.929016-.418431 2.909091-.308842 2.171856-.308842H1.96264V0C2.371108-.029888 2.889166-.029888 3.307597-.029888S4.254047-.029888 4.662516 0V-.308842H4.4533C3.716065-.308842 3.696139-.418431 3.696139-.777086V-1.643836H4.692403V-1.952677H3.696139V-6.485679C3.696139-6.684932 3.696139-6.744707 3.536737-6.744707C3.447073-6.744707 3.417186-6.744707 3.337484-6.625156L.278954-1.952677V-1.643836H2.929016ZM2.988792-1.952677H.557908L2.988792-5.668742V-1.952677Z'/>
<path id='g3-53' d='M4.473225-2.002491C4.473225-3.188045 3.656289-4.184309 2.580324-4.184309C2.102117-4.184309 1.673724-4.024907 1.315068-3.676214V-5.618929C1.514321-5.559153 1.843088-5.489415 2.161893-5.489415C3.387298-5.489415 4.084682-6.396015 4.084682-6.525529C4.084682-6.585305 4.054795-6.635118 3.985056-6.635118C3.975093-6.635118 3.955168-6.635118 3.905355-6.60523C3.706102-6.515567 3.217933-6.316314 2.550436-6.316314C2.15193-6.316314 1.693649-6.386052 1.225405-6.595268C1.145704-6.625156 1.125778-6.625156 1.105853-6.625156C1.006227-6.625156 1.006227-6.545455 1.006227-6.386052V-3.437111C1.006227-3.257783 1.006227-3.178082 1.145704-3.178082C1.215442-3.178082 1.235367-3.20797 1.275218-3.267746C1.384807-3.427148 1.753425-3.965131 2.560399-3.965131C3.078456-3.965131 3.327522-3.506849 3.407223-3.327522C3.566625-2.958904 3.58655-2.570361 3.58655-2.072229C3.58655-1.723537 3.58655-1.125778 3.347447-.707347C3.108344-.318804 2.739726-.059776 2.281445-.059776C1.554172-.059776 .986301-.587796 .816936-1.175592C.846824-1.165629 .876712-1.155666 .986301-1.155666C1.315068-1.155666 1.484433-1.404732 1.484433-1.643836S1.315068-2.132005 .986301-2.132005C.846824-2.132005 .498132-2.062267 .498132-1.603985C.498132-.747198 1.185554 .219178 2.30137 .219178C3.457036 .219178 4.473225-.737235 4.473225-2.002491Z'/>
<path id='g3-54' d='M1.315068-3.267746V-3.506849C1.315068-6.027397 2.550436-6.386052 3.058531-6.386052C3.297634-6.386052 3.716065-6.326276 3.935243-5.987547C3.785803-5.987547 3.387298-5.987547 3.387298-5.539228C3.387298-5.230386 3.626401-5.080946 3.845579-5.080946C4.004981-5.080946 4.303861-5.17061 4.303861-5.559153C4.303861-6.156912 3.865504-6.635118 3.038605-6.635118C1.763387-6.635118 .418431-5.349938 .418431-3.148194C.418431-.488169 1.574097 .219178 2.500623 .219178C3.606476 .219178 4.552927-.71731 4.552927-2.032379C4.552927-3.297634 3.666252-4.254047 2.560399-4.254047C1.882939-4.254047 1.514321-3.745953 1.315068-3.267746ZM2.500623-.059776C1.872976-.059776 1.574097-.657534 1.514321-.806974C1.334994-1.275218 1.334994-2.072229 1.334994-2.251557C1.334994-3.028643 1.653798-4.024907 2.550436-4.024907C2.709838-4.024907 3.16812-4.024907 3.476961-3.407223C3.656289-3.038605 3.656289-2.530511 3.656289-2.042341C3.656289-1.564134 3.656289-1.066002 3.486924-.707347C3.188045-.109589 2.729763-.059776 2.500623-.059776Z'/>
<path id='g3-55' d='M4.742217-6.067248C4.83188-6.1868 4.83188-6.206725 4.83188-6.41594H2.410959C1.195517-6.41594 1.175592-6.545455 1.135741-6.734745H.886675L.557908-4.682441H.806974C.836862-4.841843 .926526-5.469489 1.05604-5.589041C1.125778-5.648817 1.902864-5.648817 2.032379-5.648817H4.094645C3.985056-5.489415 3.198007-4.403487 2.978829-4.07472C2.082192-2.729763 1.753425-1.344956 1.753425-.328767C1.753425-.229141 1.753425 .219178 2.211706 .219178S2.669988-.229141 2.669988-.328767V-.836862C2.669988-1.384807 2.699875-1.932752 2.779577-2.470735C2.819427-2.699875 2.958904-3.556663 3.39726-4.174346L4.742217-6.067248Z'/>
<path id='g3-57' d='M3.656289-3.16812V-2.849315C3.656289-.518057 2.620174-.059776 2.042341-.059776C1.872976-.059776 1.334994-.079701 1.066002-.418431C1.504359-.418431 1.58406-.707347 1.58406-.876712C1.58406-1.185554 1.344956-1.334994 1.125778-1.334994C.966376-1.334994 .667497-1.24533 .667497-.856787C.667497-.18929 1.205479 .219178 2.052304 .219178C3.337484 .219178 4.552927-1.135741 4.552927-3.277709C4.552927-5.957659 3.407223-6.635118 2.520548-6.635118C1.972603-6.635118 1.484433-6.455791 1.05604-6.007472C.647572-5.559153 .418431-5.140722 .418431-4.393524C.418431-3.148194 1.295143-2.171856 2.410959-2.171856C3.01868-2.171856 3.427148-2.590286 3.656289-3.16812ZM2.420922-2.400996C2.261519-2.400996 1.803238-2.400996 1.494396-3.028643C1.315068-3.39726 1.315068-3.895392 1.315068-4.383562C1.315068-4.921544 1.315068-5.389788 1.524284-5.758406C1.793275-6.256538 2.171856-6.386052 2.520548-6.386052C2.978829-6.386052 3.307597-6.047323 3.476961-5.599004C3.596513-5.280199 3.636364-4.652553 3.636364-4.194271C3.636364-3.367372 3.297634-2.400996 2.420922-2.400996Z'/>
<path id='g3-61' d='M6.844334-3.257783C6.993773-3.257783 7.183064-3.257783 7.183064-3.457036S6.993773-3.656289 6.854296-3.656289H.886675C.747198-3.656289 .557908-3.656289 .557908-3.457036S.747198-3.257783 .896638-3.257783H6.844334ZM6.854296-1.325031C6.993773-1.325031 7.183064-1.325031 7.183064-1.524284S6.993773-1.723537 6.844334-1.723537H.896638C.747198-1.723537 .557908-1.723537 .557908-1.524284S.747198-1.325031 .886675-1.325031H6.854296Z'/>
<path id='g3-66' d='M2.211706-3.646326V-6.097136C2.211706-6.425903 2.231631-6.495641 2.699875-6.495641H3.935243C4.901619-6.495641 5.250311-5.648817 5.250311-5.120797C5.250311-4.483188 4.762142-3.646326 3.656289-3.646326H2.211706ZM4.562889-3.556663C5.529265-3.745953 6.216687-4.383562 6.216687-5.120797C6.216687-5.987547 5.300125-6.804483 4.004981-6.804483H.358655V-6.495641H.597758C1.364882-6.495641 1.384807-6.386052 1.384807-6.027397V-.777086C1.384807-.418431 1.364882-.308842 .597758-.308842H.358655V0H4.26401C5.589041 0 6.485679-.886675 6.485679-1.823163C6.485679-2.689913 5.668742-3.437111 4.562889-3.556663ZM3.945205-.308842H2.699875C2.231631-.308842 2.211706-.37858 2.211706-.707347V-3.427148H4.084682C5.070984-3.427148 5.489415-2.500623 5.489415-1.833126C5.489415-1.125778 4.971357-.308842 3.945205-.308842Z'/>
<path id='g3-70' d='M5.798257-6.774595H.328767V-6.465753H.56787C1.334994-6.465753 1.354919-6.356164 1.354919-5.997509V-.777086C1.354919-.418431 1.334994-.308842 .56787-.308842H.328767V0C.67746-.029888 1.454545-.029888 1.843088-.029888C2.251557-.029888 3.158157-.029888 3.516812 0V-.308842H3.188045C2.241594-.308842 2.241594-.438356 2.241594-.787049V-3.237858H3.098381C4.054795-3.237858 4.154421-2.919054 4.154421-2.072229H4.403487V-4.712329H4.154421C4.154421-3.875467 4.054795-3.5467 3.098381-3.5467H2.241594V-6.067248C2.241594-6.396015 2.261519-6.465753 2.729763-6.465753H3.92528C5.419676-6.465753 5.668742-5.907846 5.828144-4.533001H6.07721L5.798257-6.774595Z'/>
<path id='g3-76' d='M5.798257-2.570361H5.549191C5.439601-1.554172 5.300125-.308842 3.5467-.308842H2.729763C2.261519-.308842 2.241594-.37858 2.241594-.707347V-6.017435C2.241594-6.356164 2.241594-6.495641 3.188045-6.495641H3.516812V-6.804483C3.158157-6.774595 2.251557-6.774595 1.843088-6.774595C1.454545-6.774595 .67746-6.774595 .328767-6.804483V-6.495641H.56787C1.334994-6.495641 1.354919-6.386052 1.354919-6.027397V-.777086C1.354919-.418431 1.334994-.308842 .56787-.308842H.328767V0H5.519303L5.798257-2.570361Z'/>
<path id='g3-77' d='M2.400996-6.585305C2.311333-6.804483 2.281445-6.804483 2.052304-6.804483H.368618V-6.495641H.607721C1.374844-6.495641 1.39477-6.386052 1.39477-6.027397V-1.046077C1.39477-.777086 1.39477-.308842 .368618-.308842V0C.71731-.009963 1.205479-.029888 1.534247-.029888S2.351183-.009963 2.699875 0V-.308842C1.673724-.308842 1.673724-.777086 1.673724-1.046077V-6.41594H1.683686L4.084682-.219178C4.134496-.089664 4.184309 0 4.283935 0C4.393524 0 4.423412-.079701 4.463263-.18929L6.914072-6.495641H6.924035V-.777086C6.924035-.418431 6.90411-.308842 6.136986-.308842H5.897883V0C6.266501-.029888 6.94396-.029888 7.332503-.029888S8.388543-.029888 8.757161 0V-.308842H8.518057C7.750934-.308842 7.731009-.418431 7.731009-.777086V-6.027397C7.731009-6.386052 7.750934-6.495641 8.518057-6.495641H8.757161V-6.804483H7.073474C6.814446-6.804483 6.814446-6.794521 6.744707-6.615193L4.562889-1.006227L2.400996-6.585305Z'/>
<path id='g3-78' d='M2.311333-6.674969C2.221669-6.794521 2.211706-6.804483 2.022416-6.804483H.328767V-6.495641H.617684C.767123-6.495641 .966376-6.485679 1.115816-6.475716C1.344956-6.445828 1.354919-6.435866 1.354919-6.246575V-1.046077C1.354919-.777086 1.354919-.308842 .328767-.308842V0C.67746-.009963 1.165629-.029888 1.494396-.029888S2.311333-.009963 2.660025 0V-.308842C1.633873-.308842 1.633873-.777086 1.633873-1.046077V-6.22665C1.683686-6.176837 1.693649-6.166874 1.733499-6.107098L5.798257-.129514C5.88792-.009963 5.897883 0 5.967621 0C6.107098 0 6.107098-.069738 6.107098-.259029V-5.758406C6.107098-6.027397 6.107098-6.495641 7.13325-6.495641V-6.804483C6.784558-6.794521 6.296389-6.774595 5.967621-6.774595S5.150685-6.794521 4.801993-6.804483V-6.495641C5.828144-6.495641 5.828144-6.027397 5.828144-5.758406V-1.504359L2.311333-6.674969Z'/>
<path id='g3-80' d='M2.261519-3.148194H3.945205C5.140722-3.148194 6.216687-3.955168 6.216687-4.951432C6.216687-5.927771 5.230386-6.804483 3.865504-6.804483H.348692V-6.495641H.587796C1.354919-6.495641 1.374844-6.386052 1.374844-6.027397V-.777086C1.374844-.418431 1.354919-.308842 .587796-.308842H.348692V0C.697385-.029888 1.43462-.029888 1.8132-.029888S2.938979-.029888 3.287671 0V-.308842H3.048568C2.281445-.308842 2.261519-.418431 2.261519-.777086V-3.148194ZM2.231631-3.407223V-6.097136C2.231631-6.425903 2.251557-6.495641 2.719801-6.495641H3.606476C5.190535-6.495641 5.190535-5.439601 5.190535-4.951432C5.190535-4.483188 5.190535-3.407223 3.606476-3.407223H2.231631Z'/>
<path id='g3-83' d='M3.476961-3.865504L2.201743-4.174346C1.58406-4.323786 1.195517-4.861768 1.195517-5.439601C1.195517-6.136986 1.733499-6.744707 2.510585-6.744707C4.174346-6.744707 4.393524-5.110834 4.4533-4.662516C4.463263-4.60274 4.463263-4.542964 4.572852-4.542964C4.702366-4.542964 4.702366-4.592777 4.702366-4.782067V-6.784558C4.702366-6.953923 4.702366-7.023661 4.592777-7.023661C4.523039-7.023661 4.513076-7.013699 4.443337-6.894147L4.094645-6.326276C3.795766-6.615193 3.387298-7.023661 2.500623-7.023661C1.39477-7.023661 .557908-6.146949 .557908-5.090909C.557908-4.26401 1.085928-3.536737 1.863014-3.267746C1.972603-3.227895 2.480697-3.108344 3.178082-2.938979C3.447073-2.86924 3.745953-2.799502 4.024907-2.430884C4.234122-2.171856 4.333748-1.843088 4.333748-1.514321C4.333748-.806974 3.835616-.089664 2.998755-.089664C2.709838-.089664 1.952677-.139477 1.424658-.627646C.846824-1.165629 .816936-1.803238 .806974-2.161893C.797011-2.261519 .71731-2.261519 .687422-2.261519C.557908-2.261519 .557908-2.191781 .557908-2.012453V-.019925C.557908 .14944 .557908 .219178 .667497 .219178C.737235 .219178 .747198 .199253 .816936 .089664C.816936 .079701 .846824 .049813 1.175592-.478207C1.484433-.139477 2.122042 .219178 3.008717 .219178C4.174346 .219178 4.971357-.757161 4.971357-1.853051C4.971357-2.849315 4.313823-3.666252 3.476961-3.865504Z'/>
<path id='g3-84' d='M6.635118-6.744707H.547945L.358655-4.503113H.607721C.747198-6.107098 .896638-6.435866 2.400996-6.435866C2.580324-6.435866 2.839352-6.435866 2.938979-6.41594C3.148194-6.37609 3.148194-6.266501 3.148194-6.03736V-.787049C3.148194-.448319 3.148194-.308842 2.102117-.308842H1.703611V0C2.11208-.029888 3.128269-.029888 3.58655-.029888S5.070984-.029888 5.479452 0V-.308842H5.080946C4.034869-.308842 4.034869-.448319 4.034869-.787049V-6.03736C4.034869-6.236613 4.034869-6.37609 4.214197-6.41594C4.323786-6.435866 4.592777-6.435866 4.782067-6.435866C6.286426-6.435866 6.435866-6.107098 6.575342-4.503113H6.824408L6.635118-6.744707Z'/>
<path id='g3-91' d='M2.540473 2.49066V2.092154H1.574097V-7.073474H2.540473V-7.47198H1.175592V2.49066H2.540473Z'/>
<path id='g3-93' d='M1.58406-7.47198H.219178V-7.073474H1.185554V2.092154H.219178V2.49066H1.58406V-7.47198Z'/>
<path id='g3-97' d='M3.317559-.757161C3.35741-.358655 3.626401 .059776 4.094645 .059776C4.303861 .059776 4.911582-.079701 4.911582-.886675V-1.444583H4.662516V-.886675C4.662516-.308842 4.41345-.249066 4.303861-.249066C3.975093-.249066 3.935243-.697385 3.935243-.747198V-2.739726C3.935243-3.158157 3.935243-3.5467 3.576588-3.915318C3.188045-4.303861 2.689913-4.463263 2.211706-4.463263C1.39477-4.463263 .707347-3.995019 .707347-3.337484C.707347-3.038605 .9066-2.86924 1.165629-2.86924C1.444583-2.86924 1.62391-3.068493 1.62391-3.327522C1.62391-3.447073 1.574097-3.775841 1.115816-3.785803C1.384807-4.134496 1.872976-4.244085 2.191781-4.244085C2.67995-4.244085 3.247821-3.855542 3.247821-2.968867V-2.600249C2.739726-2.570361 2.042341-2.540473 1.414695-2.241594C.667497-1.902864 .418431-1.384807 .418431-.946451C.418431-.139477 1.384807 .109589 2.012453 .109589C2.669988 .109589 3.128269-.288917 3.317559-.757161ZM3.247821-2.391034V-1.39477C3.247821-.448319 2.530511-.109589 2.082192-.109589C1.594022-.109589 1.185554-.458281 1.185554-.956413C1.185554-1.504359 1.603985-2.331258 3.247821-2.391034Z'/>
<path id='g3-98' d='M1.713574-3.755915V-6.914072L.278954-6.804483V-6.495641C.976339-6.495641 1.05604-6.425903 1.05604-5.937733V0H1.305106C1.315068-.009963 1.39477-.14944 1.663761-.617684C1.8132-.388543 2.231631 .109589 2.968867 .109589C4.154421 .109589 5.190535-.86675 5.190535-2.15193C5.190535-3.417186 4.214197-4.403487 3.078456-4.403487C2.30137-4.403487 1.872976-3.935243 1.713574-3.755915ZM1.743462-1.135741V-3.188045C1.743462-3.377335 1.743462-3.387298 1.853051-3.5467C2.241594-4.104608 2.789539-4.184309 3.028643-4.184309C3.476961-4.184309 3.835616-3.92528 4.07472-3.5467C4.333748-3.138232 4.363636-2.570361 4.363636-2.161893C4.363636-1.793275 4.343711-1.195517 4.054795-.747198C3.845579-.438356 3.466999-.109589 2.929016-.109589C2.480697-.109589 2.122042-.348692 1.882939-.71731C1.743462-.926526 1.743462-.956413 1.743462-1.135741Z'/>
<path id='g3-99' d='M1.165629-2.171856C1.165629-3.795766 1.982565-4.214197 2.510585-4.214197C2.600249-4.214197 3.227895-4.204234 3.576588-3.845579C3.16812-3.815691 3.108344-3.516812 3.108344-3.387298C3.108344-3.128269 3.287671-2.929016 3.566625-2.929016C3.825654-2.929016 4.024907-3.098381 4.024907-3.39726C4.024907-4.07472 3.267746-4.463263 2.500623-4.463263C1.255293-4.463263 .33873-3.387298 .33873-2.15193C.33873-.876712 1.325031 .109589 2.480697 .109589C3.815691 .109589 4.134496-1.085928 4.134496-1.185554S4.034869-1.285181 4.004981-1.285181C3.915318-1.285181 3.895392-1.24533 3.875467-1.185554C3.58655-.259029 2.938979-.139477 2.570361-.139477C2.042341-.139477 1.165629-.56787 1.165629-2.171856Z'/>
<path id='g3-100' d='M3.785803-.547945V.109589L5.250311 0V-.308842C4.552927-.308842 4.473225-.37858 4.473225-.86675V-6.914072L3.038605-6.804483V-6.495641C3.73599-6.495641 3.815691-6.425903 3.815691-5.937733V-3.785803C3.526775-4.144458 3.098381-4.403487 2.560399-4.403487C1.384807-4.403487 .33873-3.427148 .33873-2.141968C.33873-.876712 1.315068 .109589 2.450809 .109589C3.088418 .109589 3.536737-.229141 3.785803-.547945ZM3.785803-3.217933V-1.175592C3.785803-.996264 3.785803-.976339 3.676214-.806974C3.377335-.328767 2.929016-.109589 2.500623-.109589C2.052304-.109589 1.693649-.368618 1.454545-.747198C1.195517-1.155666 1.165629-1.723537 1.165629-2.132005C1.165629-2.500623 1.185554-3.098381 1.474471-3.5467C1.683686-3.855542 2.062267-4.184309 2.600249-4.184309C2.948941-4.184309 3.367372-4.034869 3.676214-3.58655C3.785803-3.417186 3.785803-3.39726 3.785803-3.217933Z'/>
<path id='g3-101' d='M1.115816-2.510585C1.175592-3.995019 2.012453-4.244085 2.351183-4.244085C3.377335-4.244085 3.476961-2.899128 3.476961-2.510585H1.115816ZM1.105853-2.30137H3.88543C4.104608-2.30137 4.134496-2.30137 4.134496-2.510585C4.134496-3.496887 3.596513-4.463263 2.351183-4.463263C1.195517-4.463263 .278954-3.437111 .278954-2.191781C.278954-.856787 1.325031 .109589 2.470735 .109589C3.686177 .109589 4.134496-.996264 4.134496-1.185554C4.134496-1.285181 4.054795-1.305106 4.004981-1.305106C3.915318-1.305106 3.895392-1.24533 3.875467-1.165629C3.526775-.139477 2.630137-.139477 2.530511-.139477C2.032379-.139477 1.633873-.438356 1.404732-.806974C1.105853-1.285181 1.105853-1.942715 1.105853-2.30137Z'/>
<path id='g3-103' d='M2.211706-1.713574C1.344956-1.713574 1.344956-2.709838 1.344956-2.938979C1.344956-3.20797 1.354919-3.526775 1.504359-3.775841C1.58406-3.895392 1.8132-4.174346 2.211706-4.174346C3.078456-4.174346 3.078456-3.178082 3.078456-2.948941C3.078456-2.67995 3.068493-2.361146 2.919054-2.11208C2.839352-1.992528 2.610212-1.713574 2.211706-1.713574ZM1.05604-1.325031C1.05604-1.364882 1.05604-1.594022 1.225405-1.793275C1.613948-1.514321 2.022416-1.484433 2.211706-1.484433C3.138232-1.484433 3.825654-2.171856 3.825654-2.938979C3.825654-3.307597 3.666252-3.676214 3.417186-3.905355C3.775841-4.244085 4.134496-4.293898 4.313823-4.293898C4.333748-4.293898 4.383562-4.293898 4.41345-4.283935C4.303861-4.244085 4.254047-4.134496 4.254047-4.014944C4.254047-3.845579 4.383562-3.726027 4.542964-3.726027C4.64259-3.726027 4.83188-3.795766 4.83188-4.024907C4.83188-4.194271 4.712329-4.513076 4.323786-4.513076C4.124533-4.513076 3.686177-4.4533 3.267746-4.044832C2.849315-4.373599 2.430884-4.403487 2.211706-4.403487C1.285181-4.403487 .597758-3.716065 .597758-2.948941C.597758-2.510585 .816936-2.132005 1.066002-1.92279C.936488-1.77335 .757161-1.444583 .757161-1.09589C.757161-.787049 .886675-.408468 1.195517-.209215C.597758-.039851 .278954 .388543 .278954 .787049C.278954 1.504359 1.265255 2.052304 2.480697 2.052304C3.656289 2.052304 4.692403 1.544209 4.692403 .767123C4.692403 .418431 4.552927-.089664 4.044832-.368618C3.516812-.647572 2.938979-.647572 2.331258-.647572C2.082192-.647572 1.653798-.647572 1.58406-.657534C1.265255-.697385 1.05604-1.006227 1.05604-1.325031ZM2.49066 1.823163C1.484433 1.823163 .797011 1.315068 .797011 .787049C.797011 .328767 1.175592-.039851 1.613948-.069738H2.201743C3.058531-.069738 4.174346-.069738 4.174346 .787049C4.174346 1.325031 3.466999 1.823163 2.49066 1.823163Z'/>
<path id='g3-105' d='M1.763387-4.403487L.368618-4.293898V-3.985056C1.016189-3.985056 1.105853-3.92528 1.105853-3.437111V-.757161C1.105853-.308842 .996264-.308842 .328767-.308842V0C.647572-.009963 1.185554-.029888 1.424658-.029888C1.77335-.029888 2.122042-.009963 2.460772 0V-.308842C1.803238-.308842 1.763387-.358655 1.763387-.747198V-4.403487ZM1.803238-6.136986C1.803238-6.455791 1.554172-6.665006 1.275218-6.665006C.966376-6.665006 .747198-6.396015 .747198-6.136986C.747198-5.867995 .966376-5.608966 1.275218-5.608966C1.554172-5.608966 1.803238-5.818182 1.803238-6.136986Z'/>
<path id='g3-108' d='M1.763387-6.914072L.328767-6.804483V-6.495641C1.026152-6.495641 1.105853-6.425903 1.105853-5.937733V-.757161C1.105853-.308842 .996264-.308842 .328767-.308842V0C.657534-.009963 1.185554-.029888 1.43462-.029888S2.171856-.009963 2.540473 0V-.308842C1.872976-.308842 1.763387-.308842 1.763387-.757161V-6.914072Z'/>
<path id='g3-109' d='M1.09589-3.427148V-.757161C1.09589-.308842 .986301-.308842 .318804-.308842V0C.667497-.009963 1.175592-.029888 1.444583-.029888C1.703611-.029888 2.221669-.009963 2.560399 0V-.308842C1.892902-.308842 1.783313-.308842 1.783313-.757161V-2.590286C1.783313-3.626401 2.49066-4.184309 3.128269-4.184309C3.755915-4.184309 3.865504-3.646326 3.865504-3.078456V-.757161C3.865504-.308842 3.755915-.308842 3.088418-.308842V0C3.437111-.009963 3.945205-.029888 4.214197-.029888C4.473225-.029888 4.991283-.009963 5.330012 0V-.308842C4.662516-.308842 4.552927-.308842 4.552927-.757161V-2.590286C4.552927-3.626401 5.260274-4.184309 5.897883-4.184309C6.525529-4.184309 6.635118-3.646326 6.635118-3.078456V-.757161C6.635118-.308842 6.525529-.308842 5.858032-.308842V0C6.206725-.009963 6.714819-.029888 6.983811-.029888C7.242839-.029888 7.760897-.009963 8.099626 0V-.308842C7.581569-.308842 7.332503-.308842 7.32254-.607721V-2.510585C7.32254-3.367372 7.32254-3.676214 7.013699-4.034869C6.874222-4.204234 6.545455-4.403487 5.967621-4.403487C5.13076-4.403487 4.692403-3.805729 4.523039-3.427148C4.383562-4.293898 3.646326-4.403487 3.198007-4.403487C2.470735-4.403487 2.002491-3.975093 1.723537-3.35741V-4.403487L.318804-4.293898V-3.985056C1.016189-3.985056 1.09589-3.915318 1.09589-3.427148Z'/>
<path id='g3-111' d='M4.692403-2.132005C4.692403-3.407223 3.696139-4.463263 2.49066-4.463263C1.24533-4.463263 .278954-3.377335 .278954-2.132005C.278954-.846824 1.315068 .109589 2.480697 .109589C3.686177 .109589 4.692403-.86675 4.692403-2.132005ZM2.49066-.139477C2.062267-.139477 1.62391-.348692 1.354919-.806974C1.105853-1.24533 1.105853-1.853051 1.105853-2.211706C1.105853-2.600249 1.105853-3.138232 1.344956-3.576588C1.613948-4.034869 2.082192-4.244085 2.480697-4.244085C2.919054-4.244085 3.347447-4.024907 3.606476-3.596513S3.865504-2.590286 3.865504-2.211706C3.865504-1.853051 3.865504-1.315068 3.646326-.876712C3.427148-.428394 2.988792-.139477 2.49066-.139477Z'/>
<path id='g3-114' d='M1.663761-3.307597V-4.403487L.278954-4.293898V-3.985056C.976339-3.985056 1.05604-3.915318 1.05604-3.427148V-.757161C1.05604-.308842 .946451-.308842 .278954-.308842V0C.667497-.009963 1.135741-.029888 1.414695-.029888C1.8132-.029888 2.281445-.029888 2.67995 0V-.308842H2.470735C1.733499-.308842 1.713574-.418431 1.713574-.777086V-2.311333C1.713574-3.297634 2.132005-4.184309 2.889166-4.184309C2.958904-4.184309 2.978829-4.184309 2.998755-4.174346C2.968867-4.164384 2.769614-4.044832 2.769614-3.785803C2.769614-3.506849 2.978829-3.35741 3.198007-3.35741C3.377335-3.35741 3.626401-3.476961 3.626401-3.795766S3.317559-4.403487 2.889166-4.403487C2.161893-4.403487 1.803238-3.73599 1.663761-3.307597Z'/>
<path id='g3-115' d='M2.072229-1.932752C2.291407-1.892902 3.108344-1.733499 3.108344-1.016189C3.108344-.508095 2.759651-.109589 1.982565-.109589C1.145704-.109589 .787049-.67746 .597758-1.524284C.56787-1.653798 .557908-1.693649 .458281-1.693649C.328767-1.693649 .328767-1.62391 .328767-1.444583V-.129514C.328767 .039851 .328767 .109589 .438356 .109589C.488169 .109589 .498132 .099626 .687422-.089664C.707347-.109589 .707347-.129514 .886675-.318804C1.325031 .099626 1.77335 .109589 1.982565 .109589C3.128269 .109589 3.58655-.557908 3.58655-1.275218C3.58655-1.803238 3.287671-2.102117 3.16812-2.221669C2.839352-2.540473 2.450809-2.620174 2.032379-2.699875C1.474471-2.809465 .806974-2.938979 .806974-3.516812C.806974-3.865504 1.066002-4.273973 1.92279-4.273973C3.01868-4.273973 3.068493-3.377335 3.088418-3.068493C3.098381-2.978829 3.188045-2.978829 3.20797-2.978829C3.337484-2.978829 3.337484-3.028643 3.337484-3.217933V-4.224159C3.337484-4.393524 3.337484-4.463263 3.227895-4.463263C3.178082-4.463263 3.158157-4.463263 3.028643-4.343711C2.998755-4.303861 2.899128-4.214197 2.859278-4.184309C2.480697-4.463263 2.072229-4.463263 1.92279-4.463263C.707347-4.463263 .328767-3.795766 .328767-3.237858C.328767-2.889166 .488169-2.610212 .757161-2.391034C1.075965-2.132005 1.354919-2.072229 2.072229-1.932752Z'/>
<path id='g3-116' d='M1.723537-3.985056H3.148194V-4.293898H1.723537V-6.127024H1.474471C1.464508-5.310087 1.165629-4.244085 .18929-4.204234V-3.985056H1.036115V-1.235367C1.036115-.009963 1.96264 .109589 2.321295 .109589C3.028643 .109589 3.307597-.597758 3.307597-1.235367V-1.803238H3.058531V-1.255293C3.058531-.518057 2.759651-.139477 2.391034-.139477C1.723537-.139477 1.723537-1.046077 1.723537-1.215442V-3.985056Z'/>
<path id='g3-117' d='M3.895392-.787049V.109589L5.330012 0V-.308842C4.632628-.308842 4.552927-.37858 4.552927-.86675V-4.403487L3.088418-4.293898V-3.985056C3.785803-3.985056 3.865504-3.915318 3.865504-3.427148V-1.653798C3.865504-.787049 3.387298-.109589 2.660025-.109589C1.823163-.109589 1.783313-.577833 1.783313-1.09589V-4.403487L.318804-4.293898V-3.985056C1.09589-3.985056 1.09589-3.955168 1.09589-3.068493V-1.574097C1.09589-.797011 1.09589 .109589 2.610212 .109589C3.16812 .109589 3.606476-.169365 3.895392-.787049Z'/>
<path id='g3-121' d='M4.134496-3.347447C4.393524-3.975093 4.901619-3.985056 5.061021-3.985056V-4.293898C4.83188-4.273973 4.542964-4.26401 4.313823-4.26401C4.134496-4.26401 3.666252-4.283935 3.447073-4.293898V-3.985056C3.755915-3.975093 3.915318-3.805729 3.915318-3.556663C3.915318-3.457036 3.905355-3.437111 3.855542-3.317559L2.849315-.86675L1.743462-3.5467C1.703611-3.646326 1.683686-3.686177 1.683686-3.726027C1.683686-3.985056 2.052304-3.985056 2.241594-3.985056V-4.293898C1.982565-4.283935 1.325031-4.26401 1.155666-4.26401C.886675-4.26401 .488169-4.273973 .18929-4.293898V-3.985056C.667497-3.985056 .856787-3.985056 .996264-3.636364L2.49066 0C2.440847 .129514 2.30137 .458281 2.241594 .587796C2.022416 1.135741 1.743462 1.823163 1.105853 1.823163C1.05604 1.823163 .826899 1.823163 .637609 1.643836C.946451 1.603985 1.026152 1.384807 1.026152 1.225405C1.026152 .966376 .836862 .806974 .607721 .806974C.408468 .806974 .18929 .936488 .18929 1.235367C.18929 1.683686 .607721 2.042341 1.105853 2.042341C1.733499 2.042341 2.141968 1.474471 2.381071 .9066L4.134496-3.347447Z'/>
<path id='g2-81' d='M3.242839 .418431C3.242839 .871731 3.333499 1.352927 3.905355 1.352927C4.749191 1.352927 5.153674 .153425 5.153674 0C5.153674-.048817 5.111831-.097634 5.05604-.097634C4.986301-.097634 4.96538-.034869 4.958406-.006974C4.791034 .481196 4.33076 .620672 4.093649 .620672C3.814695 .620672 3.668244 .502117 3.542715-.055791C4.78406-.495143 5.78132-1.729514 5.78132-2.963885C5.78132-4.05878 4.993275-4.902615 3.758904-4.902615C2.092154-4.902615 .481196-3.340473 .481196-1.771357C.481196-.648568 1.311083 .139477 2.510585 .139477C2.643088 .139477 2.880199 .132503 3.242839 .041843V.418431ZM2.036364-.174346C1.673724-.299875 1.157659-.662516 1.157659-1.597011C1.157659-2.043337 1.30411-2.970859 1.93873-3.758904C2.378082-4.29589 3.054545-4.679452 3.703113-4.679452C4.463263-4.679452 5.104857-4.170361 5.104857-3.152179C5.104857-2.454795 4.763138-.955417 3.486924-.320797C3.375342-.760149 3.194022-1.053051 2.782565-1.053051C2.39203-1.053051 2.008468-.72528 2.008468-.355666C2.008468-.230137 2.015442-.223163 2.036364-.174346ZM3.242839-.209215C3.089415-.153425 2.831382-.083686 2.559402-.083686C2.447821-.083686 2.203736-.083686 2.203736-.355666C2.203736-.620672 2.489664-.857783 2.782565-.857783C3.033624-.857783 3.221918-.746202 3.242839-.209215Z'/>
<path id='g0-12' d='M3.92528-3.955168C4.164384-3.955168 4.224159-3.955168 4.224159-3.606476V-.468244H3.536737V0C3.855542-.009963 4.333748-.029888 4.762142-.029888S5.648817-.009963 5.987547 0V-.468244H5.300125V-4.523039L3.5467-4.463263C3.536737-4.4533 3.536737-4.443337 3.536737-4.423412H2.072229V-5.399751C2.072229-6.236613 2.749689-6.615193 3.666252-6.615193C3.955168-6.615193 4.164384-6.56538 4.393524-6.435866C4.224159-6.37609 3.955168-6.206725 3.955168-5.808219C3.955168-5.419676 4.244085-5.160648 4.60274-5.160648C4.971357-5.160648 5.260274-5.409714 5.260274-5.818182C5.260274-6.336239 4.821918-6.973848 3.726027-6.973848C2.49066-6.973848 1.05604-6.585305 1.05604-5.419676V-4.423412H.308842V-3.955168H1.05604V-.468244H.368618V0C.687422-.009963 1.165629-.029888 1.594022-.029888S2.480697-.009963 2.819427 0V-.468244H2.132005V-3.955168H3.92528Z'/>
<path id='g0-46' d='M2.361146-.777086C2.361146-1.205479 2.012453-1.554172 1.58406-1.554172S.806974-1.205479 .806974-.777086S1.155666 0 1.58406 0S2.361146-.348692 2.361146-.777086Z'/>
<path id='g0-48' d='M5.270237-3.178082C5.270237-4.144458 5.260274-6.525529 2.859278-6.525529S.448319-4.154421 .448319-3.178082C.448319-2.191781 .458281 .109589 2.859278 .109589C5.250311 .109589 5.270237-2.181818 5.270237-3.178082ZM2.859278-.249066C2.500623-.249066 1.942715-.468244 1.8132-1.195517C1.723537-1.713574 1.723537-2.749689 1.723537-3.297634C1.723537-4.014944 1.723537-4.662516 1.803238-5.180573C1.92279-6.067248 2.620174-6.166874 2.859278-6.166874C3.227895-6.166874 3.636364-5.977584 3.825654-5.539228C3.995019-5.17061 3.995019-4.11457 3.995019-3.297634C3.995019-2.739726 3.995019-1.833126 3.92528-1.315068C3.785803-.388543 3.158157-.249066 2.859278-.249066Z'/>
<path id='g0-49' d='M3.526775-6.206725C3.526775-6.425903 3.526775-6.525529 3.267746-6.525529C3.158157-6.525529 3.138232-6.525529 3.048568-6.455791C2.281445-5.88792 1.255293-5.88792 1.046077-5.88792H.846824V-5.419676H1.046077C1.205479-5.419676 1.753425-5.429639 2.34122-5.618929V-.468244H.956413V0C1.39477-.029888 2.450809-.029888 2.938979-.029888S4.483188-.029888 4.921544 0V-.468244H3.526775V-6.206725Z'/>
<path id='g0-50' d='M5.150685-2.211706H4.682441C4.652553-2.012453 4.562889-1.374844 4.423412-1.305106C4.313823-1.24533 3.566625-1.24533 3.407223-1.24533H1.942715C2.410959-1.633873 2.929016-2.062267 3.377335-2.391034C4.513076-3.227895 5.150685-3.696139 5.150685-4.64259C5.150685-5.788294 4.11457-6.525529 2.709838-6.525529C1.504359-6.525529 .56787-5.907846 .56787-5.011208C.56787-4.423412 1.046077-4.273973 1.285181-4.273973C1.603985-4.273973 2.002491-4.493151 2.002491-4.991283C2.002491-5.50934 1.58406-5.668742 1.43462-5.708593C1.723537-5.947696 2.102117-6.057285 2.460772-6.057285C3.317559-6.057285 3.775841-5.379826 3.775841-4.632628C3.775841-3.945205 3.39726-3.267746 2.699875-2.560399L.697385-.518057C.56787-.398506 .56787-.37858 .56787-.179328V0H4.841843L5.150685-2.211706Z'/>
<path id='g0-51' d='M3.506849-3.506849C4.194271-3.716065 4.921544-4.283935 4.921544-5.140722C4.921544-5.907846 4.164384-6.525529 2.759651-6.525529C1.574097-6.525529 .797011-5.88792 .797011-5.090909C.797011-4.662516 1.105853-4.393524 1.484433-4.393524C1.932752-4.393524 2.181818-4.712329 2.181818-5.080946C2.181818-5.65878 1.643836-5.768369 1.603985-5.778331C1.952677-6.057285 2.391034-6.136986 2.699875-6.136986C3.526775-6.136986 3.556663-5.499377 3.556663-5.17061C3.556663-5.041096 3.5467-3.73599 2.510585-3.676214C2.102117-3.656289 2.082192-3.646326 2.032379-3.636364C1.932752-3.626401 1.912827-3.526775 1.912827-3.466999C1.912827-3.287671 2.012453-3.287671 2.191781-3.287671H2.630137C3.716065-3.287671 3.716065-2.311333 3.716065-1.803238C3.716065-1.334994 3.716065-.318804 2.67995-.318804C2.420922-.318804 1.902864-.358655 1.424658-.657534C1.753425-.747198 2.002491-.996264 2.002491-1.404732C2.002491-1.853051 1.683686-2.161893 1.24533-2.161893C.826899-2.161893 .478207-1.892902 .478207-1.384807C.478207-.488169 1.444583 .109589 2.729763 .109589C4.513076 .109589 5.240349-.886675 5.240349-1.793275C5.240349-2.34122 4.951432-3.198007 3.506849-3.506849Z'/>
<path id='g0-52' d='M4.433375-1.554172H5.399751V-2.022416H4.433375V-6.216687C4.433375-6.485679 4.41345-6.535492 4.134496-6.535492C3.92528-6.535492 3.915318-6.525529 3.795766-6.37609L.318804-2.022416V-1.554172H3.188045V-.468244H2.072229V0C2.450809-.029888 3.35741-.029888 3.785803-.029888C4.184309-.029888 5.051059-.029888 5.399751 0V-.468244H4.433375V-1.554172ZM3.297634-2.022416H.836862L3.297634-5.110834V-2.022416Z'/>
<path id='g0-53' d='M5.150685-2.002491C5.150685-3.148194 4.363636-4.07472 2.889166-4.07472C2.600249-4.07472 2.072229-4.044832 1.603985-3.726027V-5.041096C1.882939-4.991283 1.992528-4.971357 2.331258-4.971357C3.785803-4.971357 4.702366-6.097136 4.702366-6.346202C4.702366-6.41594 4.682441-6.525529 4.562889-6.525529C4.533001-6.525529 4.523039-6.525529 4.41345-6.485679C3.845579-6.266501 3.317559-6.206725 2.889166-6.206725C2.132005-6.206725 1.603985-6.396015 1.344956-6.485679C1.255293-6.515567 1.24533-6.525529 1.215442-6.525529C1.075965-6.525529 1.075965-6.41594 1.075965-6.256538V-3.347447C1.075965-3.16812 1.075965-3.038605 1.295143-3.038605C1.424658-3.038605 1.444583-3.078456 1.514321-3.158157C1.902864-3.616438 2.440847-3.716065 2.849315-3.716065C3.73599-3.716065 3.73599-2.839352 3.73599-2.042341C3.73599-1.315068 3.73599-.318804 2.540473-.318804C2.30137-.318804 1.673724-.368618 1.255293-.936488C1.613948-.956413 1.902864-1.195517 1.902864-1.603985C1.902864-2.132005 1.474471-2.281445 1.235367-2.281445C1.085928-2.281445 .56787-2.191781 .56787-1.58406C.56787-.737235 1.344956 .109589 2.580324 .109589C4.174346 .109589 5.150685-.787049 5.150685-2.002491Z'/>
<path id='g0-54' d='M1.833126-3.407223V-3.596513C1.833126-4.732254 2.042341-5.160648 2.11208-5.310087C2.351183-5.778331 2.889166-6.136986 3.496887-6.136986C3.676214-6.136986 4.014944-6.107098 4.244085-5.877958C3.88543-5.828144 3.706102-5.559153 3.706102-5.260274C3.706102-4.921544 3.935243-4.64259 4.323786-4.64259S4.951432-4.901619 4.951432-5.280199C4.951432-5.897883 4.533001-6.525529 3.476961-6.525529C2.122042-6.525529 .478207-5.668742 .478207-3.158157C.478207-2.371108 .56787-1.574097 .976339-.886675C1.444583-.129514 2.201743 .109589 2.899128 .109589C4.283935 .109589 5.240349-.707347 5.240349-2.042341C5.240349-3.437111 4.234122-4.164384 3.028643-4.164384C2.809465-4.164384 2.251557-4.164384 1.833126-3.407223ZM2.879203-.318804C2.361146-.318804 2.092154-.707347 2.012453-.86675C1.853051-1.185554 1.853051-1.912827 1.853051-2.092154C1.853051-3.337484 2.391034-3.805729 2.938979-3.805729C3.88543-3.805729 3.88543-3.058531 3.88543-2.062267C3.88543-1.05604 3.88543-.318804 2.879203-.318804Z'/>
<path id='g0-55' d='M5.459527-5.937733C5.559153-6.047323 5.559153-6.067248 5.559153-6.41594H3.526775C3.297634-6.41594 1.833126-6.465753 1.693649-6.505604C1.484433-6.545455 1.474471-6.635118 1.454545-6.734745H.986301L.637609-4.204234H1.105853C1.205479-4.961395 1.334994-5.090909 1.374844-5.110834C1.484433-5.17061 2.291407-5.17061 2.460772-5.17061H4.144458L3.596513-4.523039C2.6401-3.407223 1.92279-2.062267 1.92279-.587796C1.92279 .109589 2.480697 .109589 2.540473 .109589C2.699875 .109589 3.16812 .059776 3.16812-.597758V-1.05604C3.16812-1.534247 3.198007-2.012453 3.267746-2.480697C3.35741-3.148194 3.566625-3.73599 3.915318-4.144458L5.459527-5.937733Z'/>
<path id='g0-56' d='M1.982565-4.772105C1.823163-4.861768 1.544209-5.031133 1.544209-5.369863C1.544209-6.067248 2.440847-6.136986 2.839352-6.136986C3.676214-6.136986 4.174346-5.728518 4.174346-5.051059C4.174346-4.562889 3.915318-4.224159 3.476961-3.935243L1.982565-4.772105ZM3.915318-3.686177C4.612702-4.044832 4.921544-4.483188 4.921544-5.061021C4.921544-6.07721 4.014944-6.525529 2.879203-6.525529C1.494396-6.525529 .797011-5.738481 .797011-4.782067C.797011-4.343711 .976339-3.716065 1.753425-3.277709C.916563-2.909091 .478207-2.34122 .478207-1.603985C.478207-.398506 1.554172 .109589 2.839352 .109589C4.433375 .109589 5.240349-.767123 5.240349-1.863014C5.240349-2.938979 4.403487-3.407223 3.915318-3.686177ZM2.211706-3.008717C2.560399-2.82939 3.028643-2.560399 3.576588-2.251557C4.014944-2.002491 4.383562-1.793275 4.383562-1.315068C4.383562-.478207 3.447073-.318804 2.879203-.318804C1.902864-.318804 1.334994-.826899 1.334994-1.603985S1.863014-2.809465 2.211706-3.008717Z'/>
<path id='g0-57' d='M3.88543-3.028643V-2.809465C3.88543-2.082192 3.795766-1.494396 3.646326-1.155666C3.476961-.767123 3.048568-.318804 2.361146-.318804C2.181818-.318804 1.823163-.33873 1.524284-.537983C1.643836-.56787 2.012453-.707347 2.012453-1.155666C2.012453-1.494396 1.783313-1.77335 1.39477-1.77335S.767123-1.514321 .767123-1.135741C.767123-.458281 1.275218 .109589 2.381071 .109589C3.676214 .109589 5.240349-.727273 5.240349-3.277709C5.240349-3.945205 5.240349-6.525529 2.879203-6.525529C1.464508-6.525529 .478207-5.718555 .478207-4.383562C.478207-3.008717 1.464508-2.261519 2.689913-2.261519C3.038605-2.261519 3.506849-2.331258 3.88543-3.028643ZM2.779577-2.620174C1.833126-2.620174 1.833126-3.367372 1.833126-4.363636C1.833126-5.339975 1.833126-6.136986 2.899128-6.136986C3.486924-6.136986 3.716065-5.608966 3.755915-5.50934C3.875467-5.180573 3.875467-4.60274 3.875467-4.26401C3.875467-3.636364 3.616438-2.620174 2.779577-2.620174Z'/>
<path id='g0-65' d='M4.722291-6.694894C4.612702-6.953923 4.493151-6.953923 4.323786-6.953923C4.044832-6.953923 4.004981-6.874222 3.935243-6.694894L1.464508-.697385C1.404732-.547945 1.374844-.468244 .617684-.468244H.408468V0C.787049-.009963 1.265255-.029888 1.574097-.029888C1.96264-.029888 2.520548-.029888 2.889166 0V-.468244C2.86924-.468244 2.002491-.468244 2.002491-.597758C2.002491-.607721 2.032379-.707347 2.042341-.71731L2.540473-1.92279H5.210461L5.808219-.468244H4.861768V0C5.240349-.029888 6.1868-.029888 6.615193-.029888C7.013699-.029888 7.890411-.029888 8.239103 0V-.468244H7.272727L4.722291-6.694894ZM3.875467-5.160648L5.011208-2.391034H2.739726L3.875467-5.160648Z'/>
<path id='g0-67' d='M7.631382-6.665006C7.631382-6.854296 7.631382-6.94396 7.452055-6.94396C7.362391-6.94396 7.342466-6.924035 7.262765-6.854296L6.60523-6.266501C5.987547-6.764633 5.32005-6.94396 4.64259-6.94396C2.161893-6.94396 .637609-5.459527 .637609-3.417186S2.161893 .109589 4.64259 .109589C6.505604 .109589 7.631382-1.115816 7.631382-2.261519C7.631382-2.460772 7.561644-2.470735 7.392279-2.470735C7.262765-2.470735 7.173101-2.470735 7.163138-2.30137C7.0934-.966376 5.88792-.358655 4.881694-.358655C4.104608-.358655 3.267746-.597758 2.749689-1.205479C2.281445-1.77335 2.161893-2.520548 2.161893-3.417186C2.161893-3.975093 2.191781-5.051059 2.819427-5.708593C3.466999-6.366127 4.333748-6.475716 4.851806-6.475716C5.927771-6.475716 6.874222-5.718555 7.0934-4.4533C7.123288-4.26401 7.13325-4.244085 7.362391-4.244085C7.62142-4.244085 7.631382-4.26401 7.631382-4.523039V-6.665006Z'/>
<path id='g0-70' d='M6.41594-6.774595H.388543V-6.306351H1.464508V-.468244H.388543V0C.767123-.029888 1.77335-.029888 2.211706-.029888C2.699875-.029888 3.785803-.029888 4.224159 0V-.468244H2.879203V-3.158157H3.377335C4.333748-3.158157 4.423412-2.729763 4.423412-1.992528H4.891656V-4.79203H4.423412C4.423412-4.054795 4.343711-3.626401 3.377335-3.626401H2.879203V-6.306351H4.273973C5.877958-6.306351 6.107098-5.539228 6.256538-4.373599H6.724782L6.41594-6.774595Z'/>
<path id='g0-77' d='M5.439601-1.315068L3.048568-6.585305C2.938979-6.834371 2.82939-6.834371 2.610212-6.834371H.398506V-6.366127H1.474471V-.757161C1.474471-.537983 1.464508-.52802 1.185554-.498132C.946451-.468244 .926526-.468244 .647572-.468244H.398506V0C.777086-.029888 1.344956-.029888 1.733499-.029888C2.15193-.029888 2.669988-.029888 3.078456 0V-.468244H2.82939C2.650062-.468244 2.480697-.478207 2.30137-.498132C2.012453-.52802 2.002491-.537983 2.002491-.757161V-6.236613H2.012453L4.722291-.249066C4.811955-.049813 4.931507 0 5.041096 0C5.240349 0 5.32005-.14944 5.3599-.239103L8.139477-6.366127H8.14944V-.468244H7.073474V0C7.43213-.029888 8.358655-.029888 8.767123-.029888S10.11208-.029888 10.470735 0V-.468244H9.39477V-6.366127H10.470735V-6.834371H8.268991C8.049813-6.834371 7.940224-6.834371 7.830635-6.585305L5.439601-1.315068Z'/>
<path id='g0-79' d='M7.960149-3.377335C7.960149-5.529265 6.515567-6.94396 4.303861-6.94396C2.022416-6.94396 .637609-5.469489 .637609-3.377335C.637609-1.315068 2.032379 .109589 4.293898 .109589C6.585305 .109589 7.960149-1.334994 7.960149-3.377335ZM4.293898-.308842C3.706102-.308842 2.978829-.587796 2.570361-1.344956C2.241594-1.96264 2.161893-2.669988 2.161893-3.526775C2.161893-4.164384 2.191781-5.011208 2.630137-5.688667C3.038605-6.296389 3.706102-6.545455 4.293898-6.545455C4.931507-6.545455 5.618929-6.266501 6.017435-5.608966C6.396015-4.971357 6.435866-4.204234 6.435866-3.526775C6.435866-2.82939 6.396015-1.942715 5.977584-1.255293C5.529265-.52802 4.83188-.308842 4.293898-.308842Z'/>
<path id='g0-80' d='M2.879203-3.008717H4.64259C6.027397-3.008717 7.183064-3.726027 7.183064-4.891656C7.183064-5.987547 6.196762-6.834371 4.542964-6.834371H.388543V-6.366127H1.464508V-.468244H.388543V0C.767123-.029888 1.743462-.029888 2.171856-.029888S3.576588-.029888 3.955168 0V-.468244H2.879203V-3.008717ZM4.154421-3.417186H2.819427V-6.366127H4.164384C5.65878-6.366127 5.65878-5.608966 5.65878-4.891656C5.65878-4.184309 5.65878-3.417186 4.154421-3.417186Z'/>
<path id='g0-82' d='M2.819427-3.596513V-6.366127H3.995019C5.599004-6.366127 5.618929-5.589041 5.618929-4.98132C5.618929-4.423412 5.618929-3.596513 3.975093-3.596513H2.819427ZM5.479452-3.387298C6.635118-3.686177 7.143213-4.333748 7.143213-4.991283C7.143213-5.997509 6.047323-6.834371 4.174346-6.834371H.388543V-6.366127H1.464508V-.468244H.388543V0C.747198-.029888 1.723537-.029888 2.141968-.029888S3.536737-.029888 3.895392 0V-.468244H2.819427V-3.237858H3.985056C4.124533-3.237858 4.562889-3.237858 4.871731-2.899128C5.190535-2.550436 5.190535-2.361146 5.190535-1.633873C5.190535-.976339 5.190535-.488169 5.88792-.14944C6.326276 .069738 6.94396 .109589 7.352428 .109589C8.418431 .109589 8.547945-.787049 8.547945-.946451C8.547945-1.165629 8.408468-1.165629 8.308842-1.165629C8.099626-1.165629 8.089664-1.066002 8.079701-.936488C8.029888-.468244 7.740971-.249066 7.442092-.249066C6.844334-.249066 6.75467-.956413 6.704857-1.374844C6.684932-1.484433 6.60523-2.171856 6.595268-2.221669C6.455791-2.919054 5.907846-3.227895 5.479452-3.387298Z'/>
<path id='g0-84' d='M7.332503-6.724782H.627646L.418431-4.323786H.886675C.976339-5.449564 1.075965-6.256538 2.510585-6.256538H3.277709V-.468244H1.753425V0C2.291407-.029888 3.39726-.029888 3.985056-.029888S5.678705-.029888 6.216687 0V-.468244H4.692403V-6.256538H5.449564C6.874222-6.256538 6.973848-5.459527 7.073474-4.323786H7.541719L7.332503-6.724782Z'/>
<path id='g0-85' d='M7.342466-6.07721C7.342466-6.296389 7.352428-6.306351 7.631382-6.336239C7.870486-6.366127 7.890411-6.366127 8.169365-6.366127H8.418431V-6.834371C8.039851-6.804483 7.47198-6.804483 7.083437-6.804483C6.665006-6.804483 6.146949-6.804483 5.738481-6.834371V-6.366127H5.987547C6.166874-6.366127 6.336239-6.356164 6.515567-6.336239C6.804483-6.306351 6.814446-6.296389 6.814446-6.07721V-2.321295C6.814446-.846824 5.728518-.358655 4.64259-.358655C2.899128-.358655 2.879203-1.663761 2.879203-2.221669V-6.366127H3.955168V-6.834371C3.576588-6.804483 2.600249-6.804483 2.171856-6.804483S.767123-6.804483 .388543-6.834371V-6.366127H1.464508V-2.30137C1.464508-.976339 2.540473 .109589 4.60274 .109589C6.495641 .109589 7.342466-1.05604 7.342466-2.281445V-6.07721Z'/>
<path id='g0-97' d='M3.726027-.767123C3.726027-.458281 3.726027 0 4.762142 0H5.240349C5.439601 0 5.559153 0 5.559153-.239103C5.559153-.468244 5.429639-.468244 5.300125-.468244C4.692403-.478207 4.692403-.607721 4.692403-.836862V-2.978829C4.692403-3.865504 3.985056-4.513076 2.500623-4.513076C1.932752-4.513076 .71731-4.473225 .71731-3.596513C.71731-3.158157 1.066002-2.968867 1.334994-2.968867C1.643836-2.968867 1.96264-3.178082 1.96264-3.596513C1.96264-3.895392 1.77335-4.064757 1.743462-4.084682C2.022416-4.144458 2.34122-4.154421 2.460772-4.154421C3.20797-4.154421 3.556663-3.73599 3.556663-2.978829V-2.6401C2.849315-2.610212 .318804-2.520548 .318804-1.075965C.318804-.119552 1.554172 .059776 2.241594 .059776C3.038605 .059776 3.506849-.348692 3.726027-.767123ZM3.556663-2.331258V-1.384807C3.556663-.428394 2.6401-.298879 2.391034-.298879C1.882939-.298879 1.484433-.647572 1.484433-1.085928C1.484433-2.161893 3.058531-2.30137 3.556663-2.331258Z'/>
<path id='g0-98' d='M2.132005-3.995019V-6.914072L.368618-6.834371V-6.366127C.986301-6.366127 1.05604-6.366127 1.05604-5.977584V0H1.524284L2.012453-.557908C2.092154-.478207 2.580324 .059776 3.466999 .059776C4.951432 .059776 5.977584-.836862 5.977584-2.221669C5.977584-3.5467 5.041096-4.483188 3.596513-4.483188C2.86924-4.483188 2.371108-4.194271 2.132005-3.995019ZM2.191781-.986301V-3.486924C2.460772-3.835616 2.938979-4.124533 3.486924-4.124533C4.702366-4.124533 4.702366-2.919054 4.702366-2.221669C4.702366-1.753425 4.702366-1.205479 4.443337-.816936C4.154421-.408468 3.696139-.298879 3.377335-.298879C2.67995-.298879 2.291407-.836862 2.191781-.986301Z'/>
<path id='g0-99' d='M3.58655-4.054795C3.407223-3.895392 3.387298-3.686177 3.387298-3.596513C3.387298-3.158157 3.73599-2.968867 4.004981-2.968867C4.313823-2.968867 4.632628-3.178082 4.632628-3.596513C4.632628-4.4533 3.476961-4.513076 2.899128-4.513076C1.115816-4.513076 .37858-3.367372 .37858-2.211706C.37858-.886675 1.315068 .059776 2.849315 .059776C4.463263 .059776 4.762142-1.09589 4.762142-1.165629C4.762142-1.305106 4.622665-1.305106 4.523039-1.305106C4.343711-1.305106 4.333748-1.285181 4.283935-1.155666C4.024907-.52802 3.5467-.33873 3.038605-.33873C1.653798-.33873 1.653798-1.803238 1.653798-2.261519C1.653798-2.819427 1.653798-4.11457 2.938979-4.11457C3.287671-4.11457 3.457036-4.084682 3.58655-4.054795Z'/>
<path id='g0-100' d='M4.164384-.428394V.059776L5.987547 0V-.468244C5.369863-.468244 5.300125-.468244 5.300125-.856787V-6.914072L3.536737-6.834371V-6.366127C4.154421-6.366127 4.224159-6.366127 4.224159-5.977584V-4.034869C3.726027-4.423412 3.20797-4.483188 2.879203-4.483188C1.424658-4.483188 .37858-3.606476 .37858-2.201743C.37858-.886675 1.295143 .059776 2.769614 .059776C3.377335 .059776 3.855542-.179328 4.164384-.428394ZM4.164384-3.516812V-1.026152C4.034869-.846824 3.626401-.298879 2.86924-.298879C1.653798-.298879 1.653798-1.504359 1.653798-2.201743C1.653798-2.67995 1.653798-3.217933 1.912827-3.606476C2.201743-4.024907 2.669988-4.124533 2.978829-4.124533C3.5467-4.124533 3.945205-3.805729 4.164384-3.516812Z'/>
<path id='g0-101' d='M4.60274-2.171856C4.821918-2.171856 4.921544-2.171856 4.921544-2.440847C4.921544-2.749689 4.861768-3.476961 4.363636-3.975093C3.995019-4.333748 3.466999-4.513076 2.779577-4.513076C1.185554-4.513076 .318804-3.486924 .318804-2.241594C.318804-.9066 1.315068 .059776 2.919054 .059776C4.493151 .059776 4.921544-.996264 4.921544-1.165629C4.921544-1.344956 4.732254-1.344956 4.682441-1.344956C4.513076-1.344956 4.493151-1.295143 4.433375-1.135741C4.224159-.657534 3.656289-.33873 3.008717-.33873C1.603985-.33873 1.594022-1.663761 1.594022-2.171856H4.60274ZM1.594022-2.500623C1.613948-2.889166 1.62391-3.307597 1.833126-3.636364C2.092154-4.034869 2.49066-4.154421 2.779577-4.154421C3.945205-4.154421 3.965131-2.849315 3.975093-2.500623H1.594022Z'/>
<path id='g0-103' d='M2.540473-1.892902C1.663761-1.892902 1.663761-2.560399 1.663761-3.008717S1.663761-4.124533 2.540473-4.124533S3.417186-3.457036 3.417186-3.008717S3.417186-1.892902 2.540473-1.892902ZM1.325031-1.793275C1.783313-1.554172 2.291407-1.534247 2.540473-1.534247C3.975093-1.534247 4.523039-2.311333 4.523039-3.008717C4.523039-3.476961 4.273973-3.805729 4.124533-3.965131C4.423412-4.124533 4.632628-4.144458 4.742217-4.154421C4.722291-4.104608 4.702366-4.014944 4.702366-3.955168C4.702366-3.706102 4.871731-3.526775 5.13076-3.526775S5.559153-3.716065 5.559153-3.955168C5.559153-4.184309 5.389788-4.533001 4.931507-4.533001C4.782067-4.533001 4.313823-4.503113 3.875467-4.154421C3.696139-4.273973 3.277709-4.483188 2.540473-4.483188C1.105853-4.483188 .557908-3.706102 .557908-3.008717C.557908-2.600249 .757161-2.191781 1.075965-1.96264C.797011-1.613948 .737235-1.285181 .737235-1.075965C.737235-.926526 .777086-.438356 1.175592-.119552C1.046077-.089664 .318804 .119552 .318804 .747198C.318804 1.255293 .86675 2.002491 2.859278 2.002491C4.622665 2.002491 5.399751 1.414695 5.399751 .71731C5.399751 .418431 5.32005-.209215 4.652553-.547945C4.094645-.826899 3.496887-.826899 2.540473-.826899C2.281445-.826899 1.823163-.826899 1.77335-.836862C1.334994-.9066 1.225405-1.285181 1.225405-1.464508C1.225405-1.564134 1.265255-1.713574 1.325031-1.793275ZM1.942715 .129514H3.108344C3.417186 .129514 4.542964 .129514 4.542964 .747198C4.542964 1.105853 4.154421 1.643836 2.859278 1.643836C1.663761 1.643836 1.175592 1.185554 1.175592 .727273C1.175592 .129514 1.803238 .129514 1.942715 .129514Z'/>
<path id='g0-104' d='M1.135741-.468244H.448319V0C.727273-.009963 1.325031-.029888 1.703611-.029888C2.092154-.029888 2.67995-.009963 2.958904 0V-.468244H2.271482V-2.550436C2.271482-3.636364 3.128269-4.124533 3.755915-4.124533C4.094645-4.124533 4.303861-3.915318 4.303861-3.158157V-.468244H3.616438V0C3.895392-.009963 4.493151-.029888 4.871731-.029888C5.260274-.029888 5.84807-.009963 6.127024 0V-.468244H5.439601V-3.048568C5.439601-4.094645 4.901619-4.483188 3.905355-4.483188C2.948941-4.483188 2.440847-3.905355 2.211706-3.506849V-6.914072L.448319-6.834371V-6.366127C1.066002-6.366127 1.135741-6.366127 1.135741-5.977584V-.468244Z'/>
<path id='g0-105' d='M2.231631-4.483188L.498132-4.403487V-3.935243C1.085928-3.935243 1.155666-3.935243 1.155666-3.5467V-.468244H.468244V0C.777086-.009963 1.265255-.029888 1.683686-.029888C1.982565-.029888 2.49066-.009963 2.849315 0V-.468244H2.231631V-4.483188ZM2.331258-6.146949C2.331258-6.585305 1.972603-6.924035 1.554172-6.924035C1.125778-6.924035 .777086-6.575342 .777086-6.146949S1.125778-5.369863 1.554172-5.369863C1.972603-5.369863 2.331258-5.708593 2.331258-6.146949Z'/>
<path id='g0-107' d='M2.132005-2.361146V-6.914072L.368618-6.834371V-6.366127C.986301-6.366127 1.05604-6.366127 1.05604-5.977584V-.468244H.368618V0C.737235-.009963 1.205479-.029888 1.564134-.029888C1.932752-.029888 2.410959-.009963 2.769614 0V-.468244H2.082192V-1.733499C2.371108-1.96264 2.450809-2.022416 2.650062-2.161893L3.656289-.9066C3.745953-.787049 3.905355-.587796 3.905355-.557908C3.905355-.468244 3.726027-.468244 3.596513-.468244V0C3.895392-.019925 4.762142-.029888 4.811955-.029888C5.17061-.029888 5.50934-.019925 5.84807 0V-.468244H5.678705C5.250311-.468244 5.220423-.508095 5.090909-.667497L3.407223-2.769614L4.702366-3.775841C4.841843-3.88543 4.931507-3.955168 5.599004-3.955168V-4.423412C5.330012-4.393524 5.080946-4.393524 4.821918-4.393524C4.552927-4.393524 3.905355-4.41345 3.676214-4.423412V-3.955168C3.905355-3.955168 3.935243-3.92528 4.014944-3.845579L2.132005-2.361146Z'/>
<path id='g0-108' d='M2.231631-6.914072L.468244-6.834371V-6.366127C1.085928-6.366127 1.155666-6.366127 1.155666-5.977584V-.468244H.468244V0C.787049-.009963 1.265255-.029888 1.693649-.029888S2.580324-.009963 2.919054 0V-.468244H2.231631V-6.914072Z'/>
<path id='g0-109' d='M1.135741-3.5467V-.468244H.448319V0C.727273-.009963 1.325031-.029888 1.703611-.029888C2.092154-.029888 2.67995-.009963 2.958904 0V-.468244H2.271482V-2.550436C2.271482-3.636364 3.138232-4.124533 3.755915-4.124533C4.094645-4.124533 4.313823-3.92528 4.313823-3.158157V-.468244H3.626401V0C3.905355-.009963 4.503113-.029888 4.881694-.029888C5.270237-.029888 5.858032-.009963 6.136986 0V-.468244H5.449564V-2.550436C5.449564-3.636364 6.316314-4.124533 6.933998-4.124533C7.272727-4.124533 7.491905-3.92528 7.491905-3.158157V-.468244H6.804483V0C7.083437-.009963 7.681196-.029888 8.059776-.029888C8.448319-.029888 9.036115-.009963 9.315068 0V-.468244H8.627646V-3.048568C8.627646-4.07472 8.119552-4.483188 7.0934-4.483188C6.1868-4.483188 5.668742-3.985056 5.409714-3.526775C5.210461-4.4533 4.293898-4.483188 3.915318-4.483188C3.048568-4.483188 2.480697-4.034869 2.161893-3.407223V-4.483188L.448319-4.403487V-3.935243C1.066002-3.935243 1.135741-3.935243 1.135741-3.5467Z'/>
<path id='g0-110' d='M1.135741-3.5467V-.468244H.448319V0C.727273-.009963 1.325031-.029888 1.703611-.029888C2.092154-.029888 2.67995-.009963 2.958904 0V-.468244H2.271482V-2.550436C2.271482-3.636364 3.128269-4.124533 3.755915-4.124533C4.094645-4.124533 4.303861-3.915318 4.303861-3.158157V-.468244H3.616438V0C3.895392-.009963 4.493151-.029888 4.871731-.029888C5.260274-.029888 5.84807-.009963 6.127024 0V-.468244H5.439601V-3.048568C5.439601-4.094645 4.901619-4.483188 3.905355-4.483188C2.948941-4.483188 2.420922-3.915318 2.161893-3.407223V-4.483188L.448319-4.403487V-3.935243C1.066002-3.935243 1.135741-3.935243 1.135741-3.5467Z'/>
<path id='g0-111' d='M5.399751-2.171856C5.399751-3.506849 4.483188-4.513076 2.859278-4.513076C1.225405-4.513076 .318804-3.496887 .318804-2.171856C.318804-.936488 1.195517 .059776 2.859278 .059776C4.533001 .059776 5.399751-.946451 5.399751-2.171856ZM2.859278-.33873C1.594022-.33873 1.594022-1.414695 1.594022-2.281445C1.594022-2.729763 1.594022-3.237858 1.763387-3.576588C1.952677-3.945205 2.371108-4.154421 2.859278-4.154421C3.277709-4.154421 3.696139-3.995019 3.915318-3.646326C4.124533-3.307597 4.124533-2.759651 4.124533-2.281445C4.124533-1.414695 4.124533-.33873 2.859278-.33873Z'/>
<path id='g0-112' d='M2.191781-3.277709C2.191781-3.466999 2.201743-3.476961 2.34122-3.616438C2.739726-4.024907 3.257783-4.084682 3.476961-4.084682C4.144458-4.084682 4.702366-3.476961 4.702366-2.221669C4.702366-.816936 4.004981-.298879 3.35741-.298879C3.217933-.298879 2.749689-.298879 2.30137-.836862C2.191781-.966376 2.191781-.976339 2.191781-1.165629V-3.277709ZM2.191781-.388543C2.620174-.039851 3.058531 .059776 3.466999 .059776C4.961395 .059776 5.977584-.836862 5.977584-2.221669C5.977584-3.5467 5.070984-4.483188 3.636364-4.483188C2.889166-4.483188 2.361146-4.174346 2.132005-3.995019V-4.483188L.368618-4.403487V-3.935243C.986301-3.935243 1.05604-3.935243 1.05604-3.556663V1.464508H.368618V1.932752C.647572 1.92279 1.24533 1.902864 1.62391 1.902864C2.012453 1.902864 2.600249 1.92279 2.879203 1.932752V1.464508H2.191781V-.388543Z'/>
<path id='g0-114' d='M2.022416-3.35741V-4.483188L.368618-4.403487V-3.935243C.986301-3.935243 1.05604-3.935243 1.05604-3.5467V-.468244H.368618V0C.71731-.009963 1.165629-.029888 1.62391-.029888C2.002491-.029888 2.6401-.029888 2.998755 0V-.468244H2.132005V-2.211706C2.132005-2.909091 2.381071-4.124533 3.377335-4.124533C3.367372-4.11457 3.188045-3.955168 3.188045-3.666252C3.188045-3.257783 3.506849-3.058531 3.795766-3.058531S4.403487-3.267746 4.403487-3.666252C4.403487-4.194271 3.865504-4.483188 3.347447-4.483188C2.650062-4.483188 2.251557-3.985056 2.022416-3.35741Z'/>
<path id='g0-115' d='M2.102117-2.929016C1.733499-2.998755 1.085928-3.108344 1.085928-3.576588C1.085928-4.194271 2.012453-4.194271 2.201743-4.194271C2.948941-4.194271 3.327522-3.905355 3.377335-3.35741C3.387298-3.20797 3.39726-3.158157 3.606476-3.158157C3.845579-3.158157 3.845579-3.20797 3.845579-3.437111V-4.234122C3.845579-4.423412 3.845579-4.513076 3.666252-4.513076C3.626401-4.513076 3.606476-4.513076 3.217933-4.323786C2.958904-4.4533 2.610212-4.513076 2.211706-4.513076C1.912827-4.513076 .37858-4.513076 .37858-3.20797C.37858-2.809465 .577833-2.540473 .777086-2.371108C1.175592-2.022416 1.554172-1.96264 2.321295-1.823163C2.67995-1.763387 3.427148-1.633873 3.427148-1.046077C3.427148-.298879 2.510585-.298879 2.291407-.298879C1.235367-.298879 .976339-1.026152 .856787-1.454545C.806974-1.594022 .757161-1.594022 .617684-1.594022C.37858-1.594022 .37858-1.534247 .37858-1.305106V-.219178C.37858-.029888 .37858 .059776 .557908 .059776C.627646 .059776 .647572 .059776 .856787-.089664C.86675-.089664 1.085928-.239103 1.115816-.259029C1.574097 .059776 2.092154 .059776 2.291407 .059776C2.600249 .059776 4.134496 .059776 4.134496-1.39477C4.134496-1.823163 3.935243-2.171856 3.58655-2.450809C3.198007-2.739726 2.879203-2.799502 2.102117-2.929016Z'/>
<path id='g0-116' d='M1.026152-3.955168V-1.225405C1.026152-.159402 1.892902 .059776 2.600249 .059776C3.35741 .059776 3.805729-.508095 3.805729-1.235367V-1.763387H3.337484V-1.255293C3.337484-.577833 3.01868-.33873 2.739726-.33873C2.161893-.33873 2.161893-.976339 2.161893-1.205479V-3.955168H3.616438V-4.423412H2.161893V-6.326276H1.693649C1.683686-5.330012 1.195517-4.343711 .209215-4.313823V-3.955168H1.026152Z'/>
<path id='g0-117' d='M4.363636-.71731V.059776L6.127024 0V-.468244C5.50934-.468244 5.439601-.468244 5.439601-.856787V-4.483188L3.616438-4.403487V-3.935243C4.234122-3.935243 4.303861-3.935243 4.303861-3.5467V-1.643836C4.303861-.826899 3.795766-.298879 3.068493-.298879C2.30137-.298879 2.271482-.547945 2.271482-1.085928V-4.483188L.448319-4.403487V-3.935243C1.066002-3.935243 1.135741-3.935243 1.135741-3.5467V-1.225405C1.135741-.159402 1.942715 .059776 2.929016 .059776C3.188045 .059776 3.905355 .059776 4.363636-.71731Z'/>
<path id='g0-118' d='M5.041096-3.745953C5.100872-3.88543 5.140722-3.955168 5.778331-3.955168V-4.423412C5.529265-4.403487 5.240349-4.393524 4.991283-4.393524S4.293898-4.41345 4.084682-4.423412V-3.955168C4.273973-3.955168 4.562889-3.92528 4.562889-3.845579C4.562889-3.835616 4.552927-3.815691 4.513076-3.726027L3.35741-1.235367L2.092154-3.955168H2.630137V-4.423412C2.30137-4.403487 1.404732-4.393524 1.39477-4.393524C1.115816-4.393524 .667497-4.41345 .259029-4.423412V-3.955168H.896638L2.6401-.209215C2.759651 .039851 2.889166 .039851 3.01868 .039851C3.188045 .039851 3.287671 .009963 3.387298-.199253L5.041096-3.745953Z'/>
<path id='g0-119' d='M7.342466-3.745953C7.392279-3.875467 7.43213-3.955168 8.019925-3.955168V-4.423412C7.790785-4.403487 7.491905-4.393524 7.252802-4.393524C6.983811-4.393524 6.515567-4.41345 6.296389-4.423412V-3.955168C6.386052-3.955168 6.874222-3.945205 6.874222-3.835616C6.874222-3.805729 6.844334-3.745953 6.834371-3.716065L5.788294-1.165629L4.652553-3.955168H5.210461V-4.423412C4.891656-4.41345 4.373599-4.393524 4.07472-4.393524C3.656289-4.393524 3.237858-4.41345 3.078456-4.423412V-3.955168H3.666252C3.875467-3.457036 3.875467-3.437111 3.875467-3.427148C3.875467-3.387298 3.845579-3.327522 3.835616-3.297634L3.048568-1.384807L2.002491-3.955168H2.560399V-4.423412C2.15193-4.403487 1.743462-4.393524 1.334994-4.393524C1.026152-4.393524 .587796-4.41345 .249066-4.423412V-3.955168H.836862L2.361146-.229141C2.430884-.059776 2.470735 .039851 2.719801 .039851S3.008717-.059776 3.078456-.229141L4.134496-2.809465L5.190535-.229141C5.260274-.059776 5.300125 .039851 5.549191 .039851S5.838107-.059776 5.907846-.229141L7.342466-3.745953Z'/>
</defs>
<g id='page1'>
<rect x='0' y='-100.722267' height='.3985' width='429.048219'/>
<rect x='0' y='-100.323768' height='17.932752' width='.3985'/>
<rect x='63.923921' y='-100.323768' height='17.932752' width='.3985'/>
<rect x='66.314948' y='-100.323768' height='17.932752' width='.3985'/>
<rect x='133.209753' y='-100.323768' height='17.932752' width='.3985'/>
<rect x='135.600781' y='-100.323768' height='17.932752' width='.3985'/>
<rect x='193.408735' y='-100.323768' height='17.932752' width='.3985'/>
<rect x='248.622308' y='-100.323768' height='17.932752' width='.3985'/>
<use x='292.771963' y='-87.770896' xlink:href='#g0-79'/>
<use x='301.378528' y='-87.770896' xlink:href='#g0-117'/>
<use x='307.743514' y='-87.770896' xlink:href='#g0-114'/>
<use x='316.280911' y='-87.770896' xlink:href='#g0-119'/>
<use x='324.237144' y='-87.770896' xlink:href='#g0-111'/>
<use x='329.965632' y='-87.770896' xlink:href='#g0-114'/>
<use x='334.684037' y='-87.770896' xlink:href='#g0-107'/>
<use x='344.051649' y='-87.770896' xlink:href='#g3-40'/>
<use x='347.926023' y='-87.770896' xlink:href='#g3-70'/>
<use x='353.59921' y='-87.770896' xlink:href='#g3-97'/>
<use x='358.580549' y='-87.770896' xlink:href='#g3-99'/>
<use x='363.008401' y='-87.770896' xlink:href='#g3-116'/>
<use x='366.882775' y='-87.770896' xlink:href='#g3-111'/>
<use x='371.864114' y='-87.770896' xlink:href='#g3-114'/>
<use x='375.766164' y='-87.770896' xlink:href='#g3-121'/>
<use x='381.024252' y='-87.770896' xlink:href='#g3-41'/>
<rect x='428.649766' y='-100.323768' height='17.932752' width='.3985'/>
<rect x='0' y='-82.391015' height='29.88792' width='.3985'/>
<use x='6.376099' y='-65.056058' xlink:href='#g0-65'/>
<use x='15.038017' y='-65.056058' xlink:href='#g0-108'/>
<use x='18.220511' y='-65.056058' xlink:href='#g0-103'/>
<use x='23.948998' y='-65.056058' xlink:href='#g0-111'/>
<use x='29.677486' y='-65.056058' xlink:href='#g0-114'/>
<use x='34.395891' y='-65.056058' xlink:href='#g0-105'/>
<use x='37.578384' y='-65.056058' xlink:href='#g0-116'/>
<use x='42.033875' y='-65.056058' xlink:href='#g0-104'/>
<use x='48.398861' y='-65.056058' xlink:href='#g0-109'/>
<rect x='63.923921' y='-82.391015' height='29.88792' width='.3985'/>
<rect x='66.314948' y='-82.391015' height='29.88792' width='.3985'/>
<use x='84.208282' y='-65.056058' xlink:href='#g0-82'/>
<use x='92.801014' y='-65.056058' xlink:href='#g0-97'/>
<use x='98.370367' y='-65.056058' xlink:href='#g0-110'/>
<use x='104.735353' y='-65.056058' xlink:href='#g0-103'/>
<use x='110.463841' y='-65.056058' xlink:href='#g0-101'/>
<rect x='133.209753' y='-82.391015' height='29.88792' width='.3985'/>
<rect x='135.600781' y='-82.391015' height='29.88792' width='.3985'/>
<use x='150.478993' y='-71.033642' xlink:href='#g0-85'/>
<use x='159.293119' y='-71.033642' xlink:href='#g0-115'/>
<use x='163.812258' y='-71.033642' xlink:href='#g0-117'/>
<use x='170.177244' y='-71.033642' xlink:href='#g0-97'/>
<use x='175.746598' y='-71.033642' xlink:href='#g0-108'/>
<use x='141.976879' y='-59.078474' xlink:href='#g0-97'/>
<use x='147.546233' y='-59.078474' xlink:href='#g0-112'/>
<use x='153.911219' y='-59.078474' xlink:href='#g0-112'/>
<use x='160.276205' y='-59.078474' xlink:href='#g0-114'/>
<use x='164.994611' y='-59.078474' xlink:href='#g0-111'/>
<use x='170.723098' y='-59.078474' xlink:href='#g0-97'/>
<use x='176.292452' y='-59.078474' xlink:href='#g0-99'/>
<use x='181.066191' y='-59.078474' xlink:href='#g0-104'/>
<rect x='193.408735' y='-82.391015' height='29.88792' width='.3985'/>
<use x='199.784834' y='-71.033642' xlink:href='#g0-77'/>
<use x='210.660664' y='-71.033642' xlink:href='#g0-117'/>
<use x='217.02565' y='-71.033642' xlink:href='#g0-108'/>
<use x='220.208144' y='-71.033642' xlink:href='#g0-116'/>
<use x='224.663634' y='-71.033642' xlink:href='#g0-105'/>
<use x='227.846127' y='-71.033642' xlink:href='#g0-112'/>
<use x='234.211113' y='-71.033642' xlink:href='#g0-108'/>
<use x='237.393607' y='-71.033642' xlink:href='#g0-101'/>
<use x='203.738757' y='-59.078474' xlink:href='#g0-118'/>
<use x='209.148995' y='-59.078474' xlink:href='#g0-97'/>
<use x='214.718349' y='-59.078474' xlink:href='#g0-114'/>
<use x='219.436754' y='-59.078474' xlink:href='#g0-105'/>
<use x='222.619247' y='-59.078474' xlink:href='#g0-97'/>
<use x='228.1886' y='-59.078474' xlink:href='#g0-110'/>
<use x='234.235337' y='-59.078474' xlink:href='#g0-116'/>
<rect x='248.622308' y='-82.391015' height='29.88792' width='.3985'/>
<use x='254.998407' y='-71.033642' xlink:href='#g0-80'/>
<use x='262.830109' y='-71.033642' xlink:href='#g0-114'/>
<use x='267.548514' y='-71.033642' xlink:href='#g0-101'/>
<use x='272.799637' y='-71.033642' xlink:href='#g0-99'/>
<use x='277.891626' y='-71.033642' xlink:href='#g0-111'/>
<use x='283.620114' y='-71.033642' xlink:href='#g0-109'/>
<use x='293.167593' y='-71.033642' xlink:href='#g0-112'/>
<use x='299.532579' y='-71.033642' xlink:href='#g0-117'/>
<use x='305.897566' y='-71.033642' xlink:href='#g0-116'/>
<use x='310.353056' y='-71.033642' xlink:href='#g0-97'/>
<use x='315.92241' y='-71.033642' xlink:href='#g0-116'/>
<use x='320.3779' y='-71.033642' xlink:href='#g0-105'/>
<use x='323.560393' y='-71.033642' xlink:href='#g0-111'/>
<use x='329.288881' y='-71.033642' xlink:href='#g0-110'/>
<use x='265.172017' y='-59.078474' xlink:href='#g0-105'/>
<use x='268.35451' y='-59.078474' xlink:href='#g0-110'/>
<use x='278.538488' y='-59.078474' xlink:href='#g0-101'/>
<use x='283.789612' y='-59.078474' xlink:href='#g0-97'/>
<use x='289.358965' y='-59.078474' xlink:href='#g0-99'/>
<use x='294.132705' y='-59.078474' xlink:href='#g0-104'/>
<use x='304.316683' y='-59.078474' xlink:href='#g0-12'/>
<use x='310.681669' y='-59.078474' xlink:href='#g0-101'/>
<use x='315.932792' y='-59.078474' xlink:href='#g0-108'/>
<use x='319.115286' y='-59.078474' xlink:href='#g0-100'/>
<rect x='341.631434' y='-82.391015' height='29.88792' width='.3985'/>
<use x='352.321479' y='-71.033642' xlink:href='#g0-67'/>
<use x='360.595962' y='-71.033642' xlink:href='#g0-111'/>
<use x='366.324449' y='-71.033642' xlink:href='#g0-109'/>
<use x='375.871929' y='-71.033642' xlink:href='#g0-112'/>
<use x='382.236915' y='-71.033642' xlink:href='#g0-117'/>
<use x='388.601901' y='-71.033642' xlink:href='#g0-116'/>
<use x='393.057392' y='-71.033642' xlink:href='#g0-97'/>
<use x='398.626745' y='-71.033642' xlink:href='#g0-116'/>
<use x='403.082235' y='-71.033642' xlink:href='#g0-105'/>
<use x='406.264729' y='-71.033642' xlink:href='#g0-111'/>
<use x='411.993216' y='-71.033642' xlink:href='#g0-110'/>
<use x='355.185723' y='-59.078474' xlink:href='#g0-105'/>
<use x='358.368216' y='-59.078474' xlink:href='#g0-110'/>
<use x='368.552194' y='-59.078474' xlink:href='#g0-101'/>
<use x='373.803318' y='-59.078474' xlink:href='#g0-97'/>
<use x='379.372671' y='-59.078474' xlink:href='#g0-99'/>
<use x='384.146411' y='-59.078474' xlink:href='#g0-104'/>
<use x='394.330389' y='-59.078474' xlink:href='#g0-12'/>
<use x='400.695375' y='-59.078474' xlink:href='#g0-101'/>
<use x='405.946498' y='-59.078474' xlink:href='#g0-108'/>
<use x='409.128991' y='-59.078474' xlink:href='#g0-100'/>
<rect x='428.64972' y='-82.391015' height='29.88792' width='.3985'/>
<rect x='0' y='-52.503095' height='.3985' width='429.048219'/>
<rect x='0' y='-50.112068' height='.3985' width='429.048219'/>
<rect x='0' y='-49.713568' height='17.932752' width='.3985'/>
<rect x='63.923921' y='-49.713568' height='17.932752' width='.3985'/>
<rect x='66.314948' y='-49.713568' height='17.932752' width='.3985'/>
<use x='74.11404' y='-37.160696' xlink:href='#g3-80'/>
<use x='80.894187' y='-37.160696' xlink:href='#g3-114'/>
<use x='84.796238' y='-37.160696' xlink:href='#g3-105'/>
<use x='87.563646' y='-37.160696' xlink:href='#g3-109'/>
<use x='95.865871' y='-37.160696' xlink:href='#g3-101'/>
<use x='103.614598' y='-37.160696' xlink:href='#g3-12'/>
<use x='109.149415' y='-37.160696' xlink:href='#g3-101'/>
<use x='113.577267' y='-37.160696' xlink:href='#g3-108'/>
<use x='116.344675' y='-37.160696' xlink:href='#g3-100'/>
<use x='121.879492' y='-37.160696' xlink:href='#g3-115'/>
<rect x='133.209802' y='-49.713568' height='17.932752' width='.3985'/>
<rect x='135.60083' y='-49.713568' height='17.932752' width='.3985'/>
<use x='155.848308' y='-37.160696' xlink:href='#g3-49'/>
<use x='160.829647' y='-37.160696' xlink:href='#g3-46'/>
<use x='163.597056' y='-37.160696' xlink:href='#g3-57'/>
<use x='168.578395' y='-37.160696' xlink:href='#g3-50'/>
<rect x='193.408747' y='-49.713568' height='17.932752' width='.3985'/>
<use x='212.359064' y='-37.160696' xlink:href='#g3-49'/>
<use x='217.340403' y='-37.160696' xlink:href='#g3-46'/>
<use x='220.107812' y='-37.160696' xlink:href='#g3-57'/>
<use x='225.089151' y='-37.160696' xlink:href='#g3-48'/>
<rect x='248.622319' y='-49.713568' height='17.932752' width='.3985'/>
<use x='257.993812' y='-37.160696' xlink:href='#g3-50'/>
<use x='262.975151' y='-37.160696' xlink:href='#g3-46'/>
<use x='265.742559' y='-37.160696' xlink:href='#g3-48'/>
<use x='270.723898' y='-37.160696' xlink:href='#g3-49'/>
<use x='279.026112' y='-37.160696' xlink:href='#g3-91'/>
<use x='281.793521' y='-37.160696' xlink:href='#g3-66'/>
<use x='288.850416' y='-37.160696' xlink:href='#g3-97'/>
<use x='293.831755' y='-37.160696' xlink:href='#g3-114'/>
<use x='297.733806' y='-37.160696' xlink:href='#g3-98'/>
<use x='303.268623' y='-37.160696' xlink:href='#g3-117'/>
<use x='308.80344' y='-37.160696' xlink:href='#g3-108'/>
<use x='311.570848' y='-37.160696' xlink:href='#g3-101'/>
<use x='315.9987' y='-37.160696' xlink:href='#g3-115'/>
<use x='319.928417' y='-37.160696' xlink:href='#g3-99'/>
<use x='324.356269' y='-37.160696' xlink:href='#g3-117'/>
<use x='329.891086' y='-37.160696' xlink:href='#g3-93'/>
<rect x='341.631499' y='-49.713568' height='17.932752' width='.3985'/>
<use x='348.007518' y='-37.160696' xlink:href='#g3-49'/>
<use x='352.988857' y='-37.160696' xlink:href='#g3-46'/>
<use x='355.756265' y='-37.160696' xlink:href='#g3-54'/>
<use x='360.737604' y='-37.160696' xlink:href='#g3-52'/>
<use x='369.039818' y='-37.160696' xlink:href='#g3-91'/>
<use x='371.807227' y='-37.160696' xlink:href='#g3-66'/>
<use x='378.864122' y='-37.160696' xlink:href='#g3-97'/>
<use x='383.845461' y='-37.160696' xlink:href='#g3-114'/>
<use x='387.747512' y='-37.160696' xlink:href='#g3-98'/>
<use x='393.282329' y='-37.160696' xlink:href='#g3-117'/>
<use x='398.817146' y='-37.160696' xlink:href='#g3-108'/>
<use x='401.584554' y='-37.160696' xlink:href='#g3-101'/>
<use x='406.012406' y='-37.160696' xlink:href='#g3-115'/>
<use x='409.942123' y='-37.160696' xlink:href='#g3-99'/>
<use x='414.369975' y='-37.160696' xlink:href='#g3-117'/>
<use x='419.904792' y='-37.160696' xlink:href='#g3-93'/>
<rect x='428.649785' y='-49.713568' height='17.932752' width='.3985'/>
<rect x='66.713448' y='-31.780816' height='.3985' width='362.334772'/>
<rect x='0' y='-31.780816' height='17.932752' width='.3985'/>
<rect x='63.923921' y='-31.780816' height='17.932752' width='.3985'/>
<rect x='66.314948' y='-31.780816' height='17.932752' width='.3985'/>
<use x='83.53533' y='-19.227944' xlink:href='#g3-76'/>
<use x='89.761999' y='-19.227944' xlink:href='#g3-97'/>
<use x='94.743338' y='-19.227944' xlink:href='#g3-114'/>
<use x='98.645388' y='-19.227944' xlink:href='#g3-103'/>
<use x='103.626727' y='-19.227944' xlink:href='#g3-101'/>
<use x='111.375454' y='-19.227944' xlink:href='#g1-112'/>
<rect x='133.2098' y='-31.780816' height='17.932752' width='.3985'/>
<rect x='135.600828' y='-31.780816' height='17.932752' width='.3985'/>
<use x='155.848308' y='-19.227944' xlink:href='#g3-49'/>
<use x='160.829647' y='-19.227944' xlink:href='#g3-46'/>
<use x='163.597056' y='-19.227944' xlink:href='#g3-57'/>
<use x='168.578395' y='-19.227944' xlink:href='#g3-50'/>
<rect x='193.408747' y='-31.780816' height='17.932752' width='.3985'/>
<use x='212.359064' y='-19.227944' xlink:href='#g3-49'/>
<use x='217.340403' y='-19.227944' xlink:href='#g3-46'/>
<use x='220.107812' y='-19.227944' xlink:href='#g3-57'/>
<use x='225.089151' y='-19.227944' xlink:href='#g3-48'/>
<rect x='248.622319' y='-31.780816' height='17.932752' width='.3985'/>
<use x='285.142143' y='-19.227944' xlink:href='#g0-50'/>
<use x='290.87063' y='-19.227944' xlink:href='#g0-46'/>
<use x='294.053124' y='-19.227944' xlink:href='#g0-48'/>
<use x='299.781611' y='-19.227944' xlink:href='#g0-49'/>
<rect x='341.631434' y='-31.780816' height='17.932752' width='.3985'/>
<use x='375.155849' y='-19.227944' xlink:href='#g0-49'/>
<use x='380.884336' y='-19.227944' xlink:href='#g0-46'/>
<use x='384.066829' y='-19.227944' xlink:href='#g0-54'/>
<use x='389.795317' y='-19.227944' xlink:href='#g0-52'/>
<rect x='428.64972' y='-31.780816' height='17.932752' width='.3985'/>
<rect x='66.713448' y='-13.848064' height='.3985' width='362.334772'/>
<rect x='0' y='-13.848064' height='17.932752' width='.3985'/>
<use x='22.406105' y='-1.295192' xlink:href='#g3-78'/>
<use x='29.878104' y='-1.295192' xlink:href='#g3-70'/>
<use x='36.381521' y='-1.295192' xlink:href='#g3-83'/>
<rect x='63.923928' y='-13.848064' height='17.932752' width='.3985'/>
<rect x='66.314956' y='-13.848064' height='17.932752' width='.3985'/>
<use x='72.691032' y='-1.295192' xlink:href='#g1-112'/>
<use x='80.470829' y='-1.295192' xlink:href='#g3-61'/>
<use x='90.986909' y='-1.295192' xlink:href='#g1-76'/>
<use x='97.767056' y='.199189' xlink:href='#g2-81'/>
<use x='104.539435' y='-1.295192' xlink:href='#g3-40'/>
<use x='108.413808' y='-1.295192' xlink:href='#g3-50'/>
<use x='113.395147' y='-1.295192' xlink:href='#g1-61'/>
<use x='118.376487' y='-1.295192' xlink:href='#g3-51'/>
<use x='123.357826' y='-1.295192' xlink:href='#g3-41'/>
<rect x='133.209783' y='-13.848064' height='17.932752' width='.3985'/>
<rect x='135.600811' y='-13.848064' height='17.932752' width='.3985'/>
<use x='238.43722' y='-1.295192' xlink:href='#g0-70'/>
<use x='245.646257' y='-1.295192' xlink:href='#g0-105'/>
<use x='248.82875' y='-1.295192' xlink:href='#g0-103'/>
<use x='254.557238' y='-1.295192' xlink:href='#g0-117'/>
<use x='260.922224' y='-1.295192' xlink:href='#g0-114'/>
<use x='265.640629' y='-1.295192' xlink:href='#g0-101'/>
<use x='274.710744' y='-1.295192' xlink:href='#g0-56'/>
<use x='284.258224' y='-1.295192' xlink:href='#g0-105'/>
<use x='287.440717' y='-1.295192' xlink:href='#g0-110'/>
<use x='297.624695' y='-1.295192' xlink:href='#g0-112'/>
<use x='303.989681' y='-1.295192' xlink:href='#g0-97'/>
<use x='309.559035' y='-1.295192' xlink:href='#g0-112'/>
<use x='316.24227' y='-1.295192' xlink:href='#g0-101'/>
<use x='321.493393' y='-1.295192' xlink:href='#g0-114'/>
<rect x='428.649739' y='-13.848064' height='17.932752' width='.3985'/>
<rect x='66.713448' y='4.084689' height='.3985' width='362.334772'/>
<rect x='0' y='4.084689' height='17.932752' width='.3985'/>
<rect x='63.923921' y='4.084689' height='17.932752' width='.3985'/>
<rect x='66.314948' y='4.084689' height='17.932752' width='.3985'/>
<use x='77.945163' y='16.63756' xlink:href='#g3-77'/>
<use x='87.077605' y='16.63756' xlink:href='#g3-101'/>
<use x='91.505457' y='16.63756' xlink:href='#g3-100'/>
<use x='97.040274' y='16.63756' xlink:href='#g3-105'/>
<use x='99.807682' y='16.63756' xlink:href='#g3-117'/>
<use x='105.342499' y='16.63756' xlink:href='#g3-109'/>
<use x='116.9656' y='16.63756' xlink:href='#g1-112'/>
<rect x='133.20978' y='4.084689' height='17.932752' width='.3985'/>
<rect x='135.600807' y='4.084689' height='17.932752' width='.3985'/>
<use x='155.848308' y='16.63756' xlink:href='#g3-50'/>
<use x='160.829647' y='16.63756' xlink:href='#g3-46'/>
<use x='163.597056' y='16.63756' xlink:href='#g3-50'/>
<use x='168.578395' y='16.63756' xlink:href='#g3-48'/>
<rect x='193.408747' y='4.084689' height='17.932752' width='.3985'/>
<use x='212.359064' y='16.63756' xlink:href='#g3-50'/>
<use x='217.340403' y='16.63756' xlink:href='#g3-46'/>
<use x='220.107812' y='16.63756' xlink:href='#g3-49'/>
<use x='225.089151' y='16.63756' xlink:href='#g3-54'/>
<rect x='248.622319' y='4.084689' height='17.932752' width='.3985'/>
<use x='285.142143' y='16.63756' xlink:href='#g0-50'/>
<use x='290.87063' y='16.63756' xlink:href='#g0-46'/>
<use x='294.053124' y='16.63756' xlink:href='#g0-52'/>
<use x='299.781611' y='16.63756' xlink:href='#g0-53'/>
<rect x='341.631434' y='4.084689' height='17.932752' width='.3985'/>
<use x='375.155849' y='16.63756' xlink:href='#g0-49'/>
<use x='380.884336' y='16.63756' xlink:href='#g0-46'/>
<use x='384.066829' y='16.63756' xlink:href='#g0-55'/>
<use x='389.795317' y='16.63756' xlink:href='#g0-51'/>
<rect x='428.64972' y='4.084689' height='17.932752' width='.3985'/>
<rect x='0' y='22.017441' height='.3985' width='.3985'/>
<rect x='.3985' y='22.017441' height='.3985' width='65.916449'/>
<rect x='66.314948' y='22.017441' height='.3985' width='.3985'/>
<rect x='66.713448' y='22.017441' height='.3985' width='68.887333'/>
<rect x='135.600781' y='22.017441' height='.3985' width='.3985'/>
<rect x='135.99928' y='22.017441' height='.3985' width='57.409455'/>
<rect x='193.408735' y='22.017441' height='.3985' width='.3985'/>
<rect x='193.807235' y='22.017441' height='.3985' width='54.815073'/>
<rect x='248.622308' y='22.017441' height='.3985' width='.3985'/>
<rect x='249.020808' y='22.017441' height='.3985' width='92.610626'/>
<rect x='341.631434' y='22.017441' height='.3985' width='.3985'/>
<rect x='342.029934' y='22.017441' height='.3985' width='86.619786'/>
<rect x='428.64972' y='22.017441' height='.3985' width='.3985'/>
<rect x='0' y='22.41594' height='.3985' width='429.048219' fill='#ff0'/>
<rect x='0' y='22.81444' height='17.932752' width='.3985' fill='#ff0'/>
<use x='18.808481' y='35.367312' xlink:href='#g3-84'/>
<use x='26.003741' y='35.367312' xlink:href='#g3-78'/>
<use x='33.47574' y='35.367312' xlink:href='#g3-70'/>
<use x='39.979158' y='35.367312' xlink:href='#g3-83'/>
<rect x='63.923941' y='22.81444' height='17.932752' width='.3985' fill='#ff0'/>
<rect x='66.314969' y='22.81444' height='17.932752' width='.3985' fill='#ff0'/>
<use x='77.945163' y='35.367312' xlink:href='#g3-77'/>
<use x='87.077605' y='35.367312' xlink:href='#g3-101'/>
<use x='91.505457' y='35.367312' xlink:href='#g3-100'/>
<use x='97.040274' y='35.367312' xlink:href='#g3-105'/>
<use x='99.807682' y='35.367312' xlink:href='#g3-117'/>
<use x='105.342499' y='35.367312' xlink:href='#g3-109'/>
<use x='116.9656' y='35.367312' xlink:href='#g1-112'/>
<rect x='133.20978' y='22.81444' height='17.932752' width='.3985' fill='#ff0'/>
<rect x='135.600807' y='22.81444' height='17.932752' width='.3985' fill='#ff0'/>
<use x='155.848308' y='35.367312' xlink:href='#g3-49'/>
<use x='160.829647' y='35.367312' xlink:href='#g3-46'/>
<use x='163.597056' y='35.367312' xlink:href='#g3-55'/>
<use x='168.578395' y='35.367312' xlink:href='#g3-53'/>
<rect x='193.408747' y='22.81444' height='17.932752' width='.3985' fill='#ff0'/>
<use x='212.359064' y='35.367312' xlink:href='#g3-49'/>
<use x='217.340403' y='35.367312' xlink:href='#g3-46'/>
<use x='220.107812' y='35.367312' xlink:href='#g3-55'/>
<use x='225.089151' y='35.367312' xlink:href='#g3-49'/>
<rect x='248.622319' y='22.81444' height='17.932752' width='.3985' fill='#ff0'/>
<use x='285.142143' y='35.367312' xlink:href='#g0-49'/>
<use x='290.87063' y='35.367312' xlink:href='#g0-46'/>
<use x='294.053124' y='35.367312' xlink:href='#g0-57'/>
<use x='299.781611' y='35.367312' xlink:href='#g0-52'/>
<rect x='341.631434' y='22.81444' height='17.932752' width='.3985' fill='#ff0'/>
<use x='375.155849' y='35.367312' xlink:href='#g0-49'/>
<use x='380.884336' y='35.367312' xlink:href='#g0-46'/>
<use x='384.066829' y='35.367312' xlink:href='#g0-51'/>
<use x='389.795317' y='35.367312' xlink:href='#g0-55'/>
<rect x='428.64972' y='22.81444' height='17.932752' width='.3985' fill='#ff0'/>
<rect x='0' y='40.747192' height='.3985' width='429.048219' fill='#ff0'/>
<rect x='0' y='41.145691' height='17.932752' width='.3985' fill='#ff0'/>
<use x='19.638696' y='53.698563' xlink:href='#g3-83'/>
<use x='25.173513' y='53.698563' xlink:href='#g3-78'/>
<use x='32.645512' y='53.698563' xlink:href='#g3-70'/>
<use x='39.14893' y='53.698563' xlink:href='#g3-83'/>
<rect x='63.923928' y='41.145691' height='17.932752' width='.3985' fill='#ff0'/>
<rect x='66.314956' y='41.145691' height='17.932752' width='.3985' fill='#ff0'/>
<use x='83.53533' y='53.698563' xlink:href='#g3-76'/>
<use x='89.761999' y='53.698563' xlink:href='#g3-97'/>
<use x='94.743338' y='53.698563' xlink:href='#g3-114'/>
<use x='98.645388' y='53.698563' xlink:href='#g3-103'/>
<use x='103.626727' y='53.698563' xlink:href='#g3-101'/>
<use x='111.375454' y='53.698563' xlink:href='#g1-112'/>
<rect x='133.2098' y='41.145691' height='17.932752' width='.3985' fill='#ff0'/>
<rect x='135.600828' y='41.145691' height='17.932752' width='.3985' fill='#ff0'/>
<use x='155.848308' y='53.698563' xlink:href='#g3-49'/>
<use x='160.829647' y='53.698563' xlink:href='#g3-46'/>
<use x='163.597056' y='53.698563' xlink:href='#g3-53'/>
<use x='168.578395' y='53.698563' xlink:href='#g3-51'/>
<rect x='193.408747' y='41.145691' height='17.932752' width='.3985' fill='#ff0'/>
<use x='219.554342' y='53.698563' xlink:href='#g3-45'/>
<rect x='248.622319' y='41.145691' height='17.932752' width='.3985' fill='#ff0'/>
<use x='285.142143' y='53.698563' xlink:href='#g0-49'/>
<use x='290.87063' y='53.698563' xlink:href='#g0-46'/>
<use x='294.053124' y='53.698563' xlink:href='#g0-56'/>
<use x='299.781611' y='53.698563' xlink:href='#g0-53'/>
<rect x='341.631434' y='41.145691' height='17.932752' width='.3985' fill='#ff0'/>
<use x='375.155849' y='53.698563' xlink:href='#g0-49'/>
<use x='380.884336' y='53.698563' xlink:href='#g0-46'/>
<use x='384.066829' y='53.698563' xlink:href='#g0-51'/>
<use x='389.795317' y='53.698563' xlink:href='#g0-57'/>
<rect x='428.64972' y='41.145691' height='17.932752' width='.3985' fill='#ff0'/>
<rect x='66.713448' y='59.078444' height='.3985' width='362.334772' fill='#ff0'/>
<rect x='0' y='59.078444' height='17.932752' width='.3985' fill='#ff0'/>
<rect x='63.923921' y='59.078444' height='17.932752' width='.3985' fill='#ff0'/>
<rect x='66.314948' y='59.078444' height='17.932752' width='.3985' fill='#ff0'/>
<use x='77.945163' y='71.631315' xlink:href='#g3-77'/>
<use x='87.077605' y='71.631315' xlink:href='#g3-101'/>
<use x='91.505457' y='71.631315' xlink:href='#g3-100'/>
<use x='97.040274' y='71.631315' xlink:href='#g3-105'/>
<use x='99.807682' y='71.631315' xlink:href='#g3-117'/>
<use x='105.342499' y='71.631315' xlink:href='#g3-109'/>
<use x='116.9656' y='71.631315' xlink:href='#g1-112'/>
<rect x='133.20978' y='59.078444' height='17.932752' width='.3985' fill='#ff0'/>
<rect x='135.600807' y='59.078444' height='17.932752' width='.3985' fill='#ff0'/>
<use x='240.972862' y='71.631315' xlink:href='#g0-84'/>
<use x='247.988181' y='71.631315' xlink:href='#g0-97'/>
<use x='253.557534' y='71.631315' xlink:href='#g0-98'/>
<use x='259.922521' y='71.631315' xlink:href='#g0-108'/>
<use x='263.105014' y='71.631315' xlink:href='#g0-101'/>
<use x='272.175129' y='71.631315' xlink:href='#g0-57'/>
<use x='281.722608' y='71.631315' xlink:href='#g0-105'/>
<use x='284.905101' y='71.631315' xlink:href='#g0-110'/>
<use x='295.089079' y='71.631315' xlink:href='#g0-112'/>
<use x='301.454066' y='71.631315' xlink:href='#g0-97'/>
<use x='307.023419' y='71.631315' xlink:href='#g0-112'/>
<use x='313.706655' y='71.631315' xlink:href='#g0-101'/>
<use x='318.957778' y='71.631315' xlink:href='#g0-114'/>
<rect x='428.64975' y='59.078444' height='17.932752' width='.3985' fill='#ff0'/>
<rect x='0' y='77.011196' height='.3985' width='429.048219' fill='#fff'/>
<rect x='0' y='77.409695' height='17.932752' width='.3985' fill='#fff'/>
<use x='16.041073' y='89.962567' xlink:href='#g3-83'/>
<use x='21.57589' y='89.962567' xlink:href='#g3-84'/>
<use x='28.77115' y='89.962567' xlink:href='#g3-78'/>
<use x='36.243149' y='89.962567' xlink:href='#g3-70'/>
<use x='42.746566' y='89.962567' xlink:href='#g3-83'/>
<rect x='63.923941' y='77.409695' height='17.932752' width='.3985' fill='#fff'/>
<rect x='66.314969' y='77.409695' height='17.932752' width='.3985' fill='#fff'/>
<use x='77.945163' y='89.962567' xlink:href='#g3-77'/>
<use x='87.077605' y='89.962567' xlink:href='#g3-101'/>
<use x='91.505457' y='89.962567' xlink:href='#g3-100'/>
<use x='97.040274' y='89.962567' xlink:href='#g3-105'/>
<use x='99.807682' y='89.962567' xlink:href='#g3-117'/>
<use x='105.342499' y='89.962567' xlink:href='#g3-109'/>
<use x='116.9656' y='89.962567' xlink:href='#g1-112'/>
<rect x='133.20978' y='77.409695' height='17.932752' width='.3985' fill='#fff'/>
<rect x='135.600807' y='77.409695' height='17.932752' width='.3985' fill='#fff'/>
<use x='238.108619' y='89.962567' xlink:href='#g0-84'/>
<use x='245.123937' y='89.962567' xlink:href='#g0-97'/>
<use x='250.693291' y='89.962567' xlink:href='#g0-98'/>
<use x='257.058277' y='89.962567' xlink:href='#g0-108'/>
<use x='260.24077' y='89.962567' xlink:href='#g0-101'/>
<use x='269.310885' y='89.962567' xlink:href='#g0-49'/>
<use x='275.039373' y='89.962567' xlink:href='#g0-48'/>
<use x='284.586852' y='89.962567' xlink:href='#g0-105'/>
<use x='287.769345' y='89.962567' xlink:href='#g0-110'/>
<use x='297.953323' y='89.962567' xlink:href='#g0-112'/>
<use x='304.31831' y='89.962567' xlink:href='#g0-97'/>
<use x='309.887663' y='89.962567' xlink:href='#g0-112'/>
<use x='316.570899' y='89.962567' xlink:href='#g0-101'/>
<use x='321.822022' y='89.962567' xlink:href='#g0-114'/>
<rect x='428.64975' y='77.409695' height='17.932752' width='.3985' fill='#fff'/>
<rect x='0' y='95.342448' height='.3985' width='429.048219' fill='#fff'/>
</g>
</svg>