<?xml version='1.0' encoding='UTF-8'?>
<!-- This file was generated by dvisvgm 2.13.1 -->
<svg version='1.1' xmlns='http://www.w3.org/2000/svg' xmlns:xlink='http://www.w3.org/1999/xlink' width='58.165234pt' height='9.96264pt' viewBox='142.52387 -7.47198 58.165234 9.96264'>
<defs>
<path id='g2-48' d='M3.598506-2.224658C3.598506-2.991781 3.507846-3.542715 3.187049-4.030884C2.970859-4.351681 2.538481-4.630635 1.980573-4.630635C.36264-4.630635 .36264-2.726775 .36264-2.224658S.36264 .139477 1.980573 .139477S3.598506-1.72254 3.598506-2.224658ZM1.980573-.055791C1.659776-.055791 1.234371-.244085 1.094894-.81594C.99726-1.227397 .99726-1.799253 .99726-2.315318C.99726-2.824408 .99726-3.354421 1.101868-3.737983C1.248319-4.288917 1.694645-4.435367 1.980573-4.435367C2.357161-4.435367 2.719801-4.20523 2.84533-3.800747C2.956912-3.424159 2.963885-2.922042 2.963885-2.315318C2.963885-1.799253 2.963885-1.283188 2.873225-.843836C2.733748-.209215 2.259527-.055791 1.980573-.055791Z'/>
<path id='g2-52' d='M3.689166-1.143711V-1.39477H2.915068V-4.505106C2.915068-4.651557 2.915068-4.700374 2.761644-4.700374C2.677958-4.700374 2.650062-4.700374 2.580324-4.60274L.27198-1.39477V-1.143711H2.322291V-.571856C2.322291-.334745 2.322291-.251059 1.75741-.251059H1.569116V0C1.917808-.013948 2.364134-.027895 2.615193-.027895C2.873225-.027895 3.319552-.013948 3.668244 0V-.251059H3.47995C2.915068-.251059 2.915068-.334745 2.915068-.571856V-1.143711H3.689166ZM2.371108-3.947198V-1.39477H.530012L2.371108-3.947198Z'/>
<path id='g0-68' d='M1.58406-.777086C1.484433-.388543 1.464508-.308842 .67746-.308842C.508095-.308842 .398506-.308842 .398506-.119552C.398506 0 .488169 0 .67746 0H3.975093C6.047323 0 8.009963-2.102117 8.009963-4.283935C8.009963-5.688667 7.163138-6.804483 5.668742-6.804483H2.321295C2.132005-6.804483 2.022416-6.804483 2.022416-6.615193C2.022416-6.495641 2.11208-6.495641 2.311333-6.495641C2.440847-6.495641 2.620174-6.485679 2.739726-6.475716C2.899128-6.455791 2.958904-6.425903 2.958904-6.316314C2.958904-6.276463 2.948941-6.246575 2.919054-6.127024L1.58406-.777086ZM3.73599-6.117061C3.825654-6.465753 3.845579-6.495641 4.273973-6.495641H5.339975C6.316314-6.495641 7.143213-5.967621 7.143213-4.652553C7.143213-4.164384 6.94396-2.530511 6.097136-1.43462C5.808219-1.066002 5.021171-.308842 3.795766-.308842H2.669988C2.530511-.308842 2.510585-.308842 2.450809-.318804C2.351183-.328767 2.321295-.33873 2.321295-.418431C2.321295-.448319 2.321295-.468244 2.371108-.647572L3.73599-6.117061Z'/>
<path id='g0-102' d='M3.656289-3.985056H4.513076C4.712329-3.985056 4.811955-3.985056 4.811955-4.184309C4.811955-4.293898 4.712329-4.293898 4.542964-4.293898H3.716065L3.92528-5.429639C3.965131-5.638854 4.104608-6.346202 4.164384-6.465753C4.254047-6.655044 4.423412-6.804483 4.632628-6.804483C4.672478-6.804483 4.931507-6.804483 5.120797-6.625156C4.682441-6.585305 4.582814-6.236613 4.582814-6.087173C4.582814-5.858032 4.762142-5.738481 4.951432-5.738481C5.210461-5.738481 5.499377-5.957659 5.499377-6.336239C5.499377-6.794521 5.041096-7.023661 4.632628-7.023661C4.293898-7.023661 3.666252-6.844334 3.367372-5.858032C3.307597-5.648817 3.277709-5.549191 3.038605-4.293898H2.351183C2.161893-4.293898 2.052304-4.293898 2.052304-4.104608C2.052304-3.985056 2.141968-3.985056 2.331258-3.985056H2.988792L2.241594-.049813C2.062267 .916563 1.892902 1.823163 1.374844 1.823163C1.334994 1.823163 1.085928 1.823163 .896638 1.643836C1.354919 1.613948 1.444583 1.255293 1.444583 1.105853C1.444583 .876712 1.265255 .757161 1.075965 .757161C.816936 .757161 .52802 .976339 .52802 1.354919C.52802 1.803238 .966376 2.042341 1.374844 2.042341C1.92279 2.042341 2.321295 1.454545 2.500623 1.075965C2.819427 .448319 3.048568-.757161 3.058531-.826899L3.656289-3.985056Z'/>
<path id='g1-40' d='M3.297634 2.391034C3.297634 2.361146 3.297634 2.34122 3.128269 2.171856C1.882939 .916563 1.564134-.966376 1.564134-2.49066C1.564134-4.224159 1.942715-5.957659 3.16812-7.202989C3.297634-7.32254 3.297634-7.342466 3.297634-7.372354C3.297634-7.442092 3.257783-7.47198 3.198007-7.47198C3.098381-7.47198 2.201743-6.794521 1.613948-5.529265C1.105853-4.433375 .986301-3.327522 .986301-2.49066C.986301-1.713574 1.09589-.508095 1.643836 .617684C2.241594 1.843088 3.098381 2.49066 3.198007 2.49066C3.257783 2.49066 3.297634 2.460772 3.297634 2.391034Z'/>
<path id='g1-41' d='M2.879203-2.49066C2.879203-3.267746 2.769614-4.473225 2.221669-5.599004C1.62391-6.824408 .767123-7.47198 .667497-7.47198C.607721-7.47198 .56787-7.43213 .56787-7.372354C.56787-7.342466 .56787-7.32254 .757161-7.143213C1.733499-6.156912 2.30137-4.572852 2.30137-2.49066C2.30137-.787049 1.932752 .966376 .697385 2.221669C.56787 2.34122 .56787 2.361146 .56787 2.391034C.56787 2.450809 .607721 2.49066 .667497 2.49066C.767123 2.49066 1.663761 1.8132 2.251557 .547945C2.759651-.547945 2.879203-1.653798 2.879203-2.49066Z'/>
<path id='g1-61' d='M6.844334-3.257783C6.993773-3.257783 7.183064-3.257783 7.183064-3.457036S6.993773-3.656289 6.854296-3.656289H.886675C.747198-3.656289 .557908-3.656289 .557908-3.457036S.747198-3.257783 .896638-3.257783H6.844334ZM6.854296-1.325031C6.993773-1.325031 7.183064-1.325031 7.183064-1.524284S6.993773-1.723537 6.844334-1.723537H.896638C.747198-1.723537 .557908-1.723537 .557908-1.524284S.747198-1.325031 .886675-1.325031H6.854296Z'/>
<path id='g1-71' d='M5.907846-.627646C6.03736-.408468 6.435866-.009963 6.545455-.009963C6.635118-.009963 6.635118-.089664 6.635118-.239103V-1.972603C6.635118-2.361146 6.674969-2.410959 7.32254-2.410959V-2.719801C6.953923-2.709838 6.405978-2.689913 6.107098-2.689913C5.708593-2.689913 4.861768-2.689913 4.503113-2.719801V-2.410959H4.821918C5.718555-2.410959 5.748443-2.30137 5.748443-1.932752V-1.295143C5.748443-.179328 4.483188-.089664 4.204234-.089664C3.556663-.089664 1.58406-.438356 1.58406-3.407223C1.58406-6.386052 3.5467-6.714819 4.144458-6.714819C5.210461-6.714819 6.117061-5.818182 6.316314-4.353674C6.336239-4.214197 6.336239-4.184309 6.475716-4.184309C6.635118-4.184309 6.635118-4.214197 6.635118-4.423412V-6.784558C6.635118-6.953923 6.635118-7.023661 6.525529-7.023661C6.485679-7.023661 6.445828-7.023661 6.366127-6.90411L5.867995-6.166874C5.549191-6.485679 5.011208-7.023661 4.024907-7.023661C2.171856-7.023661 .557908-5.449564 .557908-3.407223S2.15193 .219178 4.044832 .219178C4.772105 .219178 5.569116-.039851 5.907846-.627646Z'/>
<path id='g1-97' d='M3.317559-.757161C3.35741-.358655 3.626401 .059776 4.094645 .059776C4.303861 .059776 4.911582-.079701 4.911582-.886675V-1.444583H4.662516V-.886675C4.662516-.308842 4.41345-.249066 4.303861-.249066C3.975093-.249066 3.935243-.697385 3.935243-.747198V-2.739726C3.935243-3.158157 3.935243-3.5467 3.576588-3.915318C3.188045-4.303861 2.689913-4.463263 2.211706-4.463263C1.39477-4.463263 .707347-3.995019 .707347-3.337484C.707347-3.038605 .9066-2.86924 1.165629-2.86924C1.444583-2.86924 1.62391-3.068493 1.62391-3.327522C1.62391-3.447073 1.574097-3.775841 1.115816-3.785803C1.384807-4.134496 1.872976-4.244085 2.191781-4.244085C2.67995-4.244085 3.247821-3.855542 3.247821-2.968867V-2.600249C2.739726-2.570361 2.042341-2.540473 1.414695-2.241594C.667497-1.902864 .418431-1.384807 .418431-.946451C.418431-.139477 1.384807 .109589 2.012453 .109589C2.669988 .109589 3.128269-.288917 3.317559-.757161ZM3.247821-2.391034V-1.39477C3.247821-.448319 2.530511-.109589 2.082192-.109589C1.594022-.109589 1.185554-.458281 1.185554-.956413C1.185554-1.504359 1.603985-2.331258 3.247821-2.391034Z'/>
<path id='g1-108' d='M1.763387-6.914072L.328767-6.804483V-6.495641C1.026152-6.495641 1.105853-6.425903 1.105853-5.937733V-.757161C1.105853-.308842 .996264-.308842 .328767-.308842V0C.657534-.009963 1.185554-.029888 1.43462-.029888S2.171856-.009963 2.540473 0V-.308842C1.872976-.308842 1.763387-.308842 1.763387-.757161V-6.914072Z'/>
</defs>
<g id='page1'>
<use x='142.52387' y='0' xlink:href='#g1-71'/>
<use x='150.341795' y='0' xlink:href='#g1-97'/>
<use x='155.323134' y='0' xlink:href='#g1-108'/>
<use x='158.090525' y='0' xlink:href='#g1-40'/>
<use x='161.964899' y='0' xlink:href='#g0-102'/>
<use x='166.842467' y='1.494381' xlink:href='#g2-48'/>
<use x='171.311837' y='0' xlink:href='#g1-41'/>
<use x='177.953543' y='0' xlink:href='#g1-61'/>
<use x='188.469623' y='0' xlink:href='#g0-68'/>
<use x='196.717863' y='1.494381' xlink:href='#g2-52'/>
</g>
</svg>