<?xml version='1.0' encoding='UTF-8'?>
<!-- This file was generated by dvisvgm 2.13.1 -->
<svg version='1.1' xmlns='http://www.w3.org/2000/svg' xmlns:xlink='http://www.w3.org/1999/xlink' width='6.641782pt' height='107.597592pt' viewBox='157.974247 -56.28946 6.641782 107.597592'>
<defs>
<path id='g0-50' d='M3.247821 17.534247H3.935243V.298879H6.56538V-.388543H3.247821V17.534247Z'/>
<path id='g0-52' d='M3.247821 17.524284H6.56538V16.836862H3.935243V-.398506H3.247821V17.524284Z'/>
<path id='g0-54' d='M3.247821 5.987547H3.935243V-.009963H3.247821V5.987547Z'/>
</defs>
<g id='page1'>
<use x='157.974247' y='-55.890964' xlink:href='#g0-50'/>
<use x='157.974247' y='-38.356529' xlink:href='#g0-54'/>
<use x='157.974247' y='-32.378884' xlink:href='#g0-54'/>
<use x='157.974247' y='-26.401239' xlink:href='#g0-54'/>
<use x='157.974247' y='-20.423595' xlink:href='#g0-54'/>
<use x='157.974247' y='-14.44595' xlink:href='#g0-54'/>
<use x='157.974247' y='-8.468305' xlink:href='#g0-54'/>
<use x='157.974247' y='-2.49066' xlink:href='#g0-54'/>
<use x='157.974247' y='3.486985' xlink:href='#g0-54'/>
<use x='157.974247' y='9.46463' xlink:href='#g0-54'/>
<use x='157.974247' y='15.442275' xlink:href='#g0-54'/>
<use x='157.974247' y='21.419919' xlink:href='#g0-54'/>
<use x='157.974247' y='27.397564' xlink:href='#g0-54'/>
<use x='157.974247' y='33.773693' xlink:href='#g0-52'/>
</g>
</svg>