<?xml version='1.0' encoding='UTF-8'?>
<!-- This file was generated by dvisvgm 2.13.1 -->
<svg version='1.1' xmlns='http://www.w3.org/2000/svg' xmlns:xlink='http://www.w3.org/1999/xlink' width='166.76136pt' height='10.045659pt' viewBox='88.474921 -6.918502 166.76136 10.045659'>
<defs>
<path id='g3-54' d='M.926526-1.633873C.931507-1.863014 .936488-2.256538 1.115816-2.580324C1.260274-2.849315 1.58406-3.128269 2.047323-3.128269C2.141968-3.128269 2.366127-3.118306 2.515567-2.998755C2.435866-2.978829 2.306351-2.90411 2.306351-2.734745C2.306351-2.575342 2.425903-2.470735 2.570361-2.470735C2.655044-2.470735 2.834371-2.515567 2.834371-2.749689C2.834371-3.01868 2.645081-3.317559 2.042341-3.317559C1.185554-3.317559 .398506-2.615193 .398506-1.58406C.398506-.393524 .98132 .109589 1.708593 .109589C2.201743 .109589 2.435866-.07472 2.60523-.214197C2.924035-.478207 2.988792-.772105 2.988792-1.021171C2.988792-1.325031 2.889166-1.569116 2.630137-1.798257C2.410959-1.997509 2.181818-2.132005 1.748443-2.132005C1.459527-2.132005 1.135741-1.992528 .926526-1.633873ZM1.708593-.094645C.941469-.094645 .941469-.921544 .941469-1.13076C.941469-1.514321 1.215442-1.96264 1.738481-1.96264C1.992528-1.96264 2.15193-1.897883 2.306351-1.69863C2.455791-1.514321 2.460772-1.305106 2.460772-1.026152C2.460772-.737235 2.460772-.547945 2.30137-.348692C2.161893-.184309 1.987547-.094645 1.708593-.094645Z'/>
<path id='g1-112' d='M.523039 .850809C.474222 1.046077 .460274 1.101868 .18132 1.101868C.09066 1.101868-.006974 1.101868-.006974 1.248319C-.006974 1.325031 .055791 1.352927 .09066 1.352927C.27198 1.352927 .502117 1.325031 .690411 1.325031C.927522 1.325031 1.192528 1.352927 1.422665 1.352927C1.48543 1.352927 1.562142 1.332005 1.562142 1.199502C1.562142 1.101868 1.464508 1.101868 1.380822 1.101868C1.227397 1.101868 1.039103 1.101868 1.039103 1.018182C1.039103 .983313 1.08792 .801993 1.115816 .697385C1.199502 .327771 1.297136-.048817 1.373848-.341719C1.457534-.202242 1.673724 .069738 2.092154 .069738C2.942964 .069738 3.884433-.871731 3.884433-1.910834C3.884433-2.726775 3.319552-3.075467 2.838356-3.075467C2.405978-3.075467 2.036364-2.782565 1.84807-2.587298C1.729514-2.984807 1.338979-3.075467 1.129763-3.075467C.857783-3.075467 .690411-2.894147 .578829-2.705853C.439352-2.468742 .327771-2.050311 .327771-2.008468C.327771-1.917808 .425405-1.917808 .446326-1.917808C.54396-1.917808 .550934-1.93873 .599751-2.127024C.704359-2.531507 .836862-2.880199 1.108842-2.880199C1.290162-2.880199 1.338979-2.726775 1.338979-2.538481C1.338979-2.461768 1.325031-2.371108 1.318057-2.329265L.523039 .850809ZM1.841096-2.238605C2.245579-2.775592 2.594271-2.880199 2.817435-2.880199C3.089415-2.880199 3.326526-2.677958 3.326526-2.203736C3.326526-1.917808 3.173101-1.206476 2.963885-.801993C2.789539-.460274 2.447821-.125529 2.092154-.125529C1.597011-.125529 1.471482-.662516 1.471482-.732254C1.471482-.760149 1.48543-.808966 1.492403-.836862L1.841096-2.238605Z'/>
<path id='g0-70' d='M2.580324-3.347447C2.988792-3.347447 3.985056-3.327522 4.064757-2.211706C4.07472-2.092154 4.084682-1.96264 4.244085-1.96264C4.41345-1.96264 4.41345-2.102117 4.41345-2.281445V-4.98132C4.41345-5.140722 4.41345-5.300125 4.244085-5.300125C4.11457-5.300125 4.07472-5.200498 4.064757-5.090909C4.004981-3.935243 3.307597-3.73599 2.580324-3.706102V-5.808219C2.580324-6.475716 2.769614-6.475716 3.008717-6.475716H3.476961C4.752179-6.475716 5.399751-5.788294 5.459527-5.100872C5.469489-5.021171 5.479452-4.871731 5.638854-4.871731C5.808219-4.871731 5.808219-5.031133 5.808219-5.200498V-6.495641C5.808219-6.804483 5.788294-6.824408 5.479452-6.824408H.478207C.298879-6.824408 .139477-6.824408 .139477-6.645081C.139477-6.475716 .328767-6.475716 .408468-6.475716C.976339-6.475716 1.016189-6.396015 1.016189-5.907846V-.916563C1.016189-.448319 .986301-.348692 .458281-.348692C.308842-.348692 .139477-.348692 .139477-.179328C.139477 0 .298879 0 .478207 0H3.35741C3.536737 0 3.686177 0 3.686177-.179328C3.686177-.348692 3.516812-.348692 3.387298-.348692C2.620174-.348692 2.580324-.418431 2.580324-.946451V-3.347447ZM5.459527-6.475716V-6.007472C5.32005-6.156912 5.150685-6.336239 4.921544-6.475716H5.459527ZM4.064757-3.158157C3.915318-3.347447 3.656289-3.496887 3.536737-3.5467C3.726027-3.636364 3.92528-3.795766 4.064757-3.965131V-3.158157ZM1.364882-5.927771C1.364882-6.047323 1.364882-6.296389 1.285181-6.475716H2.34122C2.231631-6.246575 2.231631-5.917808 2.231631-5.828144V-.926526C2.231631-.777086 2.231631-.537983 2.331258-.348692H1.285181C1.364882-.52802 1.364882-.777086 1.364882-.896638V-5.927771Z'/>
<path id='g2-48' d='M4.582814-3.188045C4.582814-3.985056 4.533001-4.782067 4.184309-5.519303C3.726027-6.475716 2.909091-6.635118 2.49066-6.635118C1.892902-6.635118 1.165629-6.37609 .757161-5.449564C.438356-4.762142 .388543-3.985056 .388543-3.188045C.388543-2.440847 .428394-1.544209 .836862-.787049C1.265255 .019925 1.992528 .219178 2.480697 .219178C3.01868 .219178 3.775841 .009963 4.214197-.936488C4.533001-1.62391 4.582814-2.400996 4.582814-3.188045ZM2.480697 0C2.092154 0 1.504359-.249066 1.325031-1.205479C1.215442-1.803238 1.215442-2.719801 1.215442-3.307597C1.215442-3.945205 1.215442-4.60274 1.295143-5.140722C1.484433-6.326276 2.231631-6.41594 2.480697-6.41594C2.809465-6.41594 3.466999-6.236613 3.656289-5.250311C3.755915-4.692403 3.755915-3.935243 3.755915-3.307597C3.755915-2.560399 3.755915-1.882939 3.646326-1.24533C3.496887-.298879 2.929016 0 2.480697 0Z'/>
<path id='g2-49' d='M2.929016-6.37609C2.929016-6.615193 2.929016-6.635118 2.699875-6.635118C2.082192-5.997509 1.205479-5.997509 .886675-5.997509V-5.688667C1.085928-5.688667 1.673724-5.688667 2.191781-5.947696V-.787049C2.191781-.428394 2.161893-.308842 1.265255-.308842H.946451V0C1.295143-.029888 2.161893-.029888 2.560399-.029888S3.825654-.029888 4.174346 0V-.308842H3.855542C2.958904-.308842 2.929016-.418431 2.929016-.787049V-6.37609Z'/>
<path id='g2-50' d='M1.265255-.767123L2.321295-1.793275C3.875467-3.16812 4.473225-3.706102 4.473225-4.702366C4.473225-5.838107 3.576588-6.635118 2.361146-6.635118C1.235367-6.635118 .498132-5.718555 .498132-4.83188C.498132-4.273973 .996264-4.273973 1.026152-4.273973C1.195517-4.273973 1.544209-4.393524 1.544209-4.801993C1.544209-5.061021 1.364882-5.32005 1.016189-5.32005C.936488-5.32005 .916563-5.32005 .886675-5.310087C1.115816-5.957659 1.653798-6.326276 2.231631-6.326276C3.138232-6.326276 3.566625-5.519303 3.566625-4.702366C3.566625-3.905355 3.068493-3.118306 2.520548-2.500623L.607721-.368618C.498132-.259029 .498132-.239103 .498132 0H4.194271L4.473225-1.733499H4.224159C4.174346-1.43462 4.104608-.996264 4.004981-.846824C3.935243-.767123 3.277709-.767123 3.058531-.767123H1.265255Z'/>
<path id='g2-52' d='M2.929016-1.643836V-.777086C2.929016-.418431 2.909091-.308842 2.171856-.308842H1.96264V0C2.371108-.029888 2.889166-.029888 3.307597-.029888S4.254047-.029888 4.662516 0V-.308842H4.4533C3.716065-.308842 3.696139-.418431 3.696139-.777086V-1.643836H4.692403V-1.952677H3.696139V-6.485679C3.696139-6.684932 3.696139-6.744707 3.536737-6.744707C3.447073-6.744707 3.417186-6.744707 3.337484-6.625156L.278954-1.952677V-1.643836H2.929016ZM2.988792-1.952677H.557908L2.988792-5.668742V-1.952677Z'/>
<path id='g2-58' d='M1.912827-3.765878C1.912827-4.054795 1.673724-4.293898 1.384807-4.293898S.856787-4.054795 .856787-3.765878S1.09589-3.237858 1.384807-3.237858S1.912827-3.476961 1.912827-3.765878ZM1.912827-.52802C1.912827-.816936 1.673724-1.05604 1.384807-1.05604S.856787-.816936 .856787-.52802S1.09589 0 1.384807 0S1.912827-.239103 1.912827-.52802Z'/>
<path id='g2-82' d='M2.231631-3.516812V-6.097136C2.231631-6.326276 2.231631-6.445828 2.450809-6.475716C2.550436-6.495641 2.839352-6.495641 3.038605-6.495641C3.935243-6.495641 5.051059-6.455791 5.051059-5.011208C5.051059-4.323786 4.811955-3.516812 3.337484-3.516812H2.231631ZM4.333748-3.387298C5.300125-3.626401 6.07721-4.234122 6.07721-5.011208C6.07721-5.967621 4.941469-6.804483 3.476961-6.804483H.348692V-6.495641H.587796C1.354919-6.495641 1.374844-6.386052 1.374844-6.027397V-.777086C1.374844-.418431 1.354919-.308842 .587796-.308842H.348692V0C.707347-.029888 1.414695-.029888 1.803238-.029888S2.899128-.029888 3.257783 0V-.308842H3.01868C2.251557-.308842 2.231631-.418431 2.231631-.777086V-3.297634H3.377335C3.536737-3.297634 3.955168-3.297634 4.303861-2.958904C4.682441-2.600249 4.682441-2.291407 4.682441-1.62391C4.682441-.976339 4.682441-.577833 5.090909-.199253C5.499377 .159402 6.047323 .219178 6.346202 .219178C7.123288 .219178 7.292653-.597758 7.292653-.876712C7.292653-.936488 7.292653-1.046077 7.163138-1.046077C7.053549-1.046077 7.053549-.956413 7.043587-.886675C6.983811-.179328 6.635118 0 6.386052 0C5.897883 0 5.818182-.508095 5.678705-1.43462L5.549191-2.231631C5.369863-2.86924 4.881694-3.198007 4.333748-3.387298Z'/>
<path id='g2-97' d='M3.317559-.757161C3.35741-.358655 3.626401 .059776 4.094645 .059776C4.303861 .059776 4.911582-.079701 4.911582-.886675V-1.444583H4.662516V-.886675C4.662516-.308842 4.41345-.249066 4.303861-.249066C3.975093-.249066 3.935243-.697385 3.935243-.747198V-2.739726C3.935243-3.158157 3.935243-3.5467 3.576588-3.915318C3.188045-4.303861 2.689913-4.463263 2.211706-4.463263C1.39477-4.463263 .707347-3.995019 .707347-3.337484C.707347-3.038605 .9066-2.86924 1.165629-2.86924C1.444583-2.86924 1.62391-3.068493 1.62391-3.327522C1.62391-3.447073 1.574097-3.775841 1.115816-3.785803C1.384807-4.134496 1.872976-4.244085 2.191781-4.244085C2.67995-4.244085 3.247821-3.855542 3.247821-2.968867V-2.600249C2.739726-2.570361 2.042341-2.540473 1.414695-2.241594C.667497-1.902864 .418431-1.384807 .418431-.946451C.418431-.139477 1.384807 .109589 2.012453 .109589C2.669988 .109589 3.128269-.288917 3.317559-.757161ZM3.247821-2.391034V-1.39477C3.247821-.448319 2.530511-.109589 2.082192-.109589C1.594022-.109589 1.185554-.458281 1.185554-.956413C1.185554-1.504359 1.603985-2.331258 3.247821-2.391034Z'/>
<path id='g2-98' d='M1.713574-3.755915V-6.914072L.278954-6.804483V-6.495641C.976339-6.495641 1.05604-6.425903 1.05604-5.937733V0H1.305106C1.315068-.009963 1.39477-.14944 1.663761-.617684C1.8132-.388543 2.231631 .109589 2.968867 .109589C4.154421 .109589 5.190535-.86675 5.190535-2.15193C5.190535-3.417186 4.214197-4.403487 3.078456-4.403487C2.30137-4.403487 1.872976-3.935243 1.713574-3.755915ZM1.743462-1.135741V-3.188045C1.743462-3.377335 1.743462-3.387298 1.853051-3.5467C2.241594-4.104608 2.789539-4.184309 3.028643-4.184309C3.476961-4.184309 3.835616-3.92528 4.07472-3.5467C4.333748-3.138232 4.363636-2.570361 4.363636-2.161893C4.363636-1.793275 4.343711-1.195517 4.054795-.747198C3.845579-.438356 3.466999-.109589 2.929016-.109589C2.480697-.109589 2.122042-.348692 1.882939-.71731C1.743462-.926526 1.743462-.956413 1.743462-1.135741Z'/>
<path id='g2-101' d='M1.115816-2.510585C1.175592-3.995019 2.012453-4.244085 2.351183-4.244085C3.377335-4.244085 3.476961-2.899128 3.476961-2.510585H1.115816ZM1.105853-2.30137H3.88543C4.104608-2.30137 4.134496-2.30137 4.134496-2.510585C4.134496-3.496887 3.596513-4.463263 2.351183-4.463263C1.195517-4.463263 .278954-3.437111 .278954-2.191781C.278954-.856787 1.325031 .109589 2.470735 .109589C3.686177 .109589 4.134496-.996264 4.134496-1.185554C4.134496-1.285181 4.054795-1.305106 4.004981-1.305106C3.915318-1.305106 3.895392-1.24533 3.875467-1.165629C3.526775-.139477 2.630137-.139477 2.530511-.139477C2.032379-.139477 1.633873-.438356 1.404732-.806974C1.105853-1.285181 1.105853-1.942715 1.105853-2.30137Z'/>
<path id='g2-102' d='M1.743462-4.293898V-5.449564C1.743462-6.326276 2.221669-6.804483 2.660025-6.804483C2.689913-6.804483 2.839352-6.804483 2.988792-6.734745C2.86924-6.694894 2.689913-6.56538 2.689913-6.316314C2.689913-6.087173 2.849315-5.88792 3.118306-5.88792C3.407223-5.88792 3.556663-6.087173 3.556663-6.326276C3.556663-6.694894 3.188045-7.023661 2.660025-7.023661C1.96264-7.023661 1.115816-6.495641 1.115816-5.439601V-4.293898H.328767V-3.985056H1.115816V-.757161C1.115816-.308842 1.006227-.308842 .33873-.308842V0C.727273-.009963 1.195517-.029888 1.474471-.029888C1.872976-.029888 2.34122-.029888 2.739726 0V-.308842H2.530511C1.793275-.308842 1.77335-.418431 1.77335-.777086V-3.985056H2.909091V-4.293898H1.743462Z'/>
<path id='g2-103' d='M2.211706-1.713574C1.344956-1.713574 1.344956-2.709838 1.344956-2.938979C1.344956-3.20797 1.354919-3.526775 1.504359-3.775841C1.58406-3.895392 1.8132-4.174346 2.211706-4.174346C3.078456-4.174346 3.078456-3.178082 3.078456-2.948941C3.078456-2.67995 3.068493-2.361146 2.919054-2.11208C2.839352-1.992528 2.610212-1.713574 2.211706-1.713574ZM1.05604-1.325031C1.05604-1.364882 1.05604-1.594022 1.225405-1.793275C1.613948-1.514321 2.022416-1.484433 2.211706-1.484433C3.138232-1.484433 3.825654-2.171856 3.825654-2.938979C3.825654-3.307597 3.666252-3.676214 3.417186-3.905355C3.775841-4.244085 4.134496-4.293898 4.313823-4.293898C4.333748-4.293898 4.383562-4.293898 4.41345-4.283935C4.303861-4.244085 4.254047-4.134496 4.254047-4.014944C4.254047-3.845579 4.383562-3.726027 4.542964-3.726027C4.64259-3.726027 4.83188-3.795766 4.83188-4.024907C4.83188-4.194271 4.712329-4.513076 4.323786-4.513076C4.124533-4.513076 3.686177-4.4533 3.267746-4.044832C2.849315-4.373599 2.430884-4.403487 2.211706-4.403487C1.285181-4.403487 .597758-3.716065 .597758-2.948941C.597758-2.510585 .816936-2.132005 1.066002-1.92279C.936488-1.77335 .757161-1.444583 .757161-1.09589C.757161-.787049 .886675-.408468 1.195517-.209215C.597758-.039851 .278954 .388543 .278954 .787049C.278954 1.504359 1.265255 2.052304 2.480697 2.052304C3.656289 2.052304 4.692403 1.544209 4.692403 .767123C4.692403 .418431 4.552927-.089664 4.044832-.368618C3.516812-.647572 2.938979-.647572 2.331258-.647572C2.082192-.647572 1.653798-.647572 1.58406-.657534C1.265255-.697385 1.05604-1.006227 1.05604-1.325031ZM2.49066 1.823163C1.484433 1.823163 .797011 1.315068 .797011 .787049C.797011 .328767 1.175592-.039851 1.613948-.069738H2.201743C3.058531-.069738 4.174346-.069738 4.174346 .787049C4.174346 1.325031 3.466999 1.823163 2.49066 1.823163Z'/>
<path id='g2-104' d='M1.09589-.757161C1.09589-.308842 .986301-.308842 .318804-.308842V0C.667497-.009963 1.175592-.029888 1.444583-.029888C1.703611-.029888 2.221669-.009963 2.560399 0V-.308842C1.892902-.308842 1.783313-.308842 1.783313-.757161V-2.590286C1.783313-3.626401 2.49066-4.184309 3.128269-4.184309C3.755915-4.184309 3.865504-3.646326 3.865504-3.078456V-.757161C3.865504-.308842 3.755915-.308842 3.088418-.308842V0C3.437111-.009963 3.945205-.029888 4.214197-.029888C4.473225-.029888 4.991283-.009963 5.330012 0V-.308842C4.811955-.308842 4.562889-.308842 4.552927-.607721V-2.510585C4.552927-3.367372 4.552927-3.676214 4.244085-4.034869C4.104608-4.204234 3.775841-4.403487 3.198007-4.403487C2.361146-4.403487 1.92279-3.805729 1.753425-3.427148V-6.914072L.318804-6.804483V-6.495641C1.016189-6.495641 1.09589-6.425903 1.09589-5.937733V-.757161Z'/>
<path id='g2-105' d='M1.763387-4.403487L.368618-4.293898V-3.985056C1.016189-3.985056 1.105853-3.92528 1.105853-3.437111V-.757161C1.105853-.308842 .996264-.308842 .328767-.308842V0C.647572-.009963 1.185554-.029888 1.424658-.029888C1.77335-.029888 2.122042-.009963 2.460772 0V-.308842C1.803238-.308842 1.763387-.358655 1.763387-.747198V-4.403487ZM1.803238-6.136986C1.803238-6.455791 1.554172-6.665006 1.275218-6.665006C.966376-6.665006 .747198-6.396015 .747198-6.136986C.747198-5.867995 .966376-5.608966 1.275218-5.608966C1.554172-5.608966 1.803238-5.818182 1.803238-6.136986Z'/>
<path id='g2-109' d='M1.09589-3.427148V-.757161C1.09589-.308842 .986301-.308842 .318804-.308842V0C.667497-.009963 1.175592-.029888 1.444583-.029888C1.703611-.029888 2.221669-.009963 2.560399 0V-.308842C1.892902-.308842 1.783313-.308842 1.783313-.757161V-2.590286C1.783313-3.626401 2.49066-4.184309 3.128269-4.184309C3.755915-4.184309 3.865504-3.646326 3.865504-3.078456V-.757161C3.865504-.308842 3.755915-.308842 3.088418-.308842V0C3.437111-.009963 3.945205-.029888 4.214197-.029888C4.473225-.029888 4.991283-.009963 5.330012 0V-.308842C4.662516-.308842 4.552927-.308842 4.552927-.757161V-2.590286C4.552927-3.626401 5.260274-4.184309 5.897883-4.184309C6.525529-4.184309 6.635118-3.646326 6.635118-3.078456V-.757161C6.635118-.308842 6.525529-.308842 5.858032-.308842V0C6.206725-.009963 6.714819-.029888 6.983811-.029888C7.242839-.029888 7.760897-.009963 8.099626 0V-.308842C7.581569-.308842 7.332503-.308842 7.32254-.607721V-2.510585C7.32254-3.367372 7.32254-3.676214 7.013699-4.034869C6.874222-4.204234 6.545455-4.403487 5.967621-4.403487C5.13076-4.403487 4.692403-3.805729 4.523039-3.427148C4.383562-4.293898 3.646326-4.403487 3.198007-4.403487C2.470735-4.403487 2.002491-3.975093 1.723537-3.35741V-4.403487L.318804-4.293898V-3.985056C1.016189-3.985056 1.09589-3.915318 1.09589-3.427148Z'/>
<path id='g2-110' d='M1.09589-3.427148V-.757161C1.09589-.308842 .986301-.308842 .318804-.308842V0C.667497-.009963 1.175592-.029888 1.444583-.029888C1.703611-.029888 2.221669-.009963 2.560399 0V-.308842C1.892902-.308842 1.783313-.308842 1.783313-.757161V-2.590286C1.783313-3.626401 2.49066-4.184309 3.128269-4.184309C3.755915-4.184309 3.865504-3.646326 3.865504-3.078456V-.757161C3.865504-.308842 3.755915-.308842 3.088418-.308842V0C3.437111-.009963 3.945205-.029888 4.214197-.029888C4.473225-.029888 4.991283-.009963 5.330012 0V-.308842C4.811955-.308842 4.562889-.308842 4.552927-.607721V-2.510585C4.552927-3.367372 4.552927-3.676214 4.244085-4.034869C4.104608-4.204234 3.775841-4.403487 3.198007-4.403487C2.470735-4.403487 2.002491-3.975093 1.723537-3.35741V-4.403487L.318804-4.293898V-3.985056C1.016189-3.985056 1.09589-3.915318 1.09589-3.427148Z'/>
<path id='g2-111' d='M4.692403-2.132005C4.692403-3.407223 3.696139-4.463263 2.49066-4.463263C1.24533-4.463263 .278954-3.377335 .278954-2.132005C.278954-.846824 1.315068 .109589 2.480697 .109589C3.686177 .109589 4.692403-.86675 4.692403-2.132005ZM2.49066-.139477C2.062267-.139477 1.62391-.348692 1.354919-.806974C1.105853-1.24533 1.105853-1.853051 1.105853-2.211706C1.105853-2.600249 1.105853-3.138232 1.344956-3.576588C1.613948-4.034869 2.082192-4.244085 2.480697-4.244085C2.919054-4.244085 3.347447-4.024907 3.606476-3.596513S3.865504-2.590286 3.865504-2.211706C3.865504-1.853051 3.865504-1.315068 3.646326-.876712C3.427148-.428394 2.988792-.139477 2.49066-.139477Z'/>
<path id='g2-115' d='M2.072229-1.932752C2.291407-1.892902 3.108344-1.733499 3.108344-1.016189C3.108344-.508095 2.759651-.109589 1.982565-.109589C1.145704-.109589 .787049-.67746 .597758-1.524284C.56787-1.653798 .557908-1.693649 .458281-1.693649C.328767-1.693649 .328767-1.62391 .328767-1.444583V-.129514C.328767 .039851 .328767 .109589 .438356 .109589C.488169 .109589 .498132 .099626 .687422-.089664C.707347-.109589 .707347-.129514 .886675-.318804C1.325031 .099626 1.77335 .109589 1.982565 .109589C3.128269 .109589 3.58655-.557908 3.58655-1.275218C3.58655-1.803238 3.287671-2.102117 3.16812-2.221669C2.839352-2.540473 2.450809-2.620174 2.032379-2.699875C1.474471-2.809465 .806974-2.938979 .806974-3.516812C.806974-3.865504 1.066002-4.273973 1.92279-4.273973C3.01868-4.273973 3.068493-3.377335 3.088418-3.068493C3.098381-2.978829 3.188045-2.978829 3.20797-2.978829C3.337484-2.978829 3.337484-3.028643 3.337484-3.217933V-4.224159C3.337484-4.393524 3.337484-4.463263 3.227895-4.463263C3.178082-4.463263 3.158157-4.463263 3.028643-4.343711C2.998755-4.303861 2.899128-4.214197 2.859278-4.184309C2.480697-4.463263 2.072229-4.463263 1.92279-4.463263C.707347-4.463263 .328767-3.795766 .328767-3.237858C.328767-2.889166 .488169-2.610212 .757161-2.391034C1.075965-2.132005 1.354919-2.072229 2.072229-1.932752Z'/>
<path id='g2-116' d='M1.723537-3.985056H3.148194V-4.293898H1.723537V-6.127024H1.474471C1.464508-5.310087 1.165629-4.244085 .18929-4.204234V-3.985056H1.036115V-1.235367C1.036115-.009963 1.96264 .109589 2.321295 .109589C3.028643 .109589 3.307597-.597758 3.307597-1.235367V-1.803238H3.058531V-1.255293C3.058531-.518057 2.759651-.139477 2.391034-.139477C1.723537-.139477 1.723537-1.046077 1.723537-1.215442V-3.985056Z'/>
<path id='g2-117' d='M3.895392-.787049V.109589L5.330012 0V-.308842C4.632628-.308842 4.552927-.37858 4.552927-.86675V-4.403487L3.088418-4.293898V-3.985056C3.785803-3.985056 3.865504-3.915318 3.865504-3.427148V-1.653798C3.865504-.787049 3.387298-.109589 2.660025-.109589C1.823163-.109589 1.783313-.577833 1.783313-1.09589V-4.403487L.318804-4.293898V-3.985056C1.09589-3.985056 1.09589-3.955168 1.09589-3.068493V-1.574097C1.09589-.797011 1.09589 .109589 2.610212 .109589C3.16812 .109589 3.606476-.169365 3.895392-.787049Z'/>
</defs>
<g id='page1'>
<use x='88.474921' y='0' xlink:href='#g2-82'/>
<use x='95.808546' y='0' xlink:href='#g2-111'/>
<use x='100.789885' y='0' xlink:href='#g2-117'/>
<use x='106.324702' y='0' xlink:href='#g2-103'/>
<use x='111.306041' y='0' xlink:href='#g2-104'/>
<use x='120.161733' y='0' xlink:href='#g2-101'/>
<use x='124.589584' y='0' xlink:href='#g2-115'/>
<use x='128.519302' y='0' xlink:href='#g2-116'/>
<use x='132.393676' y='0' xlink:href='#g2-105'/>
<use x='135.161084' y='0' xlink:href='#g2-109'/>
<use x='143.46331' y='0' xlink:href='#g2-97'/>
<use x='148.444649' y='0' xlink:href='#g2-116'/>
<use x='152.319022' y='0' xlink:href='#g2-105'/>
<use x='155.086431' y='0' xlink:href='#g2-111'/>
<use x='160.06777' y='0' xlink:href='#g2-110'/>
<use x='165.602587' y='0' xlink:href='#g2-58'/>
<use x='172.797834' y='0' xlink:href='#g2-111'/>
<use x='177.779173' y='0' xlink:href='#g2-110'/>
<use x='186.634865' y='0' xlink:href='#g0-70'/>
<use x='192.72316' y='1.771129' xlink:href='#g1-112'/>
<use x='196.830116' y='-.221384' xlink:href='#g3-54'/>
<use x='204.537361' y='0' xlink:href='#g2-111'/>
<use x='209.518701' y='0' xlink:href='#g2-102'/>
<use x='215.883732' y='0' xlink:href='#g2-49'/>
<use x='220.865071' y='0' xlink:href='#g2-48'/>
<use x='225.846411' y='0' xlink:href='#g2-50'/>
<use x='230.82775' y='0' xlink:href='#g2-52'/>
<use x='239.129964' y='0' xlink:href='#g2-98'/>
<use x='244.664781' y='0' xlink:href='#g2-105'/>
<use x='247.432189' y='0' xlink:href='#g2-116'/>
<use x='251.306563' y='0' xlink:href='#g2-115'/>
</g>
</svg>