<?xml version='1.0' encoding='UTF-8'?>
<!-- This file was generated by dvisvgm 2.13.1 -->
<svg version='1.1' xmlns='http://www.w3.org/2000/svg' xmlns:xlink='http://www.w3.org/1999/xlink' width='272.367505pt' height='30.186558pt' viewBox='35.671834 -10.460846 272.367505 30.186558'>
<defs>
<path id='g1-80' d='M4.084682-5.070984C4.443337-5.628892 4.921544-6.306351 5.678705-6.306351C6.156912-6.306351 6.296389-6.03736 6.316314-5.519303C6.336239-4.991283 6.515567-4.702366 6.874222-4.622665C6.495641-4.313823 5.997509-3.905355 5.997509-3.447073C5.997509-2.769614 6.973848-2.032379 6.973848-1.374844C6.973848-.896638 6.60523-.617684 6.166874-.617684C5.758406-.617684 5.529265-.747198 4.094645-1.215442H4.084682V-5.070984ZM3.965131-5.379826C3.73599-6.057285 3.118306-6.824408 2.391034-6.824408C1.454545-6.824408 .806974-6.206725 .56787-5.967621C.288917-5.688667 .059776-5.389788 .059776-4.991283C.059776-4.463263 .468244-4.104608 .777086-3.666252C.836862-3.58655 .9066-3.496887 .9066-3.39726C.9066-3.078456 .577833-2.759651 .268991-2.590286L.418431-2.480697C1.006227-2.779577 1.643836-3.178082 1.643836-3.815691C1.643836-4.433375 .707347-4.841843 .707347-5.489415C.707347-5.997509 1.135741-6.196762 1.723537-6.196762C2.719801-6.196762 3.297634-5.070984 3.297634-3.945205V-1.454545C3.118306-1.504359 2.948941-1.534247 2.819427-1.534247C1.96264-1.534247 1.514321-.727273 1.175592-.049813L1.275218 .159402C1.594022-.259029 1.942715-.797011 2.500623-.797011C2.669988-.797011 2.968867-.727273 3.297634-.627646C3.297634 .278954 3.237858 1.564134 3.028643 2.072229L3.237858 2.181818C3.556663 1.952677 4.134496 1.534247 4.194271 1.484433C4.11457 .86675 4.084682 .249066 4.084682-.368618L5.260274 .049813C5.3599 .079701 5.469489 .109589 5.569116 .109589C6.545455 .109589 7.481943-1.066002 7.481943-2.122042C7.481943-2.86924 6.734745-3.367372 6.734745-3.975093C6.734745-4.383562 7.511831-4.941469 8.009963-5.200498L7.960149-5.3599C7.840598-5.32005 7.711083-5.280199 7.591532-5.280199C6.814446-5.280199 7.501868-6.894147 6.366127-6.894147C5.429639-6.894147 4.443337-6.097136 3.965131-5.379826Z'/>
<path id='g1-81' d='M4.303861-5.937733C5.569116-5.937733 6.525529-5.449564 6.525529-3.287671C6.525529-2.669988 6.485679-2.022416 6.22665-1.454545C5.917808-.777086 5.280199-.368618 4.542964-.368618C3.606476-.368618 2.849315-.767123 1.982565-1.036115C1.872976-1.075965 1.703611-1.125778 1.58406-1.125778C2.032379-1.464508 2.600249-2.012453 2.600249-2.600249C2.600249-3.277709 1.643836-4.174346 1.643836-4.821918C1.643836-5.190535 2.042341-5.559153 2.34122-5.778331L2.132005-5.88792C1.474471-5.489415 .797011-4.83188 .797011-4.084682C.797011-3.835616 1.05604-3.576588 1.43462-3.01868C1.62391-2.729763 1.863014-2.400996 1.863014-2.062267C1.863014-1.564134 1.454545-1.205479 1.016189-1.05604C.687422-.727273 .388543-.368618 .109589 0L.268991 .159402C.488169-.159402 .836862-.368618 1.225405-.368618C1.594022-.368618 1.952677-.179328 2.281445-.049813C2.789539 .159402 3.327522 .268991 3.875467 .268991C4.303861 .268991 4.712329 .109589 5.090909-.089664L5.110834-.099626C5.50934 .278954 6.107098 .52802 6.635118 .687422L7.800747 .059776V-.209215C7.581569-.059776 7.332503 .059776 7.063512 .059776C6.674969 .059776 6.296389-.358655 6.007472-.67746C6.1868-.816936 6.356164-.966376 6.525529-1.115816C7.212951-1.733499 7.43213-2.948941 7.43213-3.975093C7.43213-5.290162 6.953923-6.425903 5.041096-6.595268C4.11457-6.674969 3.407223-6.694894 3.407223-7.003736C3.407223-7.0934 3.457036-7.193026 3.506849-7.262765H3.347447L2.769614-6.684932C2.660025-6.575342 2.660025-6.445828 2.660025-6.366127C2.660025-6.027397 3.138232-5.907846 3.447073-5.907846L4.303861-5.937733Z'/>
<path id='g2-30' d='M4.353674-6.674969C4.353674-6.694894 4.383562-6.804483 4.383562-6.814446S4.383562-6.914072 4.26401-6.914072C4.164384-6.914072 4.154421-6.884184 4.11457-6.714819L3.536737-4.41345C1.952677-4.363636 .488169-3.038605 .488169-1.683686C.488169-.737235 1.185554 .049813 2.400996 .119552C2.321295 .428394 2.251557 .747198 2.171856 1.05604C2.052304 1.524284 1.952677 1.902864 1.952677 1.932752C1.952677 2.032379 2.022416 2.042341 2.072229 2.042341S2.141968 2.032379 2.171856 2.002491C2.191781 1.982565 2.251557 1.743462 2.281445 1.603985L2.660025 .119552C4.26401 .069738 5.708593-1.275218 5.708593-2.610212C5.708593-3.39726 5.180573-4.313823 3.795766-4.41345L4.353674-6.674969ZM2.450809-.099626C1.853051-.129514 1.135741-.478207 1.135741-1.474471C1.135741-2.669988 1.992528-4.064757 3.476961-4.194271L2.450809-.099626ZM3.73599-4.194271C4.493151-4.154421 5.061021-3.696139 5.061021-2.819427C5.061021-1.643836 4.204234-.219178 2.709838-.099626L3.73599-4.194271Z'/>
<path id='g2-97' d='M3.716065-3.765878C3.536737-4.134496 3.247821-4.403487 2.799502-4.403487C1.633873-4.403487 .398506-2.938979 .398506-1.484433C.398506-.547945 .946451 .109589 1.723537 .109589C1.92279 .109589 2.420922 .069738 3.01868-.637609C3.098381-.219178 3.447073 .109589 3.92528 .109589C4.273973 .109589 4.503113-.119552 4.662516-.438356C4.83188-.797011 4.961395-1.404732 4.961395-1.424658C4.961395-1.524284 4.871731-1.524284 4.841843-1.524284C4.742217-1.524284 4.732254-1.484433 4.702366-1.344956C4.533001-.697385 4.353674-.109589 3.945205-.109589C3.676214-.109589 3.646326-.368618 3.646326-.56787C3.646326-.787049 3.666252-.86675 3.775841-1.305106C3.88543-1.723537 3.905355-1.823163 3.995019-2.201743L4.353674-3.596513C4.423412-3.875467 4.423412-3.895392 4.423412-3.935243C4.423412-4.104608 4.303861-4.204234 4.134496-4.204234C3.895392-4.204234 3.745953-3.985056 3.716065-3.765878ZM3.068493-1.185554C3.01868-1.006227 3.01868-.986301 2.86924-.816936C2.430884-.268991 2.022416-.109589 1.743462-.109589C1.24533-.109589 1.105853-.657534 1.105853-1.046077C1.105853-1.544209 1.424658-2.769614 1.653798-3.227895C1.96264-3.815691 2.410959-4.184309 2.809465-4.184309C3.457036-4.184309 3.596513-3.367372 3.596513-3.307597S3.576588-3.188045 3.566625-3.138232L3.068493-1.185554Z'/>
<path id='g2-108' d='M2.570361-6.804483C2.570361-6.814446 2.570361-6.914072 2.440847-6.914072C2.211706-6.914072 1.484433-6.834371 1.225405-6.814446C1.145704-6.804483 1.036115-6.794521 1.036115-6.60523C1.036115-6.495641 1.135741-6.495641 1.285181-6.495641C1.763387-6.495641 1.77335-6.405978 1.77335-6.326276L1.743462-6.127024L.488169-1.145704C.458281-1.036115 .438356-.966376 .438356-.806974C.438356-.239103 .876712 .109589 1.344956 .109589C1.673724 .109589 1.92279-.089664 2.092154-.448319C2.271482-.826899 2.391034-1.404732 2.391034-1.424658C2.391034-1.524284 2.30137-1.524284 2.271482-1.524284C2.171856-1.524284 2.161893-1.484433 2.132005-1.344956C1.96264-.697385 1.77335-.109589 1.374844-.109589C1.075965-.109589 1.075965-.428394 1.075965-.56787C1.075965-.806974 1.085928-.856787 1.135741-1.046077L2.570361-6.804483Z'/>
<path id='g2-118' d='M4.662516-3.706102C4.662516-4.244085 4.403487-4.403487 4.224159-4.403487C3.975093-4.403487 3.73599-4.144458 3.73599-3.92528C3.73599-3.795766 3.785803-3.73599 3.895392-3.626401C4.104608-3.427148 4.234122-3.16812 4.234122-2.809465C4.234122-2.391034 3.626401-.109589 2.460772-.109589C1.952677-.109589 1.723537-.458281 1.723537-.976339C1.723537-1.534247 1.992528-2.261519 2.30137-3.088418C2.371108-3.257783 2.420922-3.39726 2.420922-3.58655C2.420922-4.034869 2.102117-4.403487 1.603985-4.403487C.667497-4.403487 .288917-2.958904 .288917-2.86924C.288917-2.769614 .388543-2.769614 .408468-2.769614C.508095-2.769614 .518057-2.789539 .56787-2.948941C.856787-3.955168 1.285181-4.184309 1.574097-4.184309C1.653798-4.184309 1.823163-4.184309 1.823163-3.865504C1.823163-3.616438 1.723537-3.347447 1.653798-3.16812C1.215442-2.012453 1.085928-1.554172 1.085928-1.125778C1.085928-.049813 1.96264 .109589 2.420922 .109589C4.094645 .109589 4.662516-3.188045 4.662516-3.706102Z'/>
<path id='g3-60' d='M5.314072-3.668244C5.397758-3.710087 5.467497-3.758904 5.467497-3.849564C5.467497-3.947198 5.390785-4.02391 5.293151-4.02391C5.286177-4.02391 5.251308-4.02391 5.167621-3.982067L.9066-1.931756C.822914-1.889913 .753176-1.841096 .753176-1.750436C.753176-1.638854 .829888-1.603985 .899626-1.569116L5.153674 .481196C5.251308 .530012 5.279203 .530012 5.293151 .530012C5.390785 .530012 5.467497 .4533 5.467497 .355666C5.467497 .251059 5.383811 .209215 5.321046 .18132L1.318057-1.743462L5.314072-3.668244Z'/>
<path id='g3-66' d='M1.325031-.54396C1.262267-.306849 1.248319-.251059 .711333-.251059C.592777-.251059 .502117-.251059 .502117-.104608C.502117 0 .585803 0 .711333 0H3.410212C4.581818 0 5.481445-.801993 5.481445-1.492403C5.481445-1.987547 5.028144-2.412951 4.288917-2.489664C5.132752-2.643088 5.837111-3.173101 5.837111-3.772852C5.837111-4.302864 5.300125-4.763138 4.393524-4.763138H1.855044C1.72254-4.763138 1.63188-4.763138 1.63188-4.609714C1.63188-4.51208 1.715567-4.51208 1.855044-4.51208C1.862017-4.51208 1.994521-4.51208 2.12005-4.498132C2.266501-4.484184 2.280448-4.470237 2.280448-4.400498C2.280448-4.38655 2.280448-4.351681 2.252553-4.247073L1.325031-.54396ZM2.440847-2.57335L2.866252-4.274969C2.922042-4.491158 2.929016-4.51208 3.221918-4.51208H4.281943C4.993275-4.51208 5.153674-4.044832 5.153674-3.779826C5.153674-3.214944 4.519054-2.57335 3.584558-2.57335H2.440847ZM2.106102-.251059C1.889913-.251059 1.882939-.258032 1.882939-.320797C1.882939-.327771 1.882939-.36264 1.910834-.467248L2.39203-2.378082H3.870486C4.526027-2.378082 4.777086-1.945704 4.777086-1.54122C4.777086-.850809 4.072727-.251059 3.228892-.251059H2.106102Z'/>
<path id='g3-106' d='M3.061519-4.358655C3.061519-4.47721 2.970859-4.623661 2.782565-4.623661C2.580324-4.623661 2.39203-4.428394 2.39203-4.2401C2.39203-4.128518 2.475716-3.975093 2.670984-3.975093C2.859278-3.975093 3.061519-4.156413 3.061519-4.358655ZM1.583064 .341719C1.464508 .822914 1.094894 1.227397 .683437 1.227397C.592777 1.227397 .509091 1.21345 .432379 1.185554C.613699 1.101868 .669489 .934496 .669489 .829888C.669489 .662516 .536986 .571856 .397509 .571856C.18132 .571856 0 .760149 0 .983313C0 1.248319 .27198 1.422665 .690411 1.422665S1.924782 1.171606 2.140971 .320797L2.768618-2.175841C2.789539-2.252553 2.803487-2.315318 2.803487-2.419925C2.803487-2.803487 2.475716-3.075467 2.057285-3.075467C1.283188-3.075467 .836862-2.106102 .836862-2.008468C.836862-1.917808 .934496-1.917808 .955417-1.917808C1.039103-1.917808 1.046077-1.93873 1.094894-2.043337C1.26924-2.447821 1.63188-2.880199 2.036364-2.880199C2.21071-2.880199 2.273474-2.761644 2.273474-2.538481C2.273474-2.461768 2.259527-2.364134 2.252553-2.329265L1.583064 .341719Z'/>
<path id='g5-48' d='M3.598506-2.224658C3.598506-2.991781 3.507846-3.542715 3.187049-4.030884C2.970859-4.351681 2.538481-4.630635 1.980573-4.630635C.36264-4.630635 .36264-2.726775 .36264-2.224658S.36264 .139477 1.980573 .139477S3.598506-1.72254 3.598506-2.224658ZM1.980573-.055791C1.659776-.055791 1.234371-.244085 1.094894-.81594C.99726-1.227397 .99726-1.799253 .99726-2.315318C.99726-2.824408 .99726-3.354421 1.101868-3.737983C1.248319-4.288917 1.694645-4.435367 1.980573-4.435367C2.357161-4.435367 2.719801-4.20523 2.84533-3.800747C2.956912-3.424159 2.963885-2.922042 2.963885-2.315318C2.963885-1.799253 2.963885-1.283188 2.873225-.843836C2.733748-.209215 2.259527-.055791 1.980573-.055791Z'/>
<path id='g5-49' d='M2.336239-4.435367C2.336239-4.623661 2.322291-4.630635 2.127024-4.630635C1.680697-4.191283 1.046077-4.184309 .760149-4.184309V-3.93325C.927522-3.93325 1.387796-3.93325 1.771357-4.128518V-.571856C1.771357-.341719 1.771357-.251059 1.073973-.251059H.808966V0C.934496-.006974 1.792279-.027895 2.050311-.027895C2.266501-.027895 3.145205-.006974 3.29863 0V-.251059H3.033624C2.336239-.251059 2.336239-.341719 2.336239-.571856V-4.435367Z'/>
<path id='g5-97' d='M3.110336-1.868991C3.110336-2.238605 3.110336-2.503611 2.789539-2.761644C2.503611-2.998755 2.168867-3.110336 1.75741-3.110336C1.094894-3.110336 .627646-2.859278 .627646-2.433873C.627646-2.21071 .781071-2.092154 .962391-2.092154C1.150685-2.092154 1.290162-2.231631 1.290162-2.419925C1.290162-2.538481 1.234371-2.684932 1.046077-2.740722C1.297136-2.915068 1.701619-2.915068 1.743462-2.915068C2.133998-2.915068 2.559402-2.657036 2.559402-2.071233V-1.855044C2.175841-1.841096 1.715567-1.820174 1.206476-1.63188C.578829-1.401743 .383562-1.018182 .383562-.704359C.383562-.104608 1.108842 .069738 1.603985 .069738C2.161893 .069738 2.489664-.244085 2.636115-.516065C2.66401-.230137 2.852304 .034869 3.173101 .034869C3.187049 .034869 3.863512 .034869 3.863512-.627646V-1.011208H3.626401V-.63462C3.626401-.564882 3.626401-.230137 3.368369-.230137S3.110336-.557908 3.110336-.648568V-1.868991ZM2.559402-.983313C2.559402-.313823 1.973599-.125529 1.659776-.125529C1.30411-.125529 .969365-.36264 .969365-.704359C.969365-1.08792 1.30411-1.624907 2.559402-1.673724V-.983313Z'/>
<path id='g5-100' d='M2.48269-4.763138V-4.51208C2.949938-4.51208 3.005729-4.463263 3.005729-4.121544V-2.677958C2.747696-2.929016 2.412951-3.075467 2.02939-3.075467C1.101868-3.075467 .320797-2.378082 .320797-1.499377C.320797-.627646 1.060025 .069738 1.945704 .069738C2.517559 .069738 2.859278-.237111 2.977833-.36264V.069738L4.051806 0V-.251059C3.584558-.251059 3.528767-.299875 3.528767-.641594V-4.839851L2.48269-4.763138ZM2.977833-.732254C2.796513-.404483 2.440847-.125529 1.987547-.125529C1.597011-.125529 1.318057-.355666 1.17858-.557908C1.039103-.767123 .955417-1.046077 .955417-1.492403C.955417-1.652802 .955417-2.175841 1.241345-2.503611C1.520299-2.817435 1.862017-2.880199 2.064259-2.880199C2.399004-2.880199 2.698879-2.726775 2.894147-2.475716C2.977833-2.364134 2.977833-2.357161 2.977833-2.224658V-.732254Z'/>
<path id='g5-101' d='M3.068493-1.590037C3.214944-1.590037 3.263761-1.590037 3.263761-1.743462C3.263761-2.357161 2.922042-3.110336 1.882939-3.110336C.969365-3.110336 .27198-2.385056 .27198-1.527273C.27198-.641594 1.046077 .069738 1.973599 .069738C2.915068 .069738 3.263761-.683437 3.263761-.836862C3.263761-.864757 3.249813-.934496 3.145205-.934496C3.054545-.934496 3.040598-.892653 3.019676-.822914C2.803487-.258032 2.273474-.153425 2.022416-.153425C1.694645-.153425 1.380822-.299875 1.171606-.564882C.913574-.892653 .9066-1.318057 .9066-1.590037H3.068493ZM.913574-1.771357C.990286-2.75467 1.617933-2.915068 1.882939-2.915068C2.740722-2.915068 2.768618-1.945704 2.775592-1.771357H.913574Z'/>
<path id='g5-102' d='M1.436613-2.75467H2.308344V-3.005729H1.408717V-3.7868C1.408717-4.42142 1.785305-4.714321 2.085181-4.714321C2.147945-4.714321 2.217684-4.700374 2.287422-4.679452C2.189788-4.623661 2.133998-4.51208 2.133998-4.400498C2.133998-4.212204 2.266501-4.079701 2.454795-4.079701S2.775592-4.212204 2.775592-4.400498C2.775592-4.700374 2.475716-4.909589 2.092154-4.909589C1.54122-4.909589 .913574-4.519054 .913574-3.7868V-3.005729H.313823V-2.75467H.913574V-.550934C.913574-.251059 .843836-.251059 .390535-.251059V0C.425405 0 .899626-.027895 1.185554-.027895C1.48543-.027895 1.792279-.013948 2.092154 0V-.251059H1.952677C1.436613-.251059 1.436613-.327771 1.436613-.564882V-2.75467Z'/>
<path id='g5-105' d='M1.471482-4.302864C1.471482-4.505106 1.30411-4.700374 1.066999-4.700374C.857783-4.700374 .669489-4.533001 .669489-4.302864C.669489-4.051806 .871731-3.898381 1.066999-3.898381C1.290162-3.898381 1.471482-4.072727 1.471482-4.302864ZM.411457-2.998755V-2.747696C.850809-2.747696 .913574-2.705853 .913574-2.364134V-.550934C.913574-.251059 .843836-.251059 .390535-.251059V0C.404483 0 .892653-.027895 1.171606-.027895C1.415691-.027895 1.66675-.020922 1.910834 0V-.251059C1.506351-.251059 1.436613-.251059 1.436613-.54396V-3.075467L.411457-2.998755Z'/>
<path id='g5-108' d='M1.436613-4.839851L.390535-4.763138V-4.51208C.857783-4.51208 .913574-4.463263 .913574-4.121544V-.550934C.913574-.251059 .843836-.251059 .390535-.251059V0C.404483 0 .892653-.027895 1.171606-.027895C1.436613-.027895 1.694645-.020922 1.959651 0V-.251059C1.506351-.251059 1.436613-.251059 1.436613-.550934V-4.839851Z'/>
<path id='g5-109' d='M5.732503-2.113076C5.732503-2.719801 5.432628-3.075467 4.686426-3.075467C4.135492-3.075467 3.758904-2.775592 3.57061-2.426899C3.431133-2.922042 3.054545-3.075467 2.545455-3.075467C1.973599-3.075467 1.603985-2.761644 1.408717-2.399004H1.401743V-3.075467L.376588-2.998755V-2.747696C.843836-2.747696 .899626-2.698879 .899626-2.357161V-.550934C.899626-.251059 .829888-.251059 .376588-.251059V0C.390535 0 .878705-.027895 1.171606-.027895C1.429639-.027895 1.910834-.006974 1.973599 0V-.251059C1.520299-.251059 1.45056-.251059 1.45056-.550934V-1.806227C1.45056-2.538481 2.02939-2.880199 2.489664-2.880199C2.977833-2.880199 3.040598-2.496638 3.040598-2.140971V-.550934C3.040598-.251059 2.970859-.251059 2.517559-.251059V0C2.531507 0 3.019676-.027895 3.312578-.027895C3.57061-.027895 4.051806-.006974 4.11457 0V-.251059C3.66127-.251059 3.591532-.251059 3.591532-.550934V-1.806227C3.591532-2.538481 4.170361-2.880199 4.630635-2.880199C5.118804-2.880199 5.181569-2.496638 5.181569-2.140971V-.550934C5.181569-.251059 5.111831-.251059 4.658531-.251059V0C4.672478 0 5.160648-.027895 5.453549-.027895C5.711582-.027895 6.192777-.006974 6.255542 0V-.251059C5.802242-.251059 5.732503-.251059 5.732503-.550934V-2.113076Z'/>
<path id='g5-110' d='M3.591532-2.113076C3.591532-2.719801 3.291656-3.075467 2.545455-3.075467C1.973599-3.075467 1.603985-2.761644 1.408717-2.399004H1.401743V-3.075467L.376588-2.998755V-2.747696C.843836-2.747696 .899626-2.698879 .899626-2.357161V-.550934C.899626-.251059 .829888-.251059 .376588-.251059V0C.390535 0 .878705-.027895 1.171606-.027895C1.429639-.027895 1.910834-.006974 1.973599 0V-.251059C1.520299-.251059 1.45056-.251059 1.45056-.550934V-1.806227C1.45056-2.538481 2.02939-2.880199 2.489664-2.880199C2.977833-2.880199 3.040598-2.496638 3.040598-2.140971V-.550934C3.040598-.251059 2.970859-.251059 2.517559-.251059V0C2.531507 0 3.019676-.027895 3.312578-.027895C3.57061-.027895 4.051806-.006974 4.11457 0V-.251059C3.66127-.251059 3.591532-.251059 3.591532-.550934V-2.113076Z'/>
<path id='g5-111' d='M3.689166-1.48543C3.689166-2.357161 2.942964-3.110336 1.980573-3.110336S.27198-2.357161 .27198-1.48543C.27198-.620672 1.039103 .069738 1.980573 .069738S3.689166-.620672 3.689166-1.48543ZM1.980573-.153425C1.72254-.153425 1.345953-.237111 1.115816-.578829C.927522-.864757 .9066-1.227397 .9066-1.548194C.9066-1.84807 .913574-2.259527 1.157659-2.559402C1.332005-2.761644 1.624907-2.915068 1.980573-2.915068C2.39203-2.915068 2.684932-2.719801 2.838356-2.503611C3.033624-2.231631 3.054545-1.882939 3.054545-1.548194S3.033624-.843836 2.831382-.557908C2.643088-.292902 2.322291-.153425 1.980573-.153425Z'/>
<path id='g5-112' d='M1.93873 1.101868C1.48543 1.101868 1.415691 1.101868 1.415691 .801993V-.334745C1.45056-.299875 1.778331 .069738 2.364134 .069738C3.284682 .069738 4.072727-.620672 4.072727-1.506351C4.072727-2.364134 3.361395-3.075467 2.475716-3.075467C2.078207-3.075467 1.673724-2.929016 1.387796-2.650062V-3.075467L.341719-2.998755V-2.747696C.829888-2.747696 .864757-2.712827 .864757-2.419925V.801993C.864757 1.101868 .795019 1.101868 .341719 1.101868V1.352927C.355666 1.352927 .843836 1.325031 1.136737 1.325031C1.39477 1.325031 1.875965 1.345953 1.93873 1.352927V1.101868ZM1.415691-2.322291C1.624907-2.670984 2.02939-2.852304 2.399004-2.852304C2.984807-2.852304 3.438107-2.238605 3.438107-1.506351C3.438107-.711333 2.915068-.125529 2.322291-.125529C1.708593-.125529 1.436613-.662516 1.415691-.704359V-2.322291Z'/>
<path id='g5-114' d='M1.387796-1.590037C1.387796-2.175841 1.659776-2.880199 2.322291-2.880199C2.259527-2.831382 2.203736-2.740722 2.203736-2.629141C2.203736-2.399004 2.385056-2.308344 2.517559-2.308344C2.684932-2.308344 2.838356-2.419925 2.838356-2.629141C2.838356-2.866252 2.615193-3.075467 2.287422-3.075467C1.93873-3.075467 1.555168-2.859278 1.345953-2.329265H1.338979V-3.075467L.341719-2.998755V-2.747696C.808966-2.747696 .864757-2.698879 .864757-2.357161V-.550934C.864757-.251059 .795019-.251059 .341719-.251059V0C.376588 0 .850809-.027895 1.136737-.027895C1.436613-.027895 1.743462-.013948 2.043337 0V-.251059H1.903861C1.387796-.251059 1.387796-.327771 1.387796-.564882V-1.590037Z'/>
<path id='g0-80' d='M3.249813-3.549689C3.528767-3.947198 3.898381-4.414446 4.470237-4.414446C4.818929-4.414446 4.937484-4.2401 4.958406-3.863512C4.972354-3.486924 5.111831-3.291656 5.383811-3.235866C5.090909-3.012702 4.714321-2.733748 4.714321-2.412951C4.714321-2.085181 5.181569-1.652802 5.348941-1.325031C5.397758-1.220423 5.460523-1.066999 5.460523-.962391C5.460523-.641594 5.181569-.432379 4.839851-.432379C4.526027-.432379 4.337733-.523039 3.263761-.850809H3.249813V-3.549689ZM3.159153-3.765878C2.998755-4.2401 2.510585-4.777086 1.959651-4.777086C1.248319-4.777086 .753176-4.344707 .571856-4.177335C.355666-3.982067 .18132-3.772852 .18132-3.493898C.18132-3.124284 .502117-2.866252 .732254-2.566376C.774097-2.510585 .829888-2.447821 .829888-2.378082C.829888-2.161893 .578829-1.931756 .341719-1.8132L.460274-1.736488C.913574-1.945704 1.387796-2.224658 1.387796-2.670984C1.387796-3.096389 .676463-3.38929 .676463-3.84259C.676463-4.184309 .983313-4.337733 1.45056-4.337733C2.203736-4.337733 2.650062-3.556663 2.650062-2.761644V-1.018182C2.517559-1.053051 2.385056-1.073973 2.287422-1.073973C1.638854-1.073973 1.297136-.523039 1.03213-.034869L1.108842 .111582C1.3599-.18132 1.624907-.557908 2.043337-.557908C2.175841-.557908 2.399004-.509091 2.650062-.439352C2.650062 .195268 2.601245 1.080946 2.447821 1.45056L2.608219 1.527273C2.852304 1.366874 3.291656 1.073973 3.333499 1.039103C3.277709 .606725 3.249813 .174346 3.249813-.258032L4.14944 .034869C4.226152 .055791 4.309838 .076712 4.38655 .076712C5.139726 .076712 5.844085-.760149 5.844085-1.48543C5.844085-2.015442 5.272229-2.364134 5.272229-2.782565C5.272229-3.068493 5.87198-3.459029 6.248568-3.640349L6.206725-3.75193C6.123039-3.724035 6.025405-3.696139 5.927771-3.696139C5.348941-3.696139 5.858032-4.825903 4.993275-4.825903C4.198257-4.825903 3.640349-4.247073 3.159153-3.765878Z'/>
<path id='g0-81' d='M3.424159-4.156413C4.393524-4.156413 5.118804-3.814695 5.118804-2.30137C5.118804-1.868991 5.090909-1.415691 4.895641-1.018182C4.665504-.54396 4.170361-.258032 3.605479-.258032C2.894147-.258032 2.308344-.530012 1.652802-.72528C1.569116-.746202 1.436613-.788045 1.345953-.788045C1.694645-1.025156 2.127024-1.401743 2.127024-1.820174C2.127024-2.175841 1.645828-2.66401 1.492403-3.033624C1.443587-3.145205 1.39477-3.256787 1.39477-3.375342C1.39477-3.633375 1.701619-3.884433 1.924782-4.044832L1.771357-4.121544C1.255293-3.84259 .746202-3.375342 .746202-2.859278C.746202-2.601245 1.094894-2.475716 1.478456-1.743462C1.527273-1.645828 1.562142-1.548194 1.562142-1.443587C1.562142-1.094894 1.248319-.843836 .913574-.739228C.662516-.509091 .439352-.258032 .223163 0L.348692 .111582C.516065-.111582 .781071-.258032 1.073973-.258032C1.3599-.258032 1.624907-.125529 1.882939-.034869C2.266501 .104608 2.677958 .188294 3.096389 .188294C3.424159 .188294 3.737983 .076712 4.02391-.062765L4.037858-.069738C4.344707 .195268 4.791034 .369614 5.202491 .481196L6.095143 .041843V-.146451C5.927771-.041843 5.739477 .041843 5.530262 .041843C5.230386 .041843 4.937484-.251059 4.728269-.474222C4.860772-.571856 4.993275-.676463 5.118804-.781071C5.648817-1.21345 5.809215-2.064259 5.809215-2.782565C5.809215-3.703113 5.446575-4.498132 3.989041-4.616687C3.291656-4.672478 2.740722-4.686426 2.740722-4.902615C2.740722-4.96538 2.782565-5.035118 2.817435-5.083935H2.698879L2.252553-4.679452C2.168867-4.60274 2.168867-4.51208 2.168867-4.456289C2.168867-4.219178 2.545455-4.128518 2.768618-4.135492L3.424159-4.156413Z'/>
<path id='g4-40' d='M3.297634 2.391034C3.297634 2.361146 3.297634 2.34122 3.128269 2.171856C1.882939 .916563 1.564134-.966376 1.564134-2.49066C1.564134-4.224159 1.942715-5.957659 3.16812-7.202989C3.297634-7.32254 3.297634-7.342466 3.297634-7.372354C3.297634-7.442092 3.257783-7.47198 3.198007-7.47198C3.098381-7.47198 2.201743-6.794521 1.613948-5.529265C1.105853-4.433375 .986301-3.327522 .986301-2.49066C.986301-1.713574 1.09589-.508095 1.643836 .617684C2.241594 1.843088 3.098381 2.49066 3.198007 2.49066C3.257783 2.49066 3.297634 2.460772 3.297634 2.391034Z'/>
<path id='g4-41' d='M2.879203-2.49066C2.879203-3.267746 2.769614-4.473225 2.221669-5.599004C1.62391-6.824408 .767123-7.47198 .667497-7.47198C.607721-7.47198 .56787-7.43213 .56787-7.372354C.56787-7.342466 .56787-7.32254 .757161-7.143213C1.733499-6.156912 2.30137-4.572852 2.30137-2.49066C2.30137-.787049 1.932752 .966376 .697385 2.221669C.56787 2.34122 .56787 2.361146 .56787 2.391034C.56787 2.450809 .607721 2.49066 .667497 2.49066C.767123 2.49066 1.663761 1.8132 2.251557 .547945C2.759651-.547945 2.879203-1.653798 2.879203-2.49066Z'/>
<path id='g4-61' d='M6.844334-3.257783C6.993773-3.257783 7.183064-3.257783 7.183064-3.457036S6.993773-3.656289 6.854296-3.656289H.886675C.747198-3.656289 .557908-3.656289 .557908-3.457036S.747198-3.257783 .896638-3.257783H6.844334ZM6.854296-1.325031C6.993773-1.325031 7.183064-1.325031 7.183064-1.524284S6.993773-1.723537 6.844334-1.723537H.896638C.747198-1.723537 .557908-1.723537 .557908-1.524284S.747198-1.325031 .886675-1.325031H6.854296Z'/>
<path id='g4-103' d='M2.211706-1.713574C1.344956-1.713574 1.344956-2.709838 1.344956-2.938979C1.344956-3.20797 1.354919-3.526775 1.504359-3.775841C1.58406-3.895392 1.8132-4.174346 2.211706-4.174346C3.078456-4.174346 3.078456-3.178082 3.078456-2.948941C3.078456-2.67995 3.068493-2.361146 2.919054-2.11208C2.839352-1.992528 2.610212-1.713574 2.211706-1.713574ZM1.05604-1.325031C1.05604-1.364882 1.05604-1.594022 1.225405-1.793275C1.613948-1.514321 2.022416-1.484433 2.211706-1.484433C3.138232-1.484433 3.825654-2.171856 3.825654-2.938979C3.825654-3.307597 3.666252-3.676214 3.417186-3.905355C3.775841-4.244085 4.134496-4.293898 4.313823-4.293898C4.333748-4.293898 4.383562-4.293898 4.41345-4.283935C4.303861-4.244085 4.254047-4.134496 4.254047-4.014944C4.254047-3.845579 4.383562-3.726027 4.542964-3.726027C4.64259-3.726027 4.83188-3.795766 4.83188-4.024907C4.83188-4.194271 4.712329-4.513076 4.323786-4.513076C4.124533-4.513076 3.686177-4.4533 3.267746-4.044832C2.849315-4.373599 2.430884-4.403487 2.211706-4.403487C1.285181-4.403487 .597758-3.716065 .597758-2.948941C.597758-2.510585 .816936-2.132005 1.066002-1.92279C.936488-1.77335 .757161-1.444583 .757161-1.09589C.757161-.787049 .886675-.408468 1.195517-.209215C.597758-.039851 .278954 .388543 .278954 .787049C.278954 1.504359 1.265255 2.052304 2.480697 2.052304C3.656289 2.052304 4.692403 1.544209 4.692403 .767123C4.692403 .418431 4.552927-.089664 4.044832-.368618C3.516812-.647572 2.938979-.647572 2.331258-.647572C2.082192-.647572 1.653798-.647572 1.58406-.657534C1.265255-.697385 1.05604-1.006227 1.05604-1.325031ZM2.49066 1.823163C1.484433 1.823163 .797011 1.315068 .797011 .787049C.797011 .328767 1.175592-.039851 1.613948-.069738H2.201743C3.058531-.069738 4.174346-.069738 4.174346 .787049C4.174346 1.325031 3.466999 1.823163 2.49066 1.823163Z'/>
<path id='g4-108' d='M1.763387-6.914072L.328767-6.804483V-6.495641C1.026152-6.495641 1.105853-6.425903 1.105853-5.937733V-.757161C1.105853-.308842 .996264-.308842 .328767-.308842V0C.657534-.009963 1.185554-.029888 1.43462-.029888S2.171856-.009963 2.540473 0V-.308842C1.872976-.308842 1.763387-.308842 1.763387-.757161V-6.914072Z'/>
<path id='g4-111' d='M4.692403-2.132005C4.692403-3.407223 3.696139-4.463263 2.49066-4.463263C1.24533-4.463263 .278954-3.377335 .278954-2.132005C.278954-.846824 1.315068 .109589 2.480697 .109589C3.686177 .109589 4.692403-.86675 4.692403-2.132005ZM2.49066-.139477C2.062267-.139477 1.62391-.348692 1.354919-.806974C1.105853-1.24533 1.105853-1.853051 1.105853-2.211706C1.105853-2.600249 1.105853-3.138232 1.344956-3.576588C1.613948-4.034869 2.082192-4.244085 2.480697-4.244085C2.919054-4.244085 3.347447-4.024907 3.606476-3.596513S3.865504-2.590286 3.865504-2.211706C3.865504-1.853051 3.865504-1.315068 3.646326-.876712C3.427148-.428394 2.988792-.139477 2.49066-.139477Z'/>
<path id='g6-88' d='M12.612702 13.947696L13.818182 10.759651H13.569116C13.180573 11.795766 12.124533 12.473225 10.978829 12.772105C10.769614 12.821918 9.793275 13.080946 7.880448 13.080946H1.872976L6.94396 7.13325C7.013699 7.053549 7.033624 7.023661 7.033624 6.973848C7.033624 6.953923 7.033624 6.924035 6.963885 6.824408L2.321295 .478207H7.780822C9.115816 .478207 10.022416 .617684 10.11208 .637609C10.650062 .71731 11.516812 .886675 12.303861 1.384807C12.552927 1.544209 13.230386 1.992528 13.569116 2.799502H13.818182L12.612702 0H.836862C.607721 0 .597758 .009963 .56787 .069738C.557908 .099626 .557908 .288917 .557908 .398506L5.828144 7.611457L.667497 13.65878C.56787 13.778331 .56787 13.828144 .56787 13.838107C.56787 13.947696 .657534 13.947696 .836862 13.947696H12.612702Z'/>
</defs>
<g id='page1'>
<use x='52.625819' y='-9.464569' xlink:href='#g6-88'/>
<use x='35.671834' y='11.982881' xlink:href='#g0-80'/>
<use x='45.005123' y='11.982881' xlink:href='#g5-112'/>
<use x='49.405312' y='11.982881' xlink:href='#g5-114'/>
<use x='52.518655' y='11.982881' xlink:href='#g5-105'/>
<use x='54.774101' y='11.982881' xlink:href='#g5-109'/>
<use x='61.319033' y='11.982881' xlink:href='#g5-101'/>
<use x='67.545717' y='11.982881' xlink:href='#g5-105'/>
<use x='69.801162' y='11.982881' xlink:href='#g5-100'/>
<use x='74.201352' y='11.982881' xlink:href='#g5-101'/>
<use x='77.743643' y='11.982881' xlink:href='#g5-97'/>
<use x='81.714884' y='11.982881' xlink:href='#g5-108'/>
<use x='39.950543' y='19.197966' xlink:href='#g5-111'/>
<use x='43.921783' y='19.197966' xlink:href='#g5-102'/>
<use x='49.076101' y='19.197966' xlink:href='#g5-110'/>
<use x='53.47629' y='19.197966' xlink:href='#g5-111'/>
<use x='57.447531' y='19.197966' xlink:href='#g5-114'/>
<use x='60.560874' y='19.197966' xlink:href='#g5-109'/>
<use x='67.10579' y='19.197966' xlink:href='#g3-60'/>
<use x='73.33247' y='19.197966' xlink:href='#g3-66'/>
<use x='85.630698' y='0' xlink:href='#g2-118'/>
<use x='90.817268' y='0' xlink:href='#g2-97'/>
<use x='96.083422' y='0' xlink:href='#g2-108'/>
<use x='99.056074' y='1.494381' xlink:href='#g0-80'/>
<use x='106.203101' y='0' xlink:href='#g4-40'/>
<use x='110.077474' y='0' xlink:href='#g2-30'/>
<use x='116.013561' y='1.494381' xlink:href='#g5-48'/>
<use x='119.984802' y='1.494381' xlink:href='#g3-106'/>
<use x='124.182619' y='0' xlink:href='#g4-41'/>
<use x='129.717392' y='0' xlink:href='#g4-108'/>
<use x='132.484801' y='0' xlink:href='#g4-111'/>
<use x='137.46614' y='0' xlink:href='#g4-103'/>
<use x='144.246222' y='0' xlink:href='#g4-40'/>
<use x='148.120594' y='0' xlink:href='#g1-80'/>
<use x='156.364948' y='0' xlink:href='#g4-41'/>
<use x='172.969306' y='0' xlink:href='#g4-61'/>
<use x='200.437334' y='-9.464569' xlink:href='#g6-88'/>
<use x='183.485386' y='11.982881' xlink:href='#g0-81'/>
<use x='192.814598' y='11.982881' xlink:href='#g5-112'/>
<use x='197.214787' y='11.982881' xlink:href='#g5-114'/>
<use x='200.32813' y='11.982881' xlink:href='#g5-105'/>
<use x='202.583576' y='11.982881' xlink:href='#g5-109'/>
<use x='209.128509' y='11.982881' xlink:href='#g5-101'/>
<use x='215.355192' y='11.982881' xlink:href='#g5-105'/>
<use x='217.610638' y='11.982881' xlink:href='#g5-100'/>
<use x='222.010827' y='11.982881' xlink:href='#g5-101'/>
<use x='225.553119' y='11.982881' xlink:href='#g5-97'/>
<use x='229.524359' y='11.982881' xlink:href='#g5-108'/>
<use x='187.762058' y='19.197966' xlink:href='#g5-111'/>
<use x='191.733298' y='19.197966' xlink:href='#g5-102'/>
<use x='196.887617' y='19.197966' xlink:href='#g5-110'/>
<use x='201.287806' y='19.197966' xlink:href='#g5-111'/>
<use x='205.259046' y='19.197966' xlink:href='#g5-114'/>
<use x='208.372389' y='19.197966' xlink:href='#g5-109'/>
<use x='214.917306' y='19.197966' xlink:href='#g3-60'/>
<use x='221.143985' y='19.197966' xlink:href='#g3-66'/>
<use x='233.440176' y='0' xlink:href='#g2-118'/>
<use x='238.626747' y='0' xlink:href='#g2-97'/>
<use x='243.892901' y='0' xlink:href='#g2-108'/>
<use x='246.865552' y='1.494381' xlink:href='#g0-81'/>
<use x='254.008505' y='0' xlink:href='#g4-40'/>
<use x='257.882879' y='0' xlink:href='#g2-30'/>
<use x='263.818966' y='1.494381' xlink:href='#g5-49'/>
<use x='267.790206' y='1.494381' xlink:href='#g3-106'/>
<use x='271.988023' y='0' xlink:href='#g4-41'/>
<use x='277.522797' y='0' xlink:href='#g4-108'/>
<use x='280.290205' y='0' xlink:href='#g4-111'/>
<use x='285.271544' y='0' xlink:href='#g4-103'/>
<use x='292.051626' y='0' xlink:href='#g4-40'/>
<use x='295.925998' y='0' xlink:href='#g1-81'/>
<use x='304.164965' y='0' xlink:href='#g4-41'/>
</g>
</svg>