<?xml version='1.0' encoding='UTF-8'?>
<!-- This file was generated by dvisvgm 2.13.1 -->
<svg version='1.1' xmlns='http://www.w3.org/2000/svg' xmlns:xlink='http://www.w3.org/1999/xlink' width='324.450855pt' height='20.810852pt' viewBox='9.630238 -18.87367 324.450855 20.810852'>
<defs>
<path id='g0-12' d='M3.287671-3.985056C3.745953-3.985056 3.815691-3.855542 3.815691-3.447073V-.757161C3.815691-.308842 3.706102-.308842 3.038605-.308842V0C3.367372-.009963 3.895392-.029888 4.144458-.029888S4.881694-.009963 5.250311 0V-.308842C4.582814-.308842 4.473225-.308842 4.473225-.757161V-4.41345L3.217933-4.323786C3.058531-4.313823 3.048568-4.303861 3.038605-4.303861C3.01868-4.293898 2.998755-4.293898 2.859278-4.293898H1.683686V-5.419676C1.683686-6.405978 2.540473-6.804483 3.158157-6.804483C3.457036-6.804483 3.815691-6.704857 4.014944-6.475716C3.606476-6.455791 3.5467-6.176837 3.5467-6.017435C3.5467-5.688667 3.805729-5.559153 3.995019-5.559153C4.224159-5.559153 4.4533-5.718555 4.4533-6.017435C4.4533-6.60523 3.905355-7.023661 3.16812-7.023661C2.241594-7.023661 1.05604-6.515567 1.05604-5.429639V-4.293898H.268991V-3.985056H1.05604V-.757161C1.05604-.308842 .946451-.308842 .278954-.308842V0C.607721-.009963 1.135741-.029888 1.384807-.029888S2.122042-.009963 2.49066 0V-.308842C1.823163-.308842 1.713574-.308842 1.713574-.757161V-3.985056H3.287671Z'/>
<path id='g0-45' d='M2.749689-1.863014V-2.440847H.109589V-1.863014H2.749689Z'/>
<path id='g0-46' d='M1.912827-.52802C1.912827-.816936 1.673724-1.05604 1.384807-1.05604S.856787-.816936 .856787-.52802S1.09589 0 1.384807 0S1.912827-.239103 1.912827-.52802Z'/>
<path id='g0-78' d='M2.311333-6.674969C2.221669-6.794521 2.211706-6.804483 2.022416-6.804483H.328767V-6.495641H.617684C.767123-6.495641 .966376-6.485679 1.115816-6.475716C1.344956-6.445828 1.354919-6.435866 1.354919-6.246575V-1.046077C1.354919-.777086 1.354919-.308842 .328767-.308842V0C.67746-.009963 1.165629-.029888 1.494396-.029888S2.311333-.009963 2.660025 0V-.308842C1.633873-.308842 1.633873-.777086 1.633873-1.046077V-6.22665C1.683686-6.176837 1.693649-6.166874 1.733499-6.107098L5.798257-.129514C5.88792-.009963 5.897883 0 5.967621 0C6.107098 0 6.107098-.069738 6.107098-.259029V-5.758406C6.107098-6.027397 6.107098-6.495641 7.13325-6.495641V-6.804483C6.784558-6.794521 6.296389-6.774595 5.967621-6.774595S5.150685-6.794521 4.801993-6.804483V-6.495641C5.828144-6.495641 5.828144-6.027397 5.828144-5.758406V-1.504359L2.311333-6.674969Z'/>
<path id='g0-83' d='M3.476961-3.865504L2.201743-4.174346C1.58406-4.323786 1.195517-4.861768 1.195517-5.439601C1.195517-6.136986 1.733499-6.744707 2.510585-6.744707C4.174346-6.744707 4.393524-5.110834 4.4533-4.662516C4.463263-4.60274 4.463263-4.542964 4.572852-4.542964C4.702366-4.542964 4.702366-4.592777 4.702366-4.782067V-6.784558C4.702366-6.953923 4.702366-7.023661 4.592777-7.023661C4.523039-7.023661 4.513076-7.013699 4.443337-6.894147L4.094645-6.326276C3.795766-6.615193 3.387298-7.023661 2.500623-7.023661C1.39477-7.023661 .557908-6.146949 .557908-5.090909C.557908-4.26401 1.085928-3.536737 1.863014-3.267746C1.972603-3.227895 2.480697-3.108344 3.178082-2.938979C3.447073-2.86924 3.745953-2.799502 4.024907-2.430884C4.234122-2.171856 4.333748-1.843088 4.333748-1.514321C4.333748-.806974 3.835616-.089664 2.998755-.089664C2.709838-.089664 1.952677-.139477 1.424658-.627646C.846824-1.165629 .816936-1.803238 .806974-2.161893C.797011-2.261519 .71731-2.261519 .687422-2.261519C.557908-2.261519 .557908-2.191781 .557908-2.012453V-.019925C.557908 .14944 .557908 .219178 .667497 .219178C.737235 .219178 .747198 .199253 .816936 .089664C.816936 .079701 .846824 .049813 1.175592-.478207C1.484433-.139477 2.122042 .219178 3.008717 .219178C4.174346 .219178 4.971357-.757161 4.971357-1.853051C4.971357-2.849315 4.313823-3.666252 3.476961-3.865504Z'/>
<path id='g0-97' d='M3.317559-.757161C3.35741-.358655 3.626401 .059776 4.094645 .059776C4.303861 .059776 4.911582-.079701 4.911582-.886675V-1.444583H4.662516V-.886675C4.662516-.308842 4.41345-.249066 4.303861-.249066C3.975093-.249066 3.935243-.697385 3.935243-.747198V-2.739726C3.935243-3.158157 3.935243-3.5467 3.576588-3.915318C3.188045-4.303861 2.689913-4.463263 2.211706-4.463263C1.39477-4.463263 .707347-3.995019 .707347-3.337484C.707347-3.038605 .9066-2.86924 1.165629-2.86924C1.444583-2.86924 1.62391-3.068493 1.62391-3.327522C1.62391-3.447073 1.574097-3.775841 1.115816-3.785803C1.384807-4.134496 1.872976-4.244085 2.191781-4.244085C2.67995-4.244085 3.247821-3.855542 3.247821-2.968867V-2.600249C2.739726-2.570361 2.042341-2.540473 1.414695-2.241594C.667497-1.902864 .418431-1.384807 .418431-.946451C.418431-.139477 1.384807 .109589 2.012453 .109589C2.669988 .109589 3.128269-.288917 3.317559-.757161ZM3.247821-2.391034V-1.39477C3.247821-.448319 2.530511-.109589 2.082192-.109589C1.594022-.109589 1.185554-.458281 1.185554-.956413C1.185554-1.504359 1.603985-2.331258 3.247821-2.391034Z'/>
<path id='g0-98' d='M1.713574-3.755915V-6.914072L.278954-6.804483V-6.495641C.976339-6.495641 1.05604-6.425903 1.05604-5.937733V0H1.305106C1.315068-.009963 1.39477-.14944 1.663761-.617684C1.8132-.388543 2.231631 .109589 2.968867 .109589C4.154421 .109589 5.190535-.86675 5.190535-2.15193C5.190535-3.417186 4.214197-4.403487 3.078456-4.403487C2.30137-4.403487 1.872976-3.935243 1.713574-3.755915ZM1.743462-1.135741V-3.188045C1.743462-3.377335 1.743462-3.387298 1.853051-3.5467C2.241594-4.104608 2.789539-4.184309 3.028643-4.184309C3.476961-4.184309 3.835616-3.92528 4.07472-3.5467C4.333748-3.138232 4.363636-2.570361 4.363636-2.161893C4.363636-1.793275 4.343711-1.195517 4.054795-.747198C3.845579-.438356 3.466999-.109589 2.929016-.109589C2.480697-.109589 2.122042-.348692 1.882939-.71731C1.743462-.926526 1.743462-.956413 1.743462-1.135741Z'/>
<path id='g0-99' d='M1.165629-2.171856C1.165629-3.795766 1.982565-4.214197 2.510585-4.214197C2.600249-4.214197 3.227895-4.204234 3.576588-3.845579C3.16812-3.815691 3.108344-3.516812 3.108344-3.387298C3.108344-3.128269 3.287671-2.929016 3.566625-2.929016C3.825654-2.929016 4.024907-3.098381 4.024907-3.39726C4.024907-4.07472 3.267746-4.463263 2.500623-4.463263C1.255293-4.463263 .33873-3.387298 .33873-2.15193C.33873-.876712 1.325031 .109589 2.480697 .109589C3.815691 .109589 4.134496-1.085928 4.134496-1.185554S4.034869-1.285181 4.004981-1.285181C3.915318-1.285181 3.895392-1.24533 3.875467-1.185554C3.58655-.259029 2.938979-.139477 2.570361-.139477C2.042341-.139477 1.165629-.56787 1.165629-2.171856Z'/>
<path id='g0-100' d='M3.785803-.547945V.109589L5.250311 0V-.308842C4.552927-.308842 4.473225-.37858 4.473225-.86675V-6.914072L3.038605-6.804483V-6.495641C3.73599-6.495641 3.815691-6.425903 3.815691-5.937733V-3.785803C3.526775-4.144458 3.098381-4.403487 2.560399-4.403487C1.384807-4.403487 .33873-3.427148 .33873-2.141968C.33873-.876712 1.315068 .109589 2.450809 .109589C3.088418 .109589 3.536737-.229141 3.785803-.547945ZM3.785803-3.217933V-1.175592C3.785803-.996264 3.785803-.976339 3.676214-.806974C3.377335-.328767 2.929016-.109589 2.500623-.109589C2.052304-.109589 1.693649-.368618 1.454545-.747198C1.195517-1.155666 1.165629-1.723537 1.165629-2.132005C1.165629-2.500623 1.185554-3.098381 1.474471-3.5467C1.683686-3.855542 2.062267-4.184309 2.600249-4.184309C2.948941-4.184309 3.367372-4.034869 3.676214-3.58655C3.785803-3.417186 3.785803-3.39726 3.785803-3.217933Z'/>
<path id='g0-101' d='M1.115816-2.510585C1.175592-3.995019 2.012453-4.244085 2.351183-4.244085C3.377335-4.244085 3.476961-2.899128 3.476961-2.510585H1.115816ZM1.105853-2.30137H3.88543C4.104608-2.30137 4.134496-2.30137 4.134496-2.510585C4.134496-3.496887 3.596513-4.463263 2.351183-4.463263C1.195517-4.463263 .278954-3.437111 .278954-2.191781C.278954-.856787 1.325031 .109589 2.470735 .109589C3.686177 .109589 4.134496-.996264 4.134496-1.185554C4.134496-1.285181 4.054795-1.305106 4.004981-1.305106C3.915318-1.305106 3.895392-1.24533 3.875467-1.165629C3.526775-.139477 2.630137-.139477 2.530511-.139477C2.032379-.139477 1.633873-.438356 1.404732-.806974C1.105853-1.285181 1.105853-1.942715 1.105853-2.30137Z'/>
<path id='g0-102' d='M1.743462-4.293898V-5.449564C1.743462-6.326276 2.221669-6.804483 2.660025-6.804483C2.689913-6.804483 2.839352-6.804483 2.988792-6.734745C2.86924-6.694894 2.689913-6.56538 2.689913-6.316314C2.689913-6.087173 2.849315-5.88792 3.118306-5.88792C3.407223-5.88792 3.556663-6.087173 3.556663-6.326276C3.556663-6.694894 3.188045-7.023661 2.660025-7.023661C1.96264-7.023661 1.115816-6.495641 1.115816-5.439601V-4.293898H.328767V-3.985056H1.115816V-.757161C1.115816-.308842 1.006227-.308842 .33873-.308842V0C.727273-.009963 1.195517-.029888 1.474471-.029888C1.872976-.029888 2.34122-.029888 2.739726 0V-.308842H2.530511C1.793275-.308842 1.77335-.418431 1.77335-.777086V-3.985056H2.909091V-4.293898H1.743462Z'/>
<path id='g0-103' d='M2.211706-1.713574C1.344956-1.713574 1.344956-2.709838 1.344956-2.938979C1.344956-3.20797 1.354919-3.526775 1.504359-3.775841C1.58406-3.895392 1.8132-4.174346 2.211706-4.174346C3.078456-4.174346 3.078456-3.178082 3.078456-2.948941C3.078456-2.67995 3.068493-2.361146 2.919054-2.11208C2.839352-1.992528 2.610212-1.713574 2.211706-1.713574ZM1.05604-1.325031C1.05604-1.364882 1.05604-1.594022 1.225405-1.793275C1.613948-1.514321 2.022416-1.484433 2.211706-1.484433C3.138232-1.484433 3.825654-2.171856 3.825654-2.938979C3.825654-3.307597 3.666252-3.676214 3.417186-3.905355C3.775841-4.244085 4.134496-4.293898 4.313823-4.293898C4.333748-4.293898 4.383562-4.293898 4.41345-4.283935C4.303861-4.244085 4.254047-4.134496 4.254047-4.014944C4.254047-3.845579 4.383562-3.726027 4.542964-3.726027C4.64259-3.726027 4.83188-3.795766 4.83188-4.024907C4.83188-4.194271 4.712329-4.513076 4.323786-4.513076C4.124533-4.513076 3.686177-4.4533 3.267746-4.044832C2.849315-4.373599 2.430884-4.403487 2.211706-4.403487C1.285181-4.403487 .597758-3.716065 .597758-2.948941C.597758-2.510585 .816936-2.132005 1.066002-1.92279C.936488-1.77335 .757161-1.444583 .757161-1.09589C.757161-.787049 .886675-.408468 1.195517-.209215C.597758-.039851 .278954 .388543 .278954 .787049C.278954 1.504359 1.265255 2.052304 2.480697 2.052304C3.656289 2.052304 4.692403 1.544209 4.692403 .767123C4.692403 .418431 4.552927-.089664 4.044832-.368618C3.516812-.647572 2.938979-.647572 2.331258-.647572C2.082192-.647572 1.653798-.647572 1.58406-.657534C1.265255-.697385 1.05604-1.006227 1.05604-1.325031ZM2.49066 1.823163C1.484433 1.823163 .797011 1.315068 .797011 .787049C.797011 .328767 1.175592-.039851 1.613948-.069738H2.201743C3.058531-.069738 4.174346-.069738 4.174346 .787049C4.174346 1.325031 3.466999 1.823163 2.49066 1.823163Z'/>
<path id='g0-104' d='M1.09589-.757161C1.09589-.308842 .986301-.308842 .318804-.308842V0C.667497-.009963 1.175592-.029888 1.444583-.029888C1.703611-.029888 2.221669-.009963 2.560399 0V-.308842C1.892902-.308842 1.783313-.308842 1.783313-.757161V-2.590286C1.783313-3.626401 2.49066-4.184309 3.128269-4.184309C3.755915-4.184309 3.865504-3.646326 3.865504-3.078456V-.757161C3.865504-.308842 3.755915-.308842 3.088418-.308842V0C3.437111-.009963 3.945205-.029888 4.214197-.029888C4.473225-.029888 4.991283-.009963 5.330012 0V-.308842C4.811955-.308842 4.562889-.308842 4.552927-.607721V-2.510585C4.552927-3.367372 4.552927-3.676214 4.244085-4.034869C4.104608-4.204234 3.775841-4.403487 3.198007-4.403487C2.361146-4.403487 1.92279-3.805729 1.753425-3.427148V-6.914072L.318804-6.804483V-6.495641C1.016189-6.495641 1.09589-6.425903 1.09589-5.937733V-.757161Z'/>
<path id='g0-105' d='M1.763387-4.403487L.368618-4.293898V-3.985056C1.016189-3.985056 1.105853-3.92528 1.105853-3.437111V-.757161C1.105853-.308842 .996264-.308842 .328767-.308842V0C.647572-.009963 1.185554-.029888 1.424658-.029888C1.77335-.029888 2.122042-.009963 2.460772 0V-.308842C1.803238-.308842 1.763387-.358655 1.763387-.747198V-4.403487ZM1.803238-6.136986C1.803238-6.455791 1.554172-6.665006 1.275218-6.665006C.966376-6.665006 .747198-6.396015 .747198-6.136986C.747198-5.867995 .966376-5.608966 1.275218-5.608966C1.554172-5.608966 1.803238-5.818182 1.803238-6.136986Z'/>
<path id='g0-107' d='M1.05604-.757161C1.05604-.308842 .946451-.308842 .278954-.308842V0C.607721-.009963 1.075965-.029888 1.364882-.029888C1.663761-.029888 2.062267-.019925 2.460772 0V-.308842C1.793275-.308842 1.683686-.308842 1.683686-.757161V-1.783313L2.321295-2.331258C3.088418-1.275218 3.506849-.71731 3.506849-.537983C3.506849-.348692 3.337484-.308842 3.148194-.308842V0C3.427148-.009963 4.014944-.029888 4.224159-.029888C4.513076-.029888 4.801993-.019925 5.090909 0V-.308842C4.722291-.308842 4.503113-.308842 4.124533-.836862L2.859278-2.620174C2.849315-2.6401 2.799502-2.699875 2.799502-2.729763C2.799502-2.769614 3.506849-3.367372 3.606476-3.447073C4.234122-3.955168 4.652553-3.975093 4.861768-3.985056V-4.293898C4.572852-4.26401 4.443337-4.26401 4.164384-4.26401C3.805729-4.26401 3.188045-4.283935 3.048568-4.293898V-3.985056C3.237858-3.975093 3.337484-3.865504 3.337484-3.73599C3.337484-3.536737 3.198007-3.417186 3.118306-3.347447L1.713574-2.132005V-6.914072L.278954-6.804483V-6.495641C.976339-6.495641 1.05604-6.425903 1.05604-5.937733V-.757161Z'/>
<path id='g0-108' d='M1.763387-6.914072L.328767-6.804483V-6.495641C1.026152-6.495641 1.105853-6.425903 1.105853-5.937733V-.757161C1.105853-.308842 .996264-.308842 .328767-.308842V0C.657534-.009963 1.185554-.029888 1.43462-.029888S2.171856-.009963 2.540473 0V-.308842C1.872976-.308842 1.763387-.308842 1.763387-.757161V-6.914072Z'/>
<path id='g0-109' d='M1.09589-3.427148V-.757161C1.09589-.308842 .986301-.308842 .318804-.308842V0C.667497-.009963 1.175592-.029888 1.444583-.029888C1.703611-.029888 2.221669-.009963 2.560399 0V-.308842C1.892902-.308842 1.783313-.308842 1.783313-.757161V-2.590286C1.783313-3.626401 2.49066-4.184309 3.128269-4.184309C3.755915-4.184309 3.865504-3.646326 3.865504-3.078456V-.757161C3.865504-.308842 3.755915-.308842 3.088418-.308842V0C3.437111-.009963 3.945205-.029888 4.214197-.029888C4.473225-.029888 4.991283-.009963 5.330012 0V-.308842C4.662516-.308842 4.552927-.308842 4.552927-.757161V-2.590286C4.552927-3.626401 5.260274-4.184309 5.897883-4.184309C6.525529-4.184309 6.635118-3.646326 6.635118-3.078456V-.757161C6.635118-.308842 6.525529-.308842 5.858032-.308842V0C6.206725-.009963 6.714819-.029888 6.983811-.029888C7.242839-.029888 7.760897-.009963 8.099626 0V-.308842C7.581569-.308842 7.332503-.308842 7.32254-.607721V-2.510585C7.32254-3.367372 7.32254-3.676214 7.013699-4.034869C6.874222-4.204234 6.545455-4.403487 5.967621-4.403487C5.13076-4.403487 4.692403-3.805729 4.523039-3.427148C4.383562-4.293898 3.646326-4.403487 3.198007-4.403487C2.470735-4.403487 2.002491-3.975093 1.723537-3.35741V-4.403487L.318804-4.293898V-3.985056C1.016189-3.985056 1.09589-3.915318 1.09589-3.427148Z'/>
<path id='g0-110' d='M1.09589-3.427148V-.757161C1.09589-.308842 .986301-.308842 .318804-.308842V0C.667497-.009963 1.175592-.029888 1.444583-.029888C1.703611-.029888 2.221669-.009963 2.560399 0V-.308842C1.892902-.308842 1.783313-.308842 1.783313-.757161V-2.590286C1.783313-3.626401 2.49066-4.184309 3.128269-4.184309C3.755915-4.184309 3.865504-3.646326 3.865504-3.078456V-.757161C3.865504-.308842 3.755915-.308842 3.088418-.308842V0C3.437111-.009963 3.945205-.029888 4.214197-.029888C4.473225-.029888 4.991283-.009963 5.330012 0V-.308842C4.811955-.308842 4.562889-.308842 4.552927-.607721V-2.510585C4.552927-3.367372 4.552927-3.676214 4.244085-4.034869C4.104608-4.204234 3.775841-4.403487 3.198007-4.403487C2.470735-4.403487 2.002491-3.975093 1.723537-3.35741V-4.403487L.318804-4.293898V-3.985056C1.016189-3.985056 1.09589-3.915318 1.09589-3.427148Z'/>
<path id='g0-111' d='M4.692403-2.132005C4.692403-3.407223 3.696139-4.463263 2.49066-4.463263C1.24533-4.463263 .278954-3.377335 .278954-2.132005C.278954-.846824 1.315068 .109589 2.480697 .109589C3.686177 .109589 4.692403-.86675 4.692403-2.132005ZM2.49066-.139477C2.062267-.139477 1.62391-.348692 1.354919-.806974C1.105853-1.24533 1.105853-1.853051 1.105853-2.211706C1.105853-2.600249 1.105853-3.138232 1.344956-3.576588C1.613948-4.034869 2.082192-4.244085 2.480697-4.244085C2.919054-4.244085 3.347447-4.024907 3.606476-3.596513S3.865504-2.590286 3.865504-2.211706C3.865504-1.853051 3.865504-1.315068 3.646326-.876712C3.427148-.428394 2.988792-.139477 2.49066-.139477Z'/>
<path id='g0-112' d='M1.713574-3.745953V-4.403487L.278954-4.293898V-3.985056C.986301-3.985056 1.05604-3.92528 1.05604-3.486924V1.175592C1.05604 1.62391 .946451 1.62391 .278954 1.62391V1.932752C.617684 1.92279 1.135741 1.902864 1.39477 1.902864C1.663761 1.902864 2.171856 1.92279 2.520548 1.932752V1.62391C1.853051 1.62391 1.743462 1.62391 1.743462 1.175592V-.498132V-.587796C1.793275-.428394 2.211706 .109589 2.968867 .109589C4.154421 .109589 5.190535-.86675 5.190535-2.15193C5.190535-3.417186 4.224159-4.403487 3.108344-4.403487C2.331258-4.403487 1.912827-3.965131 1.713574-3.745953ZM1.743462-1.135741V-3.35741C2.032379-3.865504 2.520548-4.154421 3.028643-4.154421C3.755915-4.154421 4.363636-3.277709 4.363636-2.15193C4.363636-.946451 3.666252-.109589 2.929016-.109589C2.530511-.109589 2.15193-.308842 1.882939-.71731C1.743462-.926526 1.743462-.936488 1.743462-1.135741Z'/>
<path id='g0-114' d='M1.663761-3.307597V-4.403487L.278954-4.293898V-3.985056C.976339-3.985056 1.05604-3.915318 1.05604-3.427148V-.757161C1.05604-.308842 .946451-.308842 .278954-.308842V0C.667497-.009963 1.135741-.029888 1.414695-.029888C1.8132-.029888 2.281445-.029888 2.67995 0V-.308842H2.470735C1.733499-.308842 1.713574-.418431 1.713574-.777086V-2.311333C1.713574-3.297634 2.132005-4.184309 2.889166-4.184309C2.958904-4.184309 2.978829-4.184309 2.998755-4.174346C2.968867-4.164384 2.769614-4.044832 2.769614-3.785803C2.769614-3.506849 2.978829-3.35741 3.198007-3.35741C3.377335-3.35741 3.626401-3.476961 3.626401-3.795766S3.317559-4.403487 2.889166-4.403487C2.161893-4.403487 1.803238-3.73599 1.663761-3.307597Z'/>
<path id='g0-115' d='M2.072229-1.932752C2.291407-1.892902 3.108344-1.733499 3.108344-1.016189C3.108344-.508095 2.759651-.109589 1.982565-.109589C1.145704-.109589 .787049-.67746 .597758-1.524284C.56787-1.653798 .557908-1.693649 .458281-1.693649C.328767-1.693649 .328767-1.62391 .328767-1.444583V-.129514C.328767 .039851 .328767 .109589 .438356 .109589C.488169 .109589 .498132 .099626 .687422-.089664C.707347-.109589 .707347-.129514 .886675-.318804C1.325031 .099626 1.77335 .109589 1.982565 .109589C3.128269 .109589 3.58655-.557908 3.58655-1.275218C3.58655-1.803238 3.287671-2.102117 3.16812-2.221669C2.839352-2.540473 2.450809-2.620174 2.032379-2.699875C1.474471-2.809465 .806974-2.938979 .806974-3.516812C.806974-3.865504 1.066002-4.273973 1.92279-4.273973C3.01868-4.273973 3.068493-3.377335 3.088418-3.068493C3.098381-2.978829 3.188045-2.978829 3.20797-2.978829C3.337484-2.978829 3.337484-3.028643 3.337484-3.217933V-4.224159C3.337484-4.393524 3.337484-4.463263 3.227895-4.463263C3.178082-4.463263 3.158157-4.463263 3.028643-4.343711C2.998755-4.303861 2.899128-4.214197 2.859278-4.184309C2.480697-4.463263 2.072229-4.463263 1.92279-4.463263C.707347-4.463263 .328767-3.795766 .328767-3.237858C.328767-2.889166 .488169-2.610212 .757161-2.391034C1.075965-2.132005 1.354919-2.072229 2.072229-1.932752Z'/>
<path id='g0-116' d='M1.723537-3.985056H3.148194V-4.293898H1.723537V-6.127024H1.474471C1.464508-5.310087 1.165629-4.244085 .18929-4.204234V-3.985056H1.036115V-1.235367C1.036115-.009963 1.96264 .109589 2.321295 .109589C3.028643 .109589 3.307597-.597758 3.307597-1.235367V-1.803238H3.058531V-1.255293C3.058531-.518057 2.759651-.139477 2.391034-.139477C1.723537-.139477 1.723537-1.046077 1.723537-1.215442V-3.985056Z'/>
<path id='g0-117' d='M3.895392-.787049V.109589L5.330012 0V-.308842C4.632628-.308842 4.552927-.37858 4.552927-.86675V-4.403487L3.088418-4.293898V-3.985056C3.785803-3.985056 3.865504-3.915318 3.865504-3.427148V-1.653798C3.865504-.787049 3.387298-.109589 2.660025-.109589C1.823163-.109589 1.783313-.577833 1.783313-1.09589V-4.403487L.318804-4.293898V-3.985056C1.09589-3.985056 1.09589-3.955168 1.09589-3.068493V-1.574097C1.09589-.797011 1.09589 .109589 2.610212 .109589C3.16812 .109589 3.606476-.169365 3.895392-.787049Z'/>
<path id='g0-118' d='M4.144458-3.317559C4.234122-3.5467 4.403487-3.975093 5.061021-3.985056V-4.293898C4.83188-4.273973 4.542964-4.26401 4.313823-4.26401C4.07472-4.26401 3.616438-4.283935 3.447073-4.293898V-3.985056C3.815691-3.975093 3.92528-3.745953 3.92528-3.556663C3.92528-3.466999 3.905355-3.427148 3.865504-3.317559L2.849315-.777086L1.733499-3.556663C1.673724-3.686177 1.673724-3.706102 1.673724-3.726027C1.673724-3.985056 2.062267-3.985056 2.241594-3.985056V-4.293898C1.942715-4.283935 1.384807-4.26401 1.155666-4.26401C.886675-4.26401 .488169-4.273973 .18929-4.293898V-3.985056C.816936-3.985056 .856787-3.92528 .986301-3.616438L2.420922-.079701C2.480697 .059776 2.500623 .109589 2.630137 .109589S2.799502 .019925 2.839352-.079701L4.144458-3.317559Z'/>
<path id='g0-119' d='M6.166874-3.347447C6.346202-3.845579 6.655044-3.975093 7.003736-3.985056V-4.293898C6.784558-4.273973 6.495641-4.26401 6.276463-4.26401C5.987547-4.26401 5.539228-4.283935 5.349938-4.293898V-3.985056C5.708593-3.975093 5.927771-3.795766 5.927771-3.506849C5.927771-3.447073 5.927771-3.427148 5.877958-3.297634L4.971357-.747198L3.985056-3.526775C3.945205-3.646326 3.935243-3.666252 3.935243-3.716065C3.935243-3.985056 4.323786-3.985056 4.523039-3.985056V-4.293898C4.234122-4.283935 3.726027-4.26401 3.486924-4.26401C3.188045-4.26401 2.899128-4.273973 2.600249-4.293898V-3.985056C2.968867-3.985056 3.128269-3.965131 3.227895-3.835616C3.277709-3.775841 3.387298-3.476961 3.457036-3.287671L2.600249-.876712L1.653798-3.536737C1.603985-3.656289 1.603985-3.676214 1.603985-3.716065C1.603985-3.985056 1.992528-3.985056 2.191781-3.985056V-4.293898C1.892902-4.283935 1.334994-4.26401 1.105853-4.26401C1.066002-4.26401 .537983-4.273973 .179328-4.293898V-3.985056C.67746-3.985056 .797011-3.955168 .916563-3.636364L2.171856-.109589C2.221669 .029888 2.251557 .109589 2.381071 .109589S2.530511 .049813 2.580324-.089664L3.58655-2.909091L4.60274-.079701C4.64259 .029888 4.672478 .109589 4.801993 .109589S4.961395 .019925 5.001245-.079701L6.166874-3.347447Z'/>
<path id='g0-120' d='M2.859278-2.34122C3.158157-2.719801 3.536737-3.20797 3.775841-3.466999C4.084682-3.825654 4.493151-3.975093 4.961395-3.985056V-4.293898C4.702366-4.273973 4.403487-4.26401 4.144458-4.26401C3.845579-4.26401 3.317559-4.283935 3.188045-4.293898V-3.985056C3.39726-3.965131 3.476961-3.835616 3.476961-3.676214S3.377335-3.387298 3.327522-3.327522L2.709838-2.550436L1.932752-3.556663C1.843088-3.656289 1.843088-3.676214 1.843088-3.73599C1.843088-3.88543 1.992528-3.975093 2.191781-3.985056V-4.293898C1.932752-4.283935 1.275218-4.26401 1.115816-4.26401C.9066-4.26401 .438356-4.273973 .169365-4.293898V-3.985056C.86675-3.985056 .876712-3.975093 1.344956-3.377335L2.331258-2.092154L1.39477-.9066C.916563-.328767 .328767-.308842 .119552-.308842V0C.37858-.019925 .687422-.029888 .946451-.029888C1.235367-.029888 1.653798-.009963 1.892902 0V-.308842C1.673724-.33873 1.603985-.468244 1.603985-.617684C1.603985-.836862 1.892902-1.165629 2.500623-1.882939L3.257783-.886675C3.337484-.777086 3.466999-.617684 3.466999-.557908C3.466999-.468244 3.377335-.318804 3.108344-.308842V0C3.407223-.009963 3.965131-.029888 4.184309-.029888C4.4533-.029888 4.841843-.019925 5.140722 0V-.308842C4.60274-.308842 4.423412-.328767 4.194271-.617684L2.859278-2.34122Z'/>
<path id='g0-121' d='M4.134496-3.347447C4.393524-3.975093 4.901619-3.985056 5.061021-3.985056V-4.293898C4.83188-4.273973 4.542964-4.26401 4.313823-4.26401C4.134496-4.26401 3.666252-4.283935 3.447073-4.293898V-3.985056C3.755915-3.975093 3.915318-3.805729 3.915318-3.556663C3.915318-3.457036 3.905355-3.437111 3.855542-3.317559L2.849315-.86675L1.743462-3.5467C1.703611-3.646326 1.683686-3.686177 1.683686-3.726027C1.683686-3.985056 2.052304-3.985056 2.241594-3.985056V-4.293898C1.982565-4.283935 1.325031-4.26401 1.155666-4.26401C.886675-4.26401 .488169-4.273973 .18929-4.293898V-3.985056C.667497-3.985056 .856787-3.985056 .996264-3.636364L2.49066 0C2.440847 .129514 2.30137 .458281 2.241594 .587796C2.022416 1.135741 1.743462 1.823163 1.105853 1.823163C1.05604 1.823163 .826899 1.823163 .637609 1.643836C.946451 1.603985 1.026152 1.384807 1.026152 1.225405C1.026152 .966376 .836862 .806974 .607721 .806974C.408468 .806974 .18929 .936488 .18929 1.235367C.18929 1.683686 .607721 2.042341 1.105853 2.042341C1.733499 2.042341 2.141968 1.474471 2.381071 .9066L4.134496-3.347447Z'/>
</defs>
<g id='page1'>
<use x='9.630238' y='-11.955168' xlink:href='#g0-45'/>
<use x='16.271999' y='-11.955168' xlink:href='#g0-83'/>
<use x='21.806816' y='-11.955168' xlink:href='#g0-117'/>
<use x='27.341633' y='-11.955168' xlink:href='#g0-98'/>
<use x='32.87645' y='-11.955168' xlink:href='#g0-45'/>
<use x='36.197336' y='-11.955168' xlink:href='#g0-101'/>
<use x='40.625188' y='-11.955168' xlink:href='#g0-120'/>
<use x='45.883276' y='-11.955168' xlink:href='#g0-112'/>
<use x='51.694841' y='-11.955168' xlink:href='#g0-111'/>
<use x='56.67618' y='-11.955168' xlink:href='#g0-110'/>
<use x='62.210997' y='-11.955168' xlink:href='#g0-101'/>
<use x='66.638849' y='-11.955168' xlink:href='#g0-110'/>
<use x='71.896917' y='-11.955168' xlink:href='#g0-116'/>
<use x='75.771291' y='-11.955168' xlink:href='#g0-105'/>
<use x='78.538699' y='-11.955168' xlink:href='#g0-97'/>
<use x='83.520038' y='-11.955168' xlink:href='#g0-108'/>
<use x='89.608322' y='-11.955168' xlink:href='#g0-99'/>
<use x='94.036174' y='-11.955168' xlink:href='#g0-111'/>
<use x='99.017513' y='-11.955168' xlink:href='#g0-109'/>
<use x='107.319738' y='-11.955168' xlink:href='#g0-112'/>
<use x='112.854555' y='-11.955168' xlink:href='#g0-108'/>
<use x='115.621963' y='-11.955168' xlink:href='#g0-101'/>
<use x='120.049815' y='-11.955168' xlink:href='#g0-120'/>
<use x='125.307903' y='-11.955168' xlink:href='#g0-105'/>
<use x='128.075311' y='-11.955168' xlink:href='#g0-116'/>
<use x='131.672936' y='-11.955168' xlink:href='#g0-121'/>
<use x='140.251899' y='-11.955168' xlink:href='#g0-105'/>
<use x='143.019307' y='-11.955168' xlink:href='#g0-110'/>
<use x='151.874999' y='-11.955168' xlink:href='#g0-109'/>
<use x='160.177225' y='-11.955168' xlink:href='#g0-101'/>
<use x='164.605076' y='-11.955168' xlink:href='#g0-109'/>
<use x='172.907302' y='-11.955168' xlink:href='#g0-111'/>
<use x='177.888641' y='-11.955168' xlink:href='#g0-114'/>
<use x='181.790691' y='-11.955168' xlink:href='#g0-121'/>
<use x='186.218549' y='-11.955168' xlink:href='#g0-46'/>
<use x='193.413795' y='-11.955168' xlink:href='#g0-78'/>
<use x='200.885795' y='-11.955168' xlink:href='#g0-111'/>
<use x='205.867134' y='-11.955168' xlink:href='#g0-116'/>
<use x='213.062382' y='-11.955168' xlink:href='#g0-97'/>
<use x='221.364596' y='-11.955168' xlink:href='#g0-112'/>
<use x='226.899413' y='-11.955168' xlink:href='#g0-114'/>
<use x='230.801464' y='-11.955168' xlink:href='#g0-111'/>
<use x='235.782803' y='-11.955168' xlink:href='#g0-98'/>
<use x='241.31762' y='-11.955168' xlink:href='#g0-108'/>
<use x='244.085028' y='-11.955168' xlink:href='#g0-101'/>
<use x='248.51288' y='-11.955168' xlink:href='#g0-109'/>
<use x='260.13598' y='-11.955168' xlink:href='#g0-105'/>
<use x='262.903389' y='-11.955168' xlink:href='#g0-102'/>
<use x='269.268421' y='-11.955168' xlink:href='#g0-116'/>
<use x='273.142794' y='-11.955168' xlink:href='#g0-104'/>
<use x='278.677611' y='-11.955168' xlink:href='#g0-101'/>
<use x='286.426338' y='-11.955168' xlink:href='#g0-12'/>
<use x='291.961155' y='-11.955168' xlink:href='#g0-110'/>
<use x='297.495972' y='-11.955168' xlink:href='#g0-105'/>
<use x='300.26338' y='-11.955168' xlink:href='#g0-116'/>
<use x='304.137754' y='-11.955168' xlink:href='#g0-101'/>
<use x='311.886481' y='-11.955168' xlink:href='#g0-12'/>
<use x='317.421298' y='-11.955168' xlink:href='#g0-101'/>
<use x='321.849149' y='-11.955168' xlink:href='#g0-108'/>
<use x='324.616558' y='-11.955168' xlink:href='#g0-100'/>
<use x='330.151375' y='-11.955168' xlink:href='#g0-115'/>
<use x='106.62781' y='0' xlink:href='#g0-116'/>
<use x='110.502184' y='0' xlink:href='#g0-97'/>
<use x='115.483523' y='0' xlink:href='#g0-114'/>
<use x='119.385573' y='0' xlink:href='#g0-103'/>
<use x='124.366912' y='0' xlink:href='#g0-101'/>
<use x='128.794764' y='0' xlink:href='#g0-116'/>
<use x='132.669138' y='0' xlink:href='#g0-115'/>
<use x='139.91973' y='0' xlink:href='#g0-97'/>
<use x='144.901069' y='0' xlink:href='#g0-114'/>
<use x='148.80312' y='0' xlink:href='#g0-101'/>
<use x='156.551847' y='0' xlink:href='#g0-107'/>
<use x='161.809934' y='0' xlink:href='#g0-110'/>
<use x='167.344751' y='0' xlink:href='#g0-111'/>
<use x='172.049342' y='0' xlink:href='#g0-119'/>
<use x='179.244602' y='0' xlink:href='#g0-110'/>
<use x='188.100294' y='0' xlink:href='#g0-105'/>
<use x='190.867702' y='0' xlink:href='#g0-110'/>
<use x='199.723394' y='0' xlink:href='#g0-97'/>
<use x='204.704733' y='0' xlink:href='#g0-100'/>
<use x='210.23955' y='0' xlink:href='#g0-118'/>
<use x='214.944156' y='0' xlink:href='#g0-97'/>
<use x='219.925495' y='0' xlink:href='#g0-110'/>
<use x='225.460312' y='0' xlink:href='#g0-99'/>
<use x='229.888164' y='0' xlink:href='#g0-101'/>
<use x='234.316015' y='0' xlink:href='#g0-46'/>
</g>
</svg>