<?xml version='1.0' encoding='UTF-8'?>
<!-- This file was generated by dvisvgm 2.13.1 -->
<svg version='1.1' xmlns='http://www.w3.org/2000/svg' xmlns:xlink='http://www.w3.org/1999/xlink' width='322.98066pt' height='21.36433pt' viewBox='10.36532 -19.427148 322.98066 21.36433'>
<defs>
<path id='g1-107' d='M2.182814-4.630635C2.189788-4.644583 2.21071-4.735243 2.21071-4.742217C2.21071-4.777086 2.182814-4.839851 2.099128-4.839851C1.959651-4.839851 1.380822-4.78406 1.206476-4.770112C1.150685-4.763138 1.053051-4.756164 1.053051-4.609714C1.053051-4.51208 1.150685-4.51208 1.234371-4.51208C1.569116-4.51208 1.569116-4.463263 1.569116-4.407472C1.569116-4.358655 1.555168-4.316812 1.54122-4.254047L.557908-.306849C.523039-.18132 .523039-.167372 .523039-.153425C.523039-.048817 .606725 .069738 .760149 .069738C.948443 .069738 1.039103-.069738 1.080946-.223163C1.094894-.251059 1.39477-1.478456 1.422665-1.57609C1.917808-1.527273 2.315318-1.366874 2.315318-1.004234C2.315318-.969365 2.315318-.934496 2.30137-.864757C2.273474-.760149 2.273474-.72528 2.273474-.648568C2.273474-.153425 2.677958 .069738 3.012702 .069738C3.689166 .069738 3.898381-.990286 3.898381-.99726C3.898381-1.08792 3.807721-1.08792 3.7868-1.08792C3.689166-1.08792 3.682192-1.053051 3.647323-.920548C3.563636-.620672 3.375342-.125529 3.033624-.125529C2.84533-.125529 2.789539-.299875 2.789539-.488169C2.789539-.606725 2.789539-.620672 2.831382-.801993C2.838356-.822914 2.866252-.941469 2.866252-1.018182C2.866252-1.638854 2.02939-1.736488 1.736488-1.75741C1.93873-1.882939 2.196762-2.113076 2.315318-2.217684C2.670984-2.552428 3.019676-2.880199 3.410212-2.880199C3.493898-2.880199 3.584558-2.859278 3.640349-2.789539C3.340473-2.740722 3.277709-2.503611 3.277709-2.399004C3.277709-2.245579 3.396264-2.140971 3.556663-2.140971C3.744956-2.140971 3.954172-2.294396 3.954172-2.587298C3.954172-2.817435 3.7868-3.075467 3.417186-3.075467C3.019676-3.075467 2.657036-2.789539 2.30137-2.461768C2.008468-2.182814 1.778331-1.966625 1.492403-1.84807L2.182814-4.630635Z'/>
<path id='g0-102' d='M3.656289-3.985056H4.513076C4.712329-3.985056 4.811955-3.985056 4.811955-4.184309C4.811955-4.293898 4.712329-4.293898 4.542964-4.293898H3.716065L3.92528-5.429639C3.965131-5.638854 4.104608-6.346202 4.164384-6.465753C4.254047-6.655044 4.423412-6.804483 4.632628-6.804483C4.672478-6.804483 4.931507-6.804483 5.120797-6.625156C4.682441-6.585305 4.582814-6.236613 4.582814-6.087173C4.582814-5.858032 4.762142-5.738481 4.951432-5.738481C5.210461-5.738481 5.499377-5.957659 5.499377-6.336239C5.499377-6.794521 5.041096-7.023661 4.632628-7.023661C4.293898-7.023661 3.666252-6.844334 3.367372-5.858032C3.307597-5.648817 3.277709-5.549191 3.038605-4.293898H2.351183C2.161893-4.293898 2.052304-4.293898 2.052304-4.104608C2.052304-3.985056 2.141968-3.985056 2.331258-3.985056H2.988792L2.241594-.049813C2.062267 .916563 1.892902 1.823163 1.374844 1.823163C1.334994 1.823163 1.085928 1.823163 .896638 1.643836C1.354919 1.613948 1.444583 1.255293 1.444583 1.105853C1.444583 .876712 1.265255 .757161 1.075965 .757161C.816936 .757161 .52802 .976339 .52802 1.354919C.52802 1.803238 .966376 2.042341 1.374844 2.042341C1.92279 2.042341 2.321295 1.454545 2.500623 1.075965C2.819427 .448319 3.048568-.757161 3.058531-.826899L3.656289-3.985056Z'/>
<path id='g0-107' d='M2.859278-6.804483C2.859278-6.814446 2.859278-6.914072 2.729763-6.914072C2.500623-6.914072 1.77335-6.834371 1.514321-6.814446C1.43462-6.804483 1.325031-6.794521 1.325031-6.615193C1.325031-6.495641 1.414695-6.495641 1.564134-6.495641C2.042341-6.495641 2.062267-6.425903 2.062267-6.326276L2.032379-6.127024L.587796-.388543C.547945-.249066 .547945-.229141 .547945-.169365C.547945 .059776 .747198 .109589 .836862 .109589C.966376 .109589 1.115816 .019925 1.175592-.099626C1.225405-.18929 1.673724-2.032379 1.733499-2.281445C2.072229-2.251557 2.889166-2.092154 2.889166-1.43462C2.889166-1.364882 2.889166-1.325031 2.859278-1.225405C2.839352-1.105853 2.819427-.986301 2.819427-.876712C2.819427-.288917 3.217933 .109589 3.73599 .109589C4.034869 .109589 4.303861-.049813 4.523039-.418431C4.772105-.856787 4.881694-1.404732 4.881694-1.424658C4.881694-1.524284 4.79203-1.524284 4.762142-1.524284C4.662516-1.524284 4.652553-1.484433 4.622665-1.344956C4.423412-.617684 4.194271-.109589 3.755915-.109589C3.566625-.109589 3.437111-.219178 3.437111-.577833C3.437111-.747198 3.476961-.976339 3.516812-1.135741C3.556663-1.305106 3.556663-1.344956 3.556663-1.444583C3.556663-2.092154 2.929016-2.381071 2.082192-2.49066C2.391034-2.669988 2.709838-2.988792 2.938979-3.227895C3.417186-3.755915 3.875467-4.184309 4.363636-4.184309C4.423412-4.184309 4.433375-4.184309 4.4533-4.174346C4.572852-4.154421 4.582814-4.154421 4.662516-4.094645C4.682441-4.084682 4.682441-4.07472 4.702366-4.054795C4.224159-4.024907 4.134496-3.636364 4.134496-3.516812C4.134496-3.35741 4.244085-3.16812 4.513076-3.16812C4.772105-3.16812 5.061021-3.387298 5.061021-3.775841C5.061021-4.07472 4.83188-4.403487 4.383562-4.403487C4.104608-4.403487 3.646326-4.323786 2.929016-3.526775C2.590286-3.148194 2.201743-2.749689 1.823163-2.600249L2.859278-6.804483Z'/>
<path id='g2-40' d='M3.297634 2.391034C3.297634 2.361146 3.297634 2.34122 3.128269 2.171856C1.882939 .916563 1.564134-.966376 1.564134-2.49066C1.564134-4.224159 1.942715-5.957659 3.16812-7.202989C3.297634-7.32254 3.297634-7.342466 3.297634-7.372354C3.297634-7.442092 3.257783-7.47198 3.198007-7.47198C3.098381-7.47198 2.201743-6.794521 1.613948-5.529265C1.105853-4.433375 .986301-3.327522 .986301-2.49066C.986301-1.713574 1.09589-.508095 1.643836 .617684C2.241594 1.843088 3.098381 2.49066 3.198007 2.49066C3.257783 2.49066 3.297634 2.460772 3.297634 2.391034Z'/>
<path id='g2-41' d='M2.879203-2.49066C2.879203-3.267746 2.769614-4.473225 2.221669-5.599004C1.62391-6.824408 .767123-7.47198 .667497-7.47198C.607721-7.47198 .56787-7.43213 .56787-7.372354C.56787-7.342466 .56787-7.32254 .757161-7.143213C1.733499-6.156912 2.30137-4.572852 2.30137-2.49066C2.30137-.787049 1.932752 .966376 .697385 2.221669C.56787 2.34122 .56787 2.361146 .56787 2.391034C.56787 2.450809 .607721 2.49066 .667497 2.49066C.767123 2.49066 1.663761 1.8132 2.251557 .547945C2.759651-.547945 2.879203-1.653798 2.879203-2.49066Z'/>
<path id='g2-46' d='M1.912827-.52802C1.912827-.816936 1.673724-1.05604 1.384807-1.05604S.856787-.816936 .856787-.52802S1.09589 0 1.384807 0S1.912827-.239103 1.912827-.52802Z'/>
<path id='g2-71' d='M5.907846-.627646C6.03736-.408468 6.435866-.009963 6.545455-.009963C6.635118-.009963 6.635118-.089664 6.635118-.239103V-1.972603C6.635118-2.361146 6.674969-2.410959 7.32254-2.410959V-2.719801C6.953923-2.709838 6.405978-2.689913 6.107098-2.689913C5.708593-2.689913 4.861768-2.689913 4.503113-2.719801V-2.410959H4.821918C5.718555-2.410959 5.748443-2.30137 5.748443-1.932752V-1.295143C5.748443-.179328 4.483188-.089664 4.204234-.089664C3.556663-.089664 1.58406-.438356 1.58406-3.407223C1.58406-6.386052 3.5467-6.714819 4.144458-6.714819C5.210461-6.714819 6.117061-5.818182 6.316314-4.353674C6.336239-4.214197 6.336239-4.184309 6.475716-4.184309C6.635118-4.184309 6.635118-4.214197 6.635118-4.423412V-6.784558C6.635118-6.953923 6.635118-7.023661 6.525529-7.023661C6.485679-7.023661 6.445828-7.023661 6.366127-6.90411L5.867995-6.166874C5.549191-6.485679 5.011208-7.023661 4.024907-7.023661C2.171856-7.023661 .557908-5.449564 .557908-3.407223S2.15193 .219178 4.044832 .219178C4.772105 .219178 5.569116-.039851 5.907846-.627646Z'/>
<path id='g2-97' d='M3.317559-.757161C3.35741-.358655 3.626401 .059776 4.094645 .059776C4.303861 .059776 4.911582-.079701 4.911582-.886675V-1.444583H4.662516V-.886675C4.662516-.308842 4.41345-.249066 4.303861-.249066C3.975093-.249066 3.935243-.697385 3.935243-.747198V-2.739726C3.935243-3.158157 3.935243-3.5467 3.576588-3.915318C3.188045-4.303861 2.689913-4.463263 2.211706-4.463263C1.39477-4.463263 .707347-3.995019 .707347-3.337484C.707347-3.038605 .9066-2.86924 1.165629-2.86924C1.444583-2.86924 1.62391-3.068493 1.62391-3.327522C1.62391-3.447073 1.574097-3.775841 1.115816-3.785803C1.384807-4.134496 1.872976-4.244085 2.191781-4.244085C2.67995-4.244085 3.247821-3.855542 3.247821-2.968867V-2.600249C2.739726-2.570361 2.042341-2.540473 1.414695-2.241594C.667497-1.902864 .418431-1.384807 .418431-.946451C.418431-.139477 1.384807 .109589 2.012453 .109589C2.669988 .109589 3.128269-.288917 3.317559-.757161ZM3.247821-2.391034V-1.39477C3.247821-.448319 2.530511-.109589 2.082192-.109589C1.594022-.109589 1.185554-.458281 1.185554-.956413C1.185554-1.504359 1.603985-2.331258 3.247821-2.391034Z'/>
<path id='g2-98' d='M1.713574-3.755915V-6.914072L.278954-6.804483V-6.495641C.976339-6.495641 1.05604-6.425903 1.05604-5.937733V0H1.305106C1.315068-.009963 1.39477-.14944 1.663761-.617684C1.8132-.388543 2.231631 .109589 2.968867 .109589C4.154421 .109589 5.190535-.86675 5.190535-2.15193C5.190535-3.417186 4.214197-4.403487 3.078456-4.403487C2.30137-4.403487 1.872976-3.935243 1.713574-3.755915ZM1.743462-1.135741V-3.188045C1.743462-3.377335 1.743462-3.387298 1.853051-3.5467C2.241594-4.104608 2.789539-4.184309 3.028643-4.184309C3.476961-4.184309 3.835616-3.92528 4.07472-3.5467C4.333748-3.138232 4.363636-2.570361 4.363636-2.161893C4.363636-1.793275 4.343711-1.195517 4.054795-.747198C3.845579-.438356 3.466999-.109589 2.929016-.109589C2.480697-.109589 2.122042-.348692 1.882939-.71731C1.743462-.926526 1.743462-.956413 1.743462-1.135741Z'/>
<path id='g2-99' d='M1.165629-2.171856C1.165629-3.795766 1.982565-4.214197 2.510585-4.214197C2.600249-4.214197 3.227895-4.204234 3.576588-3.845579C3.16812-3.815691 3.108344-3.516812 3.108344-3.387298C3.108344-3.128269 3.287671-2.929016 3.566625-2.929016C3.825654-2.929016 4.024907-3.098381 4.024907-3.39726C4.024907-4.07472 3.267746-4.463263 2.500623-4.463263C1.255293-4.463263 .33873-3.387298 .33873-2.15193C.33873-.876712 1.325031 .109589 2.480697 .109589C3.815691 .109589 4.134496-1.085928 4.134496-1.185554S4.034869-1.285181 4.004981-1.285181C3.915318-1.285181 3.895392-1.24533 3.875467-1.185554C3.58655-.259029 2.938979-.139477 2.570361-.139477C2.042341-.139477 1.165629-.56787 1.165629-2.171856Z'/>
<path id='g2-100' d='M3.785803-.547945V.109589L5.250311 0V-.308842C4.552927-.308842 4.473225-.37858 4.473225-.86675V-6.914072L3.038605-6.804483V-6.495641C3.73599-6.495641 3.815691-6.425903 3.815691-5.937733V-3.785803C3.526775-4.144458 3.098381-4.403487 2.560399-4.403487C1.384807-4.403487 .33873-3.427148 .33873-2.141968C.33873-.876712 1.315068 .109589 2.450809 .109589C3.088418 .109589 3.536737-.229141 3.785803-.547945ZM3.785803-3.217933V-1.175592C3.785803-.996264 3.785803-.976339 3.676214-.806974C3.377335-.328767 2.929016-.109589 2.500623-.109589C2.052304-.109589 1.693649-.368618 1.454545-.747198C1.195517-1.155666 1.165629-1.723537 1.165629-2.132005C1.165629-2.500623 1.185554-3.098381 1.474471-3.5467C1.683686-3.855542 2.062267-4.184309 2.600249-4.184309C2.948941-4.184309 3.367372-4.034869 3.676214-3.58655C3.785803-3.417186 3.785803-3.39726 3.785803-3.217933Z'/>
<path id='g2-101' d='M1.115816-2.510585C1.175592-3.995019 2.012453-4.244085 2.351183-4.244085C3.377335-4.244085 3.476961-2.899128 3.476961-2.510585H1.115816ZM1.105853-2.30137H3.88543C4.104608-2.30137 4.134496-2.30137 4.134496-2.510585C4.134496-3.496887 3.596513-4.463263 2.351183-4.463263C1.195517-4.463263 .278954-3.437111 .278954-2.191781C.278954-.856787 1.325031 .109589 2.470735 .109589C3.686177 .109589 4.134496-.996264 4.134496-1.185554C4.134496-1.285181 4.054795-1.305106 4.004981-1.305106C3.915318-1.305106 3.895392-1.24533 3.875467-1.165629C3.526775-.139477 2.630137-.139477 2.530511-.139477C2.032379-.139477 1.633873-.438356 1.404732-.806974C1.105853-1.285181 1.105853-1.942715 1.105853-2.30137Z'/>
<path id='g2-102' d='M1.743462-4.293898V-5.449564C1.743462-6.326276 2.221669-6.804483 2.660025-6.804483C2.689913-6.804483 2.839352-6.804483 2.988792-6.734745C2.86924-6.694894 2.689913-6.56538 2.689913-6.316314C2.689913-6.087173 2.849315-5.88792 3.118306-5.88792C3.407223-5.88792 3.556663-6.087173 3.556663-6.326276C3.556663-6.694894 3.188045-7.023661 2.660025-7.023661C1.96264-7.023661 1.115816-6.495641 1.115816-5.439601V-4.293898H.328767V-3.985056H1.115816V-.757161C1.115816-.308842 1.006227-.308842 .33873-.308842V0C.727273-.009963 1.195517-.029888 1.474471-.029888C1.872976-.029888 2.34122-.029888 2.739726 0V-.308842H2.530511C1.793275-.308842 1.77335-.418431 1.77335-.777086V-3.985056H2.909091V-4.293898H1.743462Z'/>
<path id='g2-104' d='M1.09589-.757161C1.09589-.308842 .986301-.308842 .318804-.308842V0C.667497-.009963 1.175592-.029888 1.444583-.029888C1.703611-.029888 2.221669-.009963 2.560399 0V-.308842C1.892902-.308842 1.783313-.308842 1.783313-.757161V-2.590286C1.783313-3.626401 2.49066-4.184309 3.128269-4.184309C3.755915-4.184309 3.865504-3.646326 3.865504-3.078456V-.757161C3.865504-.308842 3.755915-.308842 3.088418-.308842V0C3.437111-.009963 3.945205-.029888 4.214197-.029888C4.473225-.029888 4.991283-.009963 5.330012 0V-.308842C4.811955-.308842 4.562889-.308842 4.552927-.607721V-2.510585C4.552927-3.367372 4.552927-3.676214 4.244085-4.034869C4.104608-4.204234 3.775841-4.403487 3.198007-4.403487C2.361146-4.403487 1.92279-3.805729 1.753425-3.427148V-6.914072L.318804-6.804483V-6.495641C1.016189-6.495641 1.09589-6.425903 1.09589-5.937733V-.757161Z'/>
<path id='g2-105' d='M1.763387-4.403487L.368618-4.293898V-3.985056C1.016189-3.985056 1.105853-3.92528 1.105853-3.437111V-.757161C1.105853-.308842 .996264-.308842 .328767-.308842V0C.647572-.009963 1.185554-.029888 1.424658-.029888C1.77335-.029888 2.122042-.009963 2.460772 0V-.308842C1.803238-.308842 1.763387-.358655 1.763387-.747198V-4.403487ZM1.803238-6.136986C1.803238-6.455791 1.554172-6.665006 1.275218-6.665006C.966376-6.665006 .747198-6.396015 .747198-6.136986C.747198-5.867995 .966376-5.608966 1.275218-5.608966C1.554172-5.608966 1.803238-5.818182 1.803238-6.136986Z'/>
<path id='g2-108' d='M1.763387-6.914072L.328767-6.804483V-6.495641C1.026152-6.495641 1.105853-6.425903 1.105853-5.937733V-.757161C1.105853-.308842 .996264-.308842 .328767-.308842V0C.657534-.009963 1.185554-.029888 1.43462-.029888S2.171856-.009963 2.540473 0V-.308842C1.872976-.308842 1.763387-.308842 1.763387-.757161V-6.914072Z'/>
<path id='g2-109' d='M1.09589-3.427148V-.757161C1.09589-.308842 .986301-.308842 .318804-.308842V0C.667497-.009963 1.175592-.029888 1.444583-.029888C1.703611-.029888 2.221669-.009963 2.560399 0V-.308842C1.892902-.308842 1.783313-.308842 1.783313-.757161V-2.590286C1.783313-3.626401 2.49066-4.184309 3.128269-4.184309C3.755915-4.184309 3.865504-3.646326 3.865504-3.078456V-.757161C3.865504-.308842 3.755915-.308842 3.088418-.308842V0C3.437111-.009963 3.945205-.029888 4.214197-.029888C4.473225-.029888 4.991283-.009963 5.330012 0V-.308842C4.662516-.308842 4.552927-.308842 4.552927-.757161V-2.590286C4.552927-3.626401 5.260274-4.184309 5.897883-4.184309C6.525529-4.184309 6.635118-3.646326 6.635118-3.078456V-.757161C6.635118-.308842 6.525529-.308842 5.858032-.308842V0C6.206725-.009963 6.714819-.029888 6.983811-.029888C7.242839-.029888 7.760897-.009963 8.099626 0V-.308842C7.581569-.308842 7.332503-.308842 7.32254-.607721V-2.510585C7.32254-3.367372 7.32254-3.676214 7.013699-4.034869C6.874222-4.204234 6.545455-4.403487 5.967621-4.403487C5.13076-4.403487 4.692403-3.805729 4.523039-3.427148C4.383562-4.293898 3.646326-4.403487 3.198007-4.403487C2.470735-4.403487 2.002491-3.975093 1.723537-3.35741V-4.403487L.318804-4.293898V-3.985056C1.016189-3.985056 1.09589-3.915318 1.09589-3.427148Z'/>
<path id='g2-110' d='M1.09589-3.427148V-.757161C1.09589-.308842 .986301-.308842 .318804-.308842V0C.667497-.009963 1.175592-.029888 1.444583-.029888C1.703611-.029888 2.221669-.009963 2.560399 0V-.308842C1.892902-.308842 1.783313-.308842 1.783313-.757161V-2.590286C1.783313-3.626401 2.49066-4.184309 3.128269-4.184309C3.755915-4.184309 3.865504-3.646326 3.865504-3.078456V-.757161C3.865504-.308842 3.755915-.308842 3.088418-.308842V0C3.437111-.009963 3.945205-.029888 4.214197-.029888C4.473225-.029888 4.991283-.009963 5.330012 0V-.308842C4.811955-.308842 4.562889-.308842 4.552927-.607721V-2.510585C4.552927-3.367372 4.552927-3.676214 4.244085-4.034869C4.104608-4.204234 3.775841-4.403487 3.198007-4.403487C2.470735-4.403487 2.002491-3.975093 1.723537-3.35741V-4.403487L.318804-4.293898V-3.985056C1.016189-3.985056 1.09589-3.915318 1.09589-3.427148Z'/>
<path id='g2-111' d='M4.692403-2.132005C4.692403-3.407223 3.696139-4.463263 2.49066-4.463263C1.24533-4.463263 .278954-3.377335 .278954-2.132005C.278954-.846824 1.315068 .109589 2.480697 .109589C3.686177 .109589 4.692403-.86675 4.692403-2.132005ZM2.49066-.139477C2.062267-.139477 1.62391-.348692 1.354919-.806974C1.105853-1.24533 1.105853-1.853051 1.105853-2.211706C1.105853-2.600249 1.105853-3.138232 1.344956-3.576588C1.613948-4.034869 2.082192-4.244085 2.480697-4.244085C2.919054-4.244085 3.347447-4.024907 3.606476-3.596513S3.865504-2.590286 3.865504-2.211706C3.865504-1.853051 3.865504-1.315068 3.646326-.876712C3.427148-.428394 2.988792-.139477 2.49066-.139477Z'/>
<path id='g2-112' d='M1.713574-3.745953V-4.403487L.278954-4.293898V-3.985056C.986301-3.985056 1.05604-3.92528 1.05604-3.486924V1.175592C1.05604 1.62391 .946451 1.62391 .278954 1.62391V1.932752C.617684 1.92279 1.135741 1.902864 1.39477 1.902864C1.663761 1.902864 2.171856 1.92279 2.520548 1.932752V1.62391C1.853051 1.62391 1.743462 1.62391 1.743462 1.175592V-.498132V-.587796C1.793275-.428394 2.211706 .109589 2.968867 .109589C4.154421 .109589 5.190535-.86675 5.190535-2.15193C5.190535-3.417186 4.224159-4.403487 3.108344-4.403487C2.331258-4.403487 1.912827-3.965131 1.713574-3.745953ZM1.743462-1.135741V-3.35741C2.032379-3.865504 2.520548-4.154421 3.028643-4.154421C3.755915-4.154421 4.363636-3.277709 4.363636-2.15193C4.363636-.946451 3.666252-.109589 2.929016-.109589C2.530511-.109589 2.15193-.308842 1.882939-.71731C1.743462-.926526 1.743462-.936488 1.743462-1.135741Z'/>
<path id='g2-114' d='M1.663761-3.307597V-4.403487L.278954-4.293898V-3.985056C.976339-3.985056 1.05604-3.915318 1.05604-3.427148V-.757161C1.05604-.308842 .946451-.308842 .278954-.308842V0C.667497-.009963 1.135741-.029888 1.414695-.029888C1.8132-.029888 2.281445-.029888 2.67995 0V-.308842H2.470735C1.733499-.308842 1.713574-.418431 1.713574-.777086V-2.311333C1.713574-3.297634 2.132005-4.184309 2.889166-4.184309C2.958904-4.184309 2.978829-4.184309 2.998755-4.174346C2.968867-4.164384 2.769614-4.044832 2.769614-3.785803C2.769614-3.506849 2.978829-3.35741 3.198007-3.35741C3.377335-3.35741 3.626401-3.476961 3.626401-3.795766S3.317559-4.403487 2.889166-4.403487C2.161893-4.403487 1.803238-3.73599 1.663761-3.307597Z'/>
<path id='g2-115' d='M2.072229-1.932752C2.291407-1.892902 3.108344-1.733499 3.108344-1.016189C3.108344-.508095 2.759651-.109589 1.982565-.109589C1.145704-.109589 .787049-.67746 .597758-1.524284C.56787-1.653798 .557908-1.693649 .458281-1.693649C.328767-1.693649 .328767-1.62391 .328767-1.444583V-.129514C.328767 .039851 .328767 .109589 .438356 .109589C.488169 .109589 .498132 .099626 .687422-.089664C.707347-.109589 .707347-.129514 .886675-.318804C1.325031 .099626 1.77335 .109589 1.982565 .109589C3.128269 .109589 3.58655-.557908 3.58655-1.275218C3.58655-1.803238 3.287671-2.102117 3.16812-2.221669C2.839352-2.540473 2.450809-2.620174 2.032379-2.699875C1.474471-2.809465 .806974-2.938979 .806974-3.516812C.806974-3.865504 1.066002-4.273973 1.92279-4.273973C3.01868-4.273973 3.068493-3.377335 3.088418-3.068493C3.098381-2.978829 3.188045-2.978829 3.20797-2.978829C3.337484-2.978829 3.337484-3.028643 3.337484-3.217933V-4.224159C3.337484-4.393524 3.337484-4.463263 3.227895-4.463263C3.178082-4.463263 3.158157-4.463263 3.028643-4.343711C2.998755-4.303861 2.899128-4.214197 2.859278-4.184309C2.480697-4.463263 2.072229-4.463263 1.92279-4.463263C.707347-4.463263 .328767-3.795766 .328767-3.237858C.328767-2.889166 .488169-2.610212 .757161-2.391034C1.075965-2.132005 1.354919-2.072229 2.072229-1.932752Z'/>
<path id='g2-116' d='M1.723537-3.985056H3.148194V-4.293898H1.723537V-6.127024H1.474471C1.464508-5.310087 1.165629-4.244085 .18929-4.204234V-3.985056H1.036115V-1.235367C1.036115-.009963 1.96264 .109589 2.321295 .109589C3.028643 .109589 3.307597-.597758 3.307597-1.235367V-1.803238H3.058531V-1.255293C3.058531-.518057 2.759651-.139477 2.391034-.139477C1.723537-.139477 1.723537-1.046077 1.723537-1.215442V-3.985056Z'/>
<path id='g2-117' d='M3.895392-.787049V.109589L5.330012 0V-.308842C4.632628-.308842 4.552927-.37858 4.552927-.86675V-4.403487L3.088418-4.293898V-3.985056C3.785803-3.985056 3.865504-3.915318 3.865504-3.427148V-1.653798C3.865504-.787049 3.387298-.109589 2.660025-.109589C1.823163-.109589 1.783313-.577833 1.783313-1.09589V-4.403487L.318804-4.293898V-3.985056C1.09589-3.985056 1.09589-3.955168 1.09589-3.068493V-1.574097C1.09589-.797011 1.09589 .109589 2.610212 .109589C3.16812 .109589 3.606476-.169365 3.895392-.787049Z'/>
<path id='g2-118' d='M4.144458-3.317559C4.234122-3.5467 4.403487-3.975093 5.061021-3.985056V-4.293898C4.83188-4.273973 4.542964-4.26401 4.313823-4.26401C4.07472-4.26401 3.616438-4.283935 3.447073-4.293898V-3.985056C3.815691-3.975093 3.92528-3.745953 3.92528-3.556663C3.92528-3.466999 3.905355-3.427148 3.865504-3.317559L2.849315-.777086L1.733499-3.556663C1.673724-3.686177 1.673724-3.706102 1.673724-3.726027C1.673724-3.985056 2.062267-3.985056 2.241594-3.985056V-4.293898C1.942715-4.283935 1.384807-4.26401 1.155666-4.26401C.886675-4.26401 .488169-4.273973 .18929-4.293898V-3.985056C.816936-3.985056 .856787-3.92528 .986301-3.616438L2.420922-.079701C2.480697 .059776 2.500623 .109589 2.630137 .109589S2.799502 .019925 2.839352-.079701L4.144458-3.317559Z'/>
<path id='g2-121' d='M4.134496-3.347447C4.393524-3.975093 4.901619-3.985056 5.061021-3.985056V-4.293898C4.83188-4.273973 4.542964-4.26401 4.313823-4.26401C4.134496-4.26401 3.666252-4.283935 3.447073-4.293898V-3.985056C3.755915-3.975093 3.915318-3.805729 3.915318-3.556663C3.915318-3.457036 3.905355-3.437111 3.855542-3.317559L2.849315-.86675L1.743462-3.5467C1.703611-3.646326 1.683686-3.686177 1.683686-3.726027C1.683686-3.985056 2.052304-3.985056 2.241594-3.985056V-4.293898C1.982565-4.283935 1.325031-4.26401 1.155666-4.26401C.886675-4.26401 .488169-4.273973 .18929-4.293898V-3.985056C.667497-3.985056 .856787-3.985056 .996264-3.636364L2.49066 0C2.440847 .129514 2.30137 .458281 2.241594 .587796C2.022416 1.135741 1.743462 1.823163 1.105853 1.823163C1.05604 1.823163 .826899 1.823163 .637609 1.643836C.946451 1.603985 1.026152 1.384807 1.026152 1.225405C1.026152 .966376 .836862 .806974 .607721 .806974C.408468 .806974 .18929 .936488 .18929 1.235367C.18929 1.683686 .607721 2.042341 1.105853 2.042341C1.733499 2.042341 2.141968 1.474471 2.381071 .9066L4.134496-3.347447Z'/>
</defs>
<g id='page1'>
<use x='10.36532' y='-11.955168' xlink:href='#g2-71'/>
<use x='18.183245' y='-11.955168' xlink:href='#g2-97'/>
<use x='23.164584' y='-11.955168' xlink:href='#g2-108'/>
<use x='25.931976' y='-11.955168' xlink:href='#g2-40'/>
<use x='29.806349' y='-11.955168' xlink:href='#g0-102'/>
<use x='35.756297' y='-11.955168' xlink:href='#g2-41'/>
<use x='39.63067' y='-10.460787' xlink:href='#g1-107'/>
<use x='47.85333' y='-11.955168' xlink:href='#g2-100'/>
<use x='53.388147' y='-11.955168' xlink:href='#g2-101'/>
<use x='57.815998' y='-11.955168' xlink:href='#g2-110'/>
<use x='63.350815' y='-11.955168' xlink:href='#g2-111'/>
<use x='68.332154' y='-11.955168' xlink:href='#g2-116'/>
<use x='72.206528' y='-11.955168' xlink:href='#g2-101'/>
<use x='76.63438' y='-11.955168' xlink:href='#g2-115'/>
<use x='83.884972' y='-11.955168' xlink:href='#g2-116'/>
<use x='87.759346' y='-11.955168' xlink:href='#g2-104'/>
<use x='93.294163' y='-11.955168' xlink:href='#g2-101'/>
<use x='101.04289' y='-11.955168' xlink:href='#g2-115'/>
<use x='104.972608' y='-11.955168' xlink:href='#g2-117'/>
<use x='110.507424' y='-11.955168' xlink:href='#g2-98'/>
<use x='116.042241' y='-11.955168' xlink:href='#g2-115'/>
<use x='119.971959' y='-11.955168' xlink:href='#g2-101'/>
<use x='124.399811' y='-11.955168' xlink:href='#g2-116'/>
<use x='131.59506' y='-11.955168' xlink:href='#g2-111'/>
<use x='136.576399' y='-11.955168' xlink:href='#g2-102'/>
<use x='142.94143' y='-11.955168' xlink:href='#g2-71'/>
<use x='150.759356' y='-11.955168' xlink:href='#g2-97'/>
<use x='155.740695' y='-11.955168' xlink:href='#g2-108'/>
<use x='158.508086' y='-11.955168' xlink:href='#g2-40'/>
<use x='162.38246' y='-11.955168' xlink:href='#g0-102'/>
<use x='168.332407' y='-11.955168' xlink:href='#g2-41'/>
<use x='175.527656' y='-11.955168' xlink:href='#g2-111'/>
<use x='180.508995' y='-11.955168' xlink:href='#g2-102'/>
<use x='186.874027' y='-11.955168' xlink:href='#g2-112'/>
<use x='192.685592' y='-11.955168' xlink:href='#g2-101'/>
<use x='197.113444' y='-11.955168' xlink:href='#g2-114'/>
<use x='201.015494' y='-11.955168' xlink:href='#g2-109'/>
<use x='209.040971' y='-11.955168' xlink:href='#g2-117'/>
<use x='214.575788' y='-11.955168' xlink:href='#g2-116'/>
<use x='218.450162' y='-11.955168' xlink:href='#g2-97'/>
<use x='223.431501' y='-11.955168' xlink:href='#g2-116'/>
<use x='227.305875' y='-11.955168' xlink:href='#g2-105'/>
<use x='230.073283' y='-11.955168' xlink:href='#g2-111'/>
<use x='235.054622' y='-11.955168' xlink:href='#g2-110'/>
<use x='240.589439' y='-11.955168' xlink:href='#g2-115'/>
<use x='247.840032' y='-11.955168' xlink:href='#g2-116'/>
<use x='251.714406' y='-11.955168' xlink:href='#g2-104'/>
<use x='257.249223' y='-11.955168' xlink:href='#g2-97'/>
<use x='262.230562' y='-11.955168' xlink:href='#g2-116'/>
<use x='269.42581' y='-11.955168' xlink:href='#g2-104'/>
<use x='274.960627' y='-11.955168' xlink:href='#g2-97'/>
<use x='279.665218' y='-11.955168' xlink:href='#g2-118'/>
<use x='284.646557' y='-11.955168' xlink:href='#g2-101'/>
<use x='292.395284' y='-11.955168' xlink:href='#g0-107'/>
<use x='301.216378' y='-11.955168' xlink:href='#g2-105'/>
<use x='303.983787' y='-11.955168' xlink:href='#g2-110'/>
<use x='312.839479' y='-11.955168' xlink:href='#g2-116'/>
<use x='316.713852' y='-11.955168' xlink:href='#g2-104'/>
<use x='322.248669' y='-11.955168' xlink:href='#g2-101'/>
<use x='326.676521' y='-11.955168' xlink:href='#g2-105'/>
<use x='329.443929' y='-11.955168' xlink:href='#g2-114'/>
<use x='142.092109' y='0' xlink:href='#g2-99'/>
<use x='146.51996' y='0' xlink:href='#g2-121'/>
<use x='151.778048' y='0' xlink:href='#g2-99'/>
<use x='156.2059' y='0' xlink:href='#g2-108'/>
<use x='158.973308' y='0' xlink:href='#g2-101'/>
<use x='166.722035' y='0' xlink:href='#g2-112'/>
<use x='172.256852' y='0' xlink:href='#g2-97'/>
<use x='177.238191' y='0' xlink:href='#g2-116'/>
<use x='181.112564' y='0' xlink:href='#g2-116'/>
<use x='184.986938' y='0' xlink:href='#g2-101'/>
<use x='189.41479' y='0' xlink:href='#g2-114'/>
<use x='193.31684' y='0' xlink:href='#g2-110'/>
<use x='198.851657' y='0' xlink:href='#g2-46'/>
</g>
</svg>