<?xml version='1.0' encoding='UTF-8'?>
<!-- This file was generated by dvisvgm 2.13.1 -->
<svg version='1.1' xmlns='http://www.w3.org/2000/svg' xmlns:xlink='http://www.w3.org/1999/xlink' width='18.282177pt' height='6.918502pt' viewBox='162.714467 -6.918502 18.282177 6.918502'>
<defs>
<path id='g0-100' d='M5.140722-6.804483C5.140722-6.814446 5.140722-6.914072 5.011208-6.914072C4.861768-6.914072 3.915318-6.824408 3.745953-6.804483C3.666252-6.794521 3.606476-6.744707 3.606476-6.615193C3.606476-6.495641 3.696139-6.495641 3.845579-6.495641C4.323786-6.495641 4.343711-6.425903 4.343711-6.326276L4.313823-6.127024L3.716065-3.765878C3.536737-4.134496 3.247821-4.403487 2.799502-4.403487C1.633873-4.403487 .398506-2.938979 .398506-1.484433C.398506-.547945 .946451 .109589 1.723537 .109589C1.92279 .109589 2.420922 .069738 3.01868-.637609C3.098381-.219178 3.447073 .109589 3.92528 .109589C4.273973 .109589 4.503113-.119552 4.662516-.438356C4.83188-.797011 4.961395-1.404732 4.961395-1.424658C4.961395-1.524284 4.871731-1.524284 4.841843-1.524284C4.742217-1.524284 4.732254-1.484433 4.702366-1.344956C4.533001-.697385 4.353674-.109589 3.945205-.109589C3.676214-.109589 3.646326-.368618 3.646326-.56787C3.646326-.806974 3.666252-.876712 3.706102-1.046077L5.140722-6.804483ZM3.068493-1.185554C3.01868-1.006227 3.01868-.986301 2.86924-.816936C2.430884-.268991 2.022416-.109589 1.743462-.109589C1.24533-.109589 1.105853-.657534 1.105853-1.046077C1.105853-1.544209 1.424658-2.769614 1.653798-3.227895C1.96264-3.815691 2.410959-4.184309 2.809465-4.184309C3.457036-4.184309 3.596513-3.367372 3.596513-3.307597S3.576588-3.188045 3.566625-3.138232L3.068493-1.185554Z'/>
<path id='g0-111' d='M4.672478-2.719801C4.672478-3.755915 3.975093-4.403487 3.078456-4.403487C1.743462-4.403487 .408468-2.988792 .408468-1.574097C.408468-.587796 1.075965 .109589 2.002491 .109589C3.327522 .109589 4.672478-1.265255 4.672478-2.719801ZM2.012453-.109589C1.58406-.109589 1.145704-.418431 1.145704-1.195517C1.145704-1.683686 1.404732-2.759651 1.723537-3.267746C2.221669-4.034869 2.789539-4.184309 3.068493-4.184309C3.646326-4.184309 3.945205-3.706102 3.945205-3.108344C3.945205-2.719801 3.745953-1.673724 3.367372-1.026152C3.01868-.448319 2.470735-.109589 2.012453-.109589Z'/>
<path id='g0-115' d='M3.895392-3.726027C3.616438-3.716065 3.417186-3.496887 3.417186-3.277709C3.417186-3.138232 3.506849-2.988792 3.726027-2.988792S4.184309-3.158157 4.184309-3.5467C4.184309-3.995019 3.755915-4.403487 2.998755-4.403487C1.683686-4.403487 1.315068-3.387298 1.315068-2.948941C1.315068-2.171856 2.052304-2.022416 2.34122-1.96264C2.859278-1.863014 3.377335-1.753425 3.377335-1.205479C3.377335-.946451 3.148194-.109589 1.952677-.109589C1.8132-.109589 1.046077-.109589 .816936-.637609C1.195517-.587796 1.444583-.886675 1.444583-1.165629C1.444583-1.39477 1.285181-1.514321 1.075965-1.514321C.816936-1.514321 .518057-1.305106 .518057-.856787C.518057-.288917 1.085928 .109589 1.942715 .109589C3.556663 .109589 3.945205-1.09589 3.945205-1.544209C3.945205-1.902864 3.755915-2.15193 3.636364-2.271482C3.367372-2.550436 3.078456-2.600249 2.6401-2.689913C2.281445-2.769614 1.882939-2.839352 1.882939-3.287671C1.882939-3.576588 2.122042-4.184309 2.998755-4.184309C3.247821-4.184309 3.745953-4.11457 3.895392-3.726027Z'/>
<path id='g0-116' d='M2.052304-3.985056H2.988792C3.188045-3.985056 3.287671-3.985056 3.287671-4.184309C3.287671-4.293898 3.188045-4.293898 3.008717-4.293898H2.132005C2.49066-5.708593 2.540473-5.907846 2.540473-5.967621C2.540473-6.136986 2.420922-6.236613 2.251557-6.236613C2.221669-6.236613 1.942715-6.22665 1.853051-5.877958L1.464508-4.293898H.52802C.328767-4.293898 .229141-4.293898 .229141-4.104608C.229141-3.985056 .308842-3.985056 .508095-3.985056H1.384807C.667497-1.155666 .627646-.986301 .627646-.806974C.627646-.268991 1.006227 .109589 1.544209 .109589C2.560399 .109589 3.128269-1.344956 3.128269-1.424658C3.128269-1.524284 3.048568-1.524284 3.008717-1.524284C2.919054-1.524284 2.909091-1.494396 2.859278-1.384807C2.430884-.348692 1.902864-.109589 1.564134-.109589C1.354919-.109589 1.255293-.239103 1.255293-.56787C1.255293-.806974 1.275218-.876712 1.315068-1.046077L2.052304-3.985056Z'/>
</defs>
<g id='page1'>
<use x='162.714467' y='0' xlink:href='#g0-111'/>
<use x='167.543588' y='0' xlink:href='#g0-100'/>
<use x='172.729021' y='0' xlink:href='#g0-116'/>
<use x='176.326656' y='0' xlink:href='#g0-115'/>
</g>
</svg>