<?xml version='1.0' encoding='UTF-8'?>
<!-- This file was generated by dvisvgm 2.13.1 -->
<svg version='1.1' xmlns='http://www.w3.org/2000/svg' xmlns:xlink='http://www.w3.org/1999/xlink' width='46.575485pt' height='6.918502pt' viewBox='148.567825 -6.918502 46.575485 6.918502'>
<defs>
<path id='g0-97' d='M3.317559-.757161C3.35741-.358655 3.626401 .059776 4.094645 .059776C4.303861 .059776 4.911582-.079701 4.911582-.886675V-1.444583H4.662516V-.886675C4.662516-.308842 4.41345-.249066 4.303861-.249066C3.975093-.249066 3.935243-.697385 3.935243-.747198V-2.739726C3.935243-3.158157 3.935243-3.5467 3.576588-3.915318C3.188045-4.303861 2.689913-4.463263 2.211706-4.463263C1.39477-4.463263 .707347-3.995019 .707347-3.337484C.707347-3.038605 .9066-2.86924 1.165629-2.86924C1.444583-2.86924 1.62391-3.068493 1.62391-3.327522C1.62391-3.447073 1.574097-3.775841 1.115816-3.785803C1.384807-4.134496 1.872976-4.244085 2.191781-4.244085C2.67995-4.244085 3.247821-3.855542 3.247821-2.968867V-2.600249C2.739726-2.570361 2.042341-2.540473 1.414695-2.241594C.667497-1.902864 .418431-1.384807 .418431-.946451C.418431-.139477 1.384807 .109589 2.012453 .109589C2.669988 .109589 3.128269-.288917 3.317559-.757161ZM3.247821-2.391034V-1.39477C3.247821-.448319 2.530511-.109589 2.082192-.109589C1.594022-.109589 1.185554-.458281 1.185554-.956413C1.185554-1.504359 1.603985-2.331258 3.247821-2.391034Z'/>
<path id='g0-104' d='M1.09589-.757161C1.09589-.308842 .986301-.308842 .318804-.308842V0C.667497-.009963 1.175592-.029888 1.444583-.029888C1.703611-.029888 2.221669-.009963 2.560399 0V-.308842C1.892902-.308842 1.783313-.308842 1.783313-.757161V-2.590286C1.783313-3.626401 2.49066-4.184309 3.128269-4.184309C3.755915-4.184309 3.865504-3.646326 3.865504-3.078456V-.757161C3.865504-.308842 3.755915-.308842 3.088418-.308842V0C3.437111-.009963 3.945205-.029888 4.214197-.029888C4.473225-.029888 4.991283-.009963 5.330012 0V-.308842C4.811955-.308842 4.562889-.308842 4.552927-.607721V-2.510585C4.552927-3.367372 4.552927-3.676214 4.244085-4.034869C4.104608-4.204234 3.775841-4.403487 3.198007-4.403487C2.361146-4.403487 1.92279-3.805729 1.753425-3.427148V-6.914072L.318804-6.804483V-6.495641C1.016189-6.495641 1.09589-6.425903 1.09589-5.937733V-.757161Z'/>
<path id='g0-107' d='M1.05604-.757161C1.05604-.308842 .946451-.308842 .278954-.308842V0C.607721-.009963 1.075965-.029888 1.364882-.029888C1.663761-.029888 2.062267-.019925 2.460772 0V-.308842C1.793275-.308842 1.683686-.308842 1.683686-.757161V-1.783313L2.321295-2.331258C3.088418-1.275218 3.506849-.71731 3.506849-.537983C3.506849-.348692 3.337484-.308842 3.148194-.308842V0C3.427148-.009963 4.014944-.029888 4.224159-.029888C4.513076-.029888 4.801993-.019925 5.090909 0V-.308842C4.722291-.308842 4.503113-.308842 4.124533-.836862L2.859278-2.620174C2.849315-2.6401 2.799502-2.699875 2.799502-2.729763C2.799502-2.769614 3.506849-3.367372 3.606476-3.447073C4.234122-3.955168 4.652553-3.975093 4.861768-3.985056V-4.293898C4.572852-4.26401 4.443337-4.26401 4.164384-4.26401C3.805729-4.26401 3.188045-4.283935 3.048568-4.293898V-3.985056C3.237858-3.975093 3.337484-3.865504 3.337484-3.73599C3.337484-3.536737 3.198007-3.417186 3.118306-3.347447L1.713574-2.132005V-6.914072L.278954-6.804483V-6.495641C.976339-6.495641 1.05604-6.425903 1.05604-5.937733V-.757161Z'/>
<path id='g0-111' d='M4.692403-2.132005C4.692403-3.407223 3.696139-4.463263 2.49066-4.463263C1.24533-4.463263 .278954-3.377335 .278954-2.132005C.278954-.846824 1.315068 .109589 2.480697 .109589C3.686177 .109589 4.692403-.86675 4.692403-2.132005ZM2.49066-.139477C2.062267-.139477 1.62391-.348692 1.354919-.806974C1.105853-1.24533 1.105853-1.853051 1.105853-2.211706C1.105853-2.600249 1.105853-3.138232 1.344956-3.576588C1.613948-4.034869 2.082192-4.244085 2.480697-4.244085C2.919054-4.244085 3.347447-4.024907 3.606476-3.596513S3.865504-2.590286 3.865504-2.211706C3.865504-1.853051 3.865504-1.315068 3.646326-.876712C3.427148-.428394 2.988792-.139477 2.49066-.139477Z'/>
<path id='g0-114' d='M1.663761-3.307597V-4.403487L.278954-4.293898V-3.985056C.976339-3.985056 1.05604-3.915318 1.05604-3.427148V-.757161C1.05604-.308842 .946451-.308842 .278954-.308842V0C.667497-.009963 1.135741-.029888 1.414695-.029888C1.8132-.029888 2.281445-.029888 2.67995 0V-.308842H2.470735C1.733499-.308842 1.713574-.418431 1.713574-.777086V-2.311333C1.713574-3.297634 2.132005-4.184309 2.889166-4.184309C2.958904-4.184309 2.978829-4.184309 2.998755-4.174346C2.968867-4.164384 2.769614-4.044832 2.769614-3.785803C2.769614-3.506849 2.978829-3.35741 3.198007-3.35741C3.377335-3.35741 3.626401-3.476961 3.626401-3.795766S3.317559-4.403487 2.889166-4.403487C2.161893-4.403487 1.803238-3.73599 1.663761-3.307597Z'/>
<path id='g0-115' d='M2.072229-1.932752C2.291407-1.892902 3.108344-1.733499 3.108344-1.016189C3.108344-.508095 2.759651-.109589 1.982565-.109589C1.145704-.109589 .787049-.67746 .597758-1.524284C.56787-1.653798 .557908-1.693649 .458281-1.693649C.328767-1.693649 .328767-1.62391 .328767-1.444583V-.129514C.328767 .039851 .328767 .109589 .438356 .109589C.488169 .109589 .498132 .099626 .687422-.089664C.707347-.109589 .707347-.129514 .886675-.318804C1.325031 .099626 1.77335 .109589 1.982565 .109589C3.128269 .109589 3.58655-.557908 3.58655-1.275218C3.58655-1.803238 3.287671-2.102117 3.16812-2.221669C2.839352-2.540473 2.450809-2.620174 2.032379-2.699875C1.474471-2.809465 .806974-2.938979 .806974-3.516812C.806974-3.865504 1.066002-4.273973 1.92279-4.273973C3.01868-4.273973 3.068493-3.377335 3.088418-3.068493C3.098381-2.978829 3.188045-2.978829 3.20797-2.978829C3.337484-2.978829 3.337484-3.028643 3.337484-3.217933V-4.224159C3.337484-4.393524 3.337484-4.463263 3.227895-4.463263C3.178082-4.463263 3.158157-4.463263 3.028643-4.343711C2.998755-4.303861 2.899128-4.214197 2.859278-4.184309C2.480697-4.463263 2.072229-4.463263 1.92279-4.463263C.707347-4.463263 .328767-3.795766 .328767-3.237858C.328767-2.889166 .488169-2.610212 .757161-2.391034C1.075965-2.132005 1.354919-2.072229 2.072229-1.932752Z'/>
<path id='g0-116' d='M1.723537-3.985056H3.148194V-4.293898H1.723537V-6.127024H1.474471C1.464508-5.310087 1.165629-4.244085 .18929-4.204234V-3.985056H1.036115V-1.235367C1.036115-.009963 1.96264 .109589 2.321295 .109589C3.028643 .109589 3.307597-.597758 3.307597-1.235367V-1.803238H3.058531V-1.255293C3.058531-.518057 2.759651-.139477 2.391034-.139477C1.723537-.139477 1.723537-1.046077 1.723537-1.215442V-3.985056Z'/>
<path id='g0-119' d='M6.166874-3.347447C6.346202-3.845579 6.655044-3.975093 7.003736-3.985056V-4.293898C6.784558-4.273973 6.495641-4.26401 6.276463-4.26401C5.987547-4.26401 5.539228-4.283935 5.349938-4.293898V-3.985056C5.708593-3.975093 5.927771-3.795766 5.927771-3.506849C5.927771-3.447073 5.927771-3.427148 5.877958-3.297634L4.971357-.747198L3.985056-3.526775C3.945205-3.646326 3.935243-3.666252 3.935243-3.716065C3.935243-3.985056 4.323786-3.985056 4.523039-3.985056V-4.293898C4.234122-4.283935 3.726027-4.26401 3.486924-4.26401C3.188045-4.26401 2.899128-4.273973 2.600249-4.293898V-3.985056C2.968867-3.985056 3.128269-3.965131 3.227895-3.835616C3.277709-3.775841 3.387298-3.476961 3.457036-3.287671L2.600249-.876712L1.653798-3.536737C1.603985-3.656289 1.603985-3.676214 1.603985-3.716065C1.603985-3.985056 1.992528-3.985056 2.191781-3.985056V-4.293898C1.892902-4.283935 1.334994-4.26401 1.105853-4.26401C1.066002-4.26401 .537983-4.273973 .179328-4.293898V-3.985056C.67746-3.985056 .797011-3.955168 .916563-3.636364L2.171856-.109589C2.221669 .029888 2.251557 .109589 2.381071 .109589S2.530511 .049813 2.580324-.089664L3.58655-2.909091L4.60274-.079701C4.64259 .029888 4.672478 .109589 4.801993 .109589S4.961395 .019925 5.001245-.079701L6.166874-3.347447Z'/>
</defs>
<g id='page1'>
<use x='148.567825' y='0' xlink:href='#g0-116'/>
<use x='152.442199' y='0' xlink:href='#g0-104'/>
<use x='157.977016' y='0' xlink:href='#g0-97'/>
<use x='162.958355' y='0' xlink:href='#g0-116'/>
<use x='170.153603' y='0' xlink:href='#g0-119'/>
<use x='177.072115' y='0' xlink:href='#g0-111'/>
<use x='182.053454' y='0' xlink:href='#g0-114'/>
<use x='185.955505' y='0' xlink:href='#g0-107'/>
<use x='191.213592' y='0' xlink:href='#g0-115'/>
</g>
</svg>