<?xml version='1.0' encoding='UTF-8'?>
<!-- This file was generated by dvisvgm 2.13.1 -->
<svg version='1.1' xmlns='http://www.w3.org/2000/svg' xmlns:xlink='http://www.w3.org/1999/xlink' width='168.479824pt' height='8.855684pt' viewBox='0 -18.87367 168.479824 8.855684'>
<defs>
<path id='g0-46' d='M1.912827-.52802C1.912827-.816936 1.673724-1.05604 1.384807-1.05604S.856787-.816936 .856787-.52802S1.09589 0 1.384807 0S1.912827-.239103 1.912827-.52802Z'/>
<path id='g0-58' d='M1.912827-3.765878C1.912827-4.054795 1.673724-4.293898 1.384807-4.293898S.856787-4.054795 .856787-3.765878S1.09589-3.237858 1.384807-3.237858S1.912827-3.476961 1.912827-3.765878ZM1.912827-.52802C1.912827-.816936 1.673724-1.05604 1.384807-1.05604S.856787-.816936 .856787-.52802S1.09589 0 1.384807 0S1.912827-.239103 1.912827-.52802Z'/>
<path id='g0-68' d='M.348692-6.804483V-6.495641H.587796C1.354919-6.495641 1.374844-6.386052 1.374844-6.027397V-.777086C1.374844-.418431 1.354919-.308842 .587796-.308842H.348692V0H3.995019C5.668742 0 7.043587-1.474471 7.043587-3.347447C7.043587-5.240349 5.69863-6.804483 3.995019-6.804483H.348692ZM2.719801-.308842C2.251557-.308842 2.231631-.37858 2.231631-.707347V-6.097136C2.231631-6.425903 2.251557-6.495641 2.719801-6.495641H3.716065C4.333748-6.495641 5.021171-6.276463 5.529265-5.569116C5.957659-4.98132 6.047323-4.124533 6.047323-3.347447C6.047323-2.241594 5.858032-1.643836 5.499377-1.155666C5.300125-.886675 4.732254-.308842 3.726027-.308842H2.719801Z'/>
<path id='g0-97' d='M3.317559-.757161C3.35741-.358655 3.626401 .059776 4.094645 .059776C4.303861 .059776 4.911582-.079701 4.911582-.886675V-1.444583H4.662516V-.886675C4.662516-.308842 4.41345-.249066 4.303861-.249066C3.975093-.249066 3.935243-.697385 3.935243-.747198V-2.739726C3.935243-3.158157 3.935243-3.5467 3.576588-3.915318C3.188045-4.303861 2.689913-4.463263 2.211706-4.463263C1.39477-4.463263 .707347-3.995019 .707347-3.337484C.707347-3.038605 .9066-2.86924 1.165629-2.86924C1.444583-2.86924 1.62391-3.068493 1.62391-3.327522C1.62391-3.447073 1.574097-3.775841 1.115816-3.785803C1.384807-4.134496 1.872976-4.244085 2.191781-4.244085C2.67995-4.244085 3.247821-3.855542 3.247821-2.968867V-2.600249C2.739726-2.570361 2.042341-2.540473 1.414695-2.241594C.667497-1.902864 .418431-1.384807 .418431-.946451C.418431-.139477 1.384807 .109589 2.012453 .109589C2.669988 .109589 3.128269-.288917 3.317559-.757161ZM3.247821-2.391034V-1.39477C3.247821-.448319 2.530511-.109589 2.082192-.109589C1.594022-.109589 1.185554-.458281 1.185554-.956413C1.185554-1.504359 1.603985-2.331258 3.247821-2.391034Z'/>
<path id='g0-99' d='M1.165629-2.171856C1.165629-3.795766 1.982565-4.214197 2.510585-4.214197C2.600249-4.214197 3.227895-4.204234 3.576588-3.845579C3.16812-3.815691 3.108344-3.516812 3.108344-3.387298C3.108344-3.128269 3.287671-2.929016 3.566625-2.929016C3.825654-2.929016 4.024907-3.098381 4.024907-3.39726C4.024907-4.07472 3.267746-4.463263 2.500623-4.463263C1.255293-4.463263 .33873-3.387298 .33873-2.15193C.33873-.876712 1.325031 .109589 2.480697 .109589C3.815691 .109589 4.134496-1.085928 4.134496-1.185554S4.034869-1.285181 4.004981-1.285181C3.915318-1.285181 3.895392-1.24533 3.875467-1.185554C3.58655-.259029 2.938979-.139477 2.570361-.139477C2.042341-.139477 1.165629-.56787 1.165629-2.171856Z'/>
<path id='g0-101' d='M1.115816-2.510585C1.175592-3.995019 2.012453-4.244085 2.351183-4.244085C3.377335-4.244085 3.476961-2.899128 3.476961-2.510585H1.115816ZM1.105853-2.30137H3.88543C4.104608-2.30137 4.134496-2.30137 4.134496-2.510585C4.134496-3.496887 3.596513-4.463263 2.351183-4.463263C1.195517-4.463263 .278954-3.437111 .278954-2.191781C.278954-.856787 1.325031 .109589 2.470735 .109589C3.686177 .109589 4.134496-.996264 4.134496-1.185554C4.134496-1.285181 4.054795-1.305106 4.004981-1.305106C3.915318-1.305106 3.895392-1.24533 3.875467-1.165629C3.526775-.139477 2.630137-.139477 2.530511-.139477C2.032379-.139477 1.633873-.438356 1.404732-.806974C1.105853-1.285181 1.105853-1.942715 1.105853-2.30137Z'/>
<path id='g0-105' d='M1.763387-4.403487L.368618-4.293898V-3.985056C1.016189-3.985056 1.105853-3.92528 1.105853-3.437111V-.757161C1.105853-.308842 .996264-.308842 .328767-.308842V0C.647572-.009963 1.185554-.029888 1.424658-.029888C1.77335-.029888 2.122042-.009963 2.460772 0V-.308842C1.803238-.308842 1.763387-.358655 1.763387-.747198V-4.403487ZM1.803238-6.136986C1.803238-6.455791 1.554172-6.665006 1.275218-6.665006C.966376-6.665006 .747198-6.396015 .747198-6.136986C.747198-5.867995 .966376-5.608966 1.275218-5.608966C1.554172-5.608966 1.803238-5.818182 1.803238-6.136986Z'/>
<path id='g0-108' d='M1.763387-6.914072L.328767-6.804483V-6.495641C1.026152-6.495641 1.105853-6.425903 1.105853-5.937733V-.757161C1.105853-.308842 .996264-.308842 .328767-.308842V0C.657534-.009963 1.185554-.029888 1.43462-.029888S2.171856-.009963 2.540473 0V-.308842C1.872976-.308842 1.763387-.308842 1.763387-.757161V-6.914072Z'/>
<path id='g0-109' d='M1.09589-3.427148V-.757161C1.09589-.308842 .986301-.308842 .318804-.308842V0C.667497-.009963 1.175592-.029888 1.444583-.029888C1.703611-.029888 2.221669-.009963 2.560399 0V-.308842C1.892902-.308842 1.783313-.308842 1.783313-.757161V-2.590286C1.783313-3.626401 2.49066-4.184309 3.128269-4.184309C3.755915-4.184309 3.865504-3.646326 3.865504-3.078456V-.757161C3.865504-.308842 3.755915-.308842 3.088418-.308842V0C3.437111-.009963 3.945205-.029888 4.214197-.029888C4.473225-.029888 4.991283-.009963 5.330012 0V-.308842C4.662516-.308842 4.552927-.308842 4.552927-.757161V-2.590286C4.552927-3.626401 5.260274-4.184309 5.897883-4.184309C6.525529-4.184309 6.635118-3.646326 6.635118-3.078456V-.757161C6.635118-.308842 6.525529-.308842 5.858032-.308842V0C6.206725-.009963 6.714819-.029888 6.983811-.029888C7.242839-.029888 7.760897-.009963 8.099626 0V-.308842C7.581569-.308842 7.332503-.308842 7.32254-.607721V-2.510585C7.32254-3.367372 7.32254-3.676214 7.013699-4.034869C6.874222-4.204234 6.545455-4.403487 5.967621-4.403487C5.13076-4.403487 4.692403-3.805729 4.523039-3.427148C4.383562-4.293898 3.646326-4.403487 3.198007-4.403487C2.470735-4.403487 2.002491-3.975093 1.723537-3.35741V-4.403487L.318804-4.293898V-3.985056C1.016189-3.985056 1.09589-3.915318 1.09589-3.427148Z'/>
<path id='g0-110' d='M1.09589-3.427148V-.757161C1.09589-.308842 .986301-.308842 .318804-.308842V0C.667497-.009963 1.175592-.029888 1.444583-.029888C1.703611-.029888 2.221669-.009963 2.560399 0V-.308842C1.892902-.308842 1.783313-.308842 1.783313-.757161V-2.590286C1.783313-3.626401 2.49066-4.184309 3.128269-4.184309C3.755915-4.184309 3.865504-3.646326 3.865504-3.078456V-.757161C3.865504-.308842 3.755915-.308842 3.088418-.308842V0C3.437111-.009963 3.945205-.029888 4.214197-.029888C4.473225-.029888 4.991283-.009963 5.330012 0V-.308842C4.811955-.308842 4.562889-.308842 4.552927-.607721V-2.510585C4.552927-3.367372 4.552927-3.676214 4.244085-4.034869C4.104608-4.204234 3.775841-4.403487 3.198007-4.403487C2.470735-4.403487 2.002491-3.975093 1.723537-3.35741V-4.403487L.318804-4.293898V-3.985056C1.016189-3.985056 1.09589-3.915318 1.09589-3.427148Z'/>
<path id='g0-111' d='M4.692403-2.132005C4.692403-3.407223 3.696139-4.463263 2.49066-4.463263C1.24533-4.463263 .278954-3.377335 .278954-2.132005C.278954-.846824 1.315068 .109589 2.480697 .109589C3.686177 .109589 4.692403-.86675 4.692403-2.132005ZM2.49066-.139477C2.062267-.139477 1.62391-.348692 1.354919-.806974C1.105853-1.24533 1.105853-1.853051 1.105853-2.211706C1.105853-2.600249 1.105853-3.138232 1.344956-3.576588C1.613948-4.034869 2.082192-4.244085 2.480697-4.244085C2.919054-4.244085 3.347447-4.024907 3.606476-3.596513S3.865504-2.590286 3.865504-2.211706C3.865504-1.853051 3.865504-1.315068 3.646326-.876712C3.427148-.428394 2.988792-.139477 2.49066-.139477Z'/>
<path id='g0-112' d='M1.713574-3.745953V-4.403487L.278954-4.293898V-3.985056C.986301-3.985056 1.05604-3.92528 1.05604-3.486924V1.175592C1.05604 1.62391 .946451 1.62391 .278954 1.62391V1.932752C.617684 1.92279 1.135741 1.902864 1.39477 1.902864C1.663761 1.902864 2.171856 1.92279 2.520548 1.932752V1.62391C1.853051 1.62391 1.743462 1.62391 1.743462 1.175592V-.498132V-.587796C1.793275-.428394 2.211706 .109589 2.968867 .109589C4.154421 .109589 5.190535-.86675 5.190535-2.15193C5.190535-3.417186 4.224159-4.403487 3.108344-4.403487C2.331258-4.403487 1.912827-3.965131 1.713574-3.745953ZM1.743462-1.135741V-3.35741C2.032379-3.865504 2.520548-4.154421 3.028643-4.154421C3.755915-4.154421 4.363636-3.277709 4.363636-2.15193C4.363636-.946451 3.666252-.109589 2.929016-.109589C2.530511-.109589 2.15193-.308842 1.882939-.71731C1.743462-.926526 1.743462-.936488 1.743462-1.135741Z'/>
<path id='g0-114' d='M1.663761-3.307597V-4.403487L.278954-4.293898V-3.985056C.976339-3.985056 1.05604-3.915318 1.05604-3.427148V-.757161C1.05604-.308842 .946451-.308842 .278954-.308842V0C.667497-.009963 1.135741-.029888 1.414695-.029888C1.8132-.029888 2.281445-.029888 2.67995 0V-.308842H2.470735C1.733499-.308842 1.713574-.418431 1.713574-.777086V-2.311333C1.713574-3.297634 2.132005-4.184309 2.889166-4.184309C2.958904-4.184309 2.978829-4.184309 2.998755-4.174346C2.968867-4.164384 2.769614-4.044832 2.769614-3.785803C2.769614-3.506849 2.978829-3.35741 3.198007-3.35741C3.377335-3.35741 3.626401-3.476961 3.626401-3.795766S3.317559-4.403487 2.889166-4.403487C2.161893-4.403487 1.803238-3.73599 1.663761-3.307597Z'/>
<path id='g0-115' d='M2.072229-1.932752C2.291407-1.892902 3.108344-1.733499 3.108344-1.016189C3.108344-.508095 2.759651-.109589 1.982565-.109589C1.145704-.109589 .787049-.67746 .597758-1.524284C.56787-1.653798 .557908-1.693649 .458281-1.693649C.328767-1.693649 .328767-1.62391 .328767-1.444583V-.129514C.328767 .039851 .328767 .109589 .438356 .109589C.488169 .109589 .498132 .099626 .687422-.089664C.707347-.109589 .707347-.129514 .886675-.318804C1.325031 .099626 1.77335 .109589 1.982565 .109589C3.128269 .109589 3.58655-.557908 3.58655-1.275218C3.58655-1.803238 3.287671-2.102117 3.16812-2.221669C2.839352-2.540473 2.450809-2.620174 2.032379-2.699875C1.474471-2.809465 .806974-2.938979 .806974-3.516812C.806974-3.865504 1.066002-4.273973 1.92279-4.273973C3.01868-4.273973 3.068493-3.377335 3.088418-3.068493C3.098381-2.978829 3.188045-2.978829 3.20797-2.978829C3.337484-2.978829 3.337484-3.028643 3.337484-3.217933V-4.224159C3.337484-4.393524 3.337484-4.463263 3.227895-4.463263C3.178082-4.463263 3.158157-4.463263 3.028643-4.343711C2.998755-4.303861 2.899128-4.214197 2.859278-4.184309C2.480697-4.463263 2.072229-4.463263 1.92279-4.463263C.707347-4.463263 .328767-3.795766 .328767-3.237858C.328767-2.889166 .488169-2.610212 .757161-2.391034C1.075965-2.132005 1.354919-2.072229 2.072229-1.932752Z'/>
<path id='g0-116' d='M1.723537-3.985056H3.148194V-4.293898H1.723537V-6.127024H1.474471C1.464508-5.310087 1.165629-4.244085 .18929-4.204234V-3.985056H1.036115V-1.235367C1.036115-.009963 1.96264 .109589 2.321295 .109589C3.028643 .109589 3.307597-.597758 3.307597-1.235367V-1.803238H3.058531V-1.255293C3.058531-.518057 2.759651-.139477 2.391034-.139477C1.723537-.139477 1.723537-1.046077 1.723537-1.215442V-3.985056Z'/>
<path id='g0-120' d='M2.859278-2.34122C3.158157-2.719801 3.536737-3.20797 3.775841-3.466999C4.084682-3.825654 4.493151-3.975093 4.961395-3.985056V-4.293898C4.702366-4.273973 4.403487-4.26401 4.144458-4.26401C3.845579-4.26401 3.317559-4.283935 3.188045-4.293898V-3.985056C3.39726-3.965131 3.476961-3.835616 3.476961-3.676214S3.377335-3.387298 3.327522-3.327522L2.709838-2.550436L1.932752-3.556663C1.843088-3.656289 1.843088-3.676214 1.843088-3.73599C1.843088-3.88543 1.992528-3.975093 2.191781-3.985056V-4.293898C1.932752-4.283935 1.275218-4.26401 1.115816-4.26401C.9066-4.26401 .438356-4.273973 .169365-4.293898V-3.985056C.86675-3.985056 .876712-3.975093 1.344956-3.377335L2.331258-2.092154L1.39477-.9066C.916563-.328767 .328767-.308842 .119552-.308842V0C.37858-.019925 .687422-.029888 .946451-.029888C1.235367-.029888 1.653798-.009963 1.892902 0V-.308842C1.673724-.33873 1.603985-.468244 1.603985-.617684C1.603985-.836862 1.892902-1.165629 2.500623-1.882939L3.257783-.886675C3.337484-.777086 3.466999-.617684 3.466999-.557908C3.466999-.468244 3.377335-.318804 3.108344-.308842V0C3.407223-.009963 3.965131-.029888 4.184309-.029888C4.4533-.029888 4.841843-.019925 5.140722 0V-.308842C4.60274-.308842 4.423412-.328767 4.194271-.617684L2.859278-2.34122Z'/>
<path id='g0-121' d='M4.134496-3.347447C4.393524-3.975093 4.901619-3.985056 5.061021-3.985056V-4.293898C4.83188-4.273973 4.542964-4.26401 4.313823-4.26401C4.134496-4.26401 3.666252-4.283935 3.447073-4.293898V-3.985056C3.755915-3.975093 3.915318-3.805729 3.915318-3.556663C3.915318-3.457036 3.905355-3.437111 3.855542-3.317559L2.849315-.86675L1.743462-3.5467C1.703611-3.646326 1.683686-3.686177 1.683686-3.726027C1.683686-3.985056 2.052304-3.985056 2.241594-3.985056V-4.293898C1.982565-4.283935 1.325031-4.26401 1.155666-4.26401C.886675-4.26401 .488169-4.273973 .18929-4.293898V-3.985056C.667497-3.985056 .856787-3.985056 .996264-3.636364L2.49066 0C2.440847 .129514 2.30137 .458281 2.241594 .587796C2.022416 1.135741 1.743462 1.823163 1.105853 1.823163C1.05604 1.823163 .826899 1.823163 .637609 1.643836C.946451 1.603985 1.026152 1.384807 1.026152 1.225405C1.026152 .966376 .836862 .806974 .607721 .806974C.408468 .806974 .18929 .936488 .18929 1.235367C.18929 1.683686 .607721 2.042341 1.105853 2.042341C1.733499 2.042341 2.141968 1.474471 2.381071 .9066L4.134496-3.347447Z'/>
</defs>
<g id='page1'>
<use x='0' y='-11.955168' xlink:href='#g0-68'/>
<use x='7.610373' y='-11.955168' xlink:href='#g0-101'/>
<use x='12.038225' y='-11.955168' xlink:href='#g0-116'/>
<use x='15.912599' y='-11.955168' xlink:href='#g0-101'/>
<use x='20.34045' y='-11.955168' xlink:href='#g0-114'/>
<use x='24.242501' y='-11.955168' xlink:href='#g0-109'/>
<use x='32.544726' y='-11.955168' xlink:href='#g0-105'/>
<use x='35.312135' y='-11.955168' xlink:href='#g0-110'/>
<use x='40.846952' y='-11.955168' xlink:href='#g0-105'/>
<use x='43.61436' y='-11.955168' xlink:href='#g0-115'/>
<use x='47.544078' y='-11.955168' xlink:href='#g0-116'/>
<use x='51.418452' y='-11.955168' xlink:href='#g0-105'/>
<use x='54.18586' y='-11.955168' xlink:href='#g0-99'/>
<use x='58.613712' y='-11.955168' xlink:href='#g0-58'/>
<use x='65.808959' y='-11.955168' xlink:href='#g0-101'/>
<use x='70.23681' y='-11.955168' xlink:href='#g0-120'/>
<use x='75.494898' y='-11.955168' xlink:href='#g0-112'/>
<use x='81.306463' y='-11.955168' xlink:href='#g0-111'/>
<use x='86.287802' y='-11.955168' xlink:href='#g0-110'/>
<use x='91.822619' y='-11.955168' xlink:href='#g0-101'/>
<use x='96.250471' y='-11.955168' xlink:href='#g0-110'/>
<use x='101.508539' y='-11.955168' xlink:href='#g0-116'/>
<use x='105.382913' y='-11.955168' xlink:href='#g0-105'/>
<use x='108.150322' y='-11.955168' xlink:href='#g0-97'/>
<use x='113.131661' y='-11.955168' xlink:href='#g0-108'/>
<use x='119.219944' y='-11.955168' xlink:href='#g0-99'/>
<use x='123.647796' y='-11.955168' xlink:href='#g0-111'/>
<use x='128.629135' y='-11.955168' xlink:href='#g0-109'/>
<use x='136.93136' y='-11.955168' xlink:href='#g0-112'/>
<use x='142.466177' y='-11.955168' xlink:href='#g0-108'/>
<use x='145.233586' y='-11.955168' xlink:href='#g0-101'/>
<use x='149.661437' y='-11.955168' xlink:href='#g0-120'/>
<use x='154.919525' y='-11.955168' xlink:href='#g0-105'/>
<use x='157.686933' y='-11.955168' xlink:href='#g0-116'/>
<use x='161.284559' y='-11.955168' xlink:href='#g0-121'/>
<use x='165.712416' y='-11.955168' xlink:href='#g0-46'/>
</g>
</svg>