<?xml version='1.0' encoding='UTF-8'?>
<!-- This file was generated by dvisvgm 2.13.1 -->
<svg version='1.1' xmlns='http://www.w3.org/2000/svg' xmlns:xlink='http://www.w3.org/1999/xlink' width='8.95714pt' height='7.103489pt' viewBox='167.127909 -5.219988 8.95714 7.103489'>
<defs>
<path id='g1-48' d='M3.598506-2.224658C3.598506-2.991781 3.507846-3.542715 3.187049-4.030884C2.970859-4.351681 2.538481-4.630635 1.980573-4.630635C.36264-4.630635 .36264-2.726775 .36264-2.224658S.36264 .139477 1.980573 .139477S3.598506-1.72254 3.598506-2.224658ZM1.980573-.055791C1.659776-.055791 1.234371-.244085 1.094894-.81594C.99726-1.227397 .99726-1.799253 .99726-2.315318C.99726-2.824408 .99726-3.354421 1.101868-3.737983C1.248319-4.288917 1.694645-4.435367 1.980573-4.435367C2.357161-4.435367 2.719801-4.20523 2.84533-3.800747C2.956912-3.424159 2.963885-2.922042 2.963885-2.315318C2.963885-1.799253 2.963885-1.283188 2.873225-.843836C2.733748-.209215 2.259527-.055791 1.980573-.055791Z'/>
<path id='g0-112' d='M1.683686 1.693649C1.653798 1.006227 1.643836 .318804 1.643836-.368618C2.042341-.298879 2.400996-.079701 2.719801 .179328L4.054795-.886675C4.273973-1.484433 4.283935-2.201743 4.283935-2.809465C4.283935-3.247821 4.26401-3.686177 4.234122-4.124533C3.815691-4.283935 3.407223-4.483188 3.058531-4.762142C2.590286-4.393524 2.132005-4.034869 1.643836-3.706102C1.653798-3.825654 1.663761-4.034869 1.663761-4.044832C1.444583-4.26401 1.205479-4.562889 1.205479-4.851806C1.205479-5.011208 1.285181-5.150685 1.384807-5.270237L1.24533-5.3599C.946451-5.070984 .418431-4.493151 .418431-4.204234C.418431-4.11457 .537983-3.975093 .876712-3.506849V-1.046077C.737235-.946451 .368618-.607721 .119552-.37858L.229141-.239103C.408468-.398506 .637609-.468244 .86675-.468244C.86675 .079701 .816936 1.235367 .777086 2.062267L.886675 2.132005L1.683686 1.693649ZM1.653798-3.457036C1.92279-3.626401 2.171856-3.785803 2.460772-3.895392C2.759651-3.795766 3.16812-3.646326 3.417186-3.516812C3.447073-3.108344 3.476961-2.699875 3.476961-2.291407C3.476961-1.344956 3.377335-.816936 3.217933-.518057C2.729763-.757161 2.052304-1.05604 1.653798-1.05604V-3.457036Z'/>
</defs>
<g id='page1'>
<use x='167.127909' y='0' xlink:href='#g0-112'/>
<use x='172.113809' y='1.494381' xlink:href='#g1-48'/>
</g>
</svg>