<?xml version='1.0' encoding='UTF-8'?>
<!-- This file was generated by dvisvgm 2.13.1 -->
<svg version='1.1' xmlns='http://www.w3.org/2000/svg' xmlns:xlink='http://www.w3.org/1999/xlink' width='276.813538pt' height='8.35755pt' viewBox='33.448877 -6.420368 276.813538 8.35755'>
<defs>
<path id='g1-48' d='M4.582814-3.188045C4.582814-3.985056 4.533001-4.782067 4.184309-5.519303C3.726027-6.475716 2.909091-6.635118 2.49066-6.635118C1.892902-6.635118 1.165629-6.37609 .757161-5.449564C.438356-4.762142 .388543-3.985056 .388543-3.188045C.388543-2.440847 .428394-1.544209 .836862-.787049C1.265255 .019925 1.992528 .219178 2.480697 .219178C3.01868 .219178 3.775841 .009963 4.214197-.936488C4.533001-1.62391 4.582814-2.400996 4.582814-3.188045ZM2.480697 0C2.092154 0 1.504359-.249066 1.325031-1.205479C1.215442-1.803238 1.215442-2.719801 1.215442-3.307597C1.215442-3.945205 1.215442-4.60274 1.295143-5.140722C1.484433-6.326276 2.231631-6.41594 2.480697-6.41594C2.809465-6.41594 3.466999-6.236613 3.656289-5.250311C3.755915-4.692403 3.755915-3.935243 3.755915-3.307597C3.755915-2.560399 3.755915-1.882939 3.646326-1.24533C3.496887-.298879 2.929016 0 2.480697 0Z'/>
<path id='g1-49' d='M2.929016-6.37609C2.929016-6.615193 2.929016-6.635118 2.699875-6.635118C2.082192-5.997509 1.205479-5.997509 .886675-5.997509V-5.688667C1.085928-5.688667 1.673724-5.688667 2.191781-5.947696V-.787049C2.191781-.428394 2.161893-.308842 1.265255-.308842H.946451V0C1.295143-.029888 2.161893-.029888 2.560399-.029888S3.825654-.029888 4.174346 0V-.308842H3.855542C2.958904-.308842 2.929016-.418431 2.929016-.787049V-6.37609Z'/>
<path id='g1-50' d='M1.265255-.767123L2.321295-1.793275C3.875467-3.16812 4.473225-3.706102 4.473225-4.702366C4.473225-5.838107 3.576588-6.635118 2.361146-6.635118C1.235367-6.635118 .498132-5.718555 .498132-4.83188C.498132-4.273973 .996264-4.273973 1.026152-4.273973C1.195517-4.273973 1.544209-4.393524 1.544209-4.801993C1.544209-5.061021 1.364882-5.32005 1.016189-5.32005C.936488-5.32005 .916563-5.32005 .886675-5.310087C1.115816-5.957659 1.653798-6.326276 2.231631-6.326276C3.138232-6.326276 3.566625-5.519303 3.566625-4.702366C3.566625-3.905355 3.068493-3.118306 2.520548-2.500623L.607721-.368618C.498132-.259029 .498132-.239103 .498132 0H4.194271L4.473225-1.733499H4.224159C4.174346-1.43462 4.104608-.996264 4.004981-.846824C3.935243-.767123 3.277709-.767123 3.058531-.767123H1.265255Z'/>
<path id='g1-51' d='M2.889166-3.506849C3.706102-3.775841 4.283935-4.473225 4.283935-5.260274C4.283935-6.07721 3.407223-6.635118 2.450809-6.635118C1.444583-6.635118 .687422-6.03736 .687422-5.280199C.687422-4.951432 .9066-4.762142 1.195517-4.762142C1.504359-4.762142 1.703611-4.98132 1.703611-5.270237C1.703611-5.768369 1.235367-5.768369 1.085928-5.768369C1.39477-6.256538 2.052304-6.386052 2.410959-6.386052C2.819427-6.386052 3.367372-6.166874 3.367372-5.270237C3.367372-5.150685 3.347447-4.572852 3.088418-4.134496C2.789539-3.656289 2.450809-3.626401 2.201743-3.616438C2.122042-3.606476 1.882939-3.58655 1.8132-3.58655C1.733499-3.576588 1.663761-3.566625 1.663761-3.466999C1.663761-3.35741 1.733499-3.35741 1.902864-3.35741H2.34122C3.158157-3.35741 3.526775-2.67995 3.526775-1.703611C3.526775-.348692 2.839352-.059776 2.400996-.059776C1.972603-.059776 1.225405-.229141 .876712-.816936C1.225405-.767123 1.534247-.986301 1.534247-1.364882C1.534247-1.723537 1.265255-1.92279 .976339-1.92279C.737235-1.92279 .418431-1.783313 .418431-1.344956C.418431-.438356 1.344956 .219178 2.430884 .219178C3.646326 .219178 4.552927-.687422 4.552927-1.703611C4.552927-2.520548 3.92528-3.297634 2.889166-3.506849Z'/>
<path id='g1-52' d='M2.929016-1.643836V-.777086C2.929016-.418431 2.909091-.308842 2.171856-.308842H1.96264V0C2.371108-.029888 2.889166-.029888 3.307597-.029888S4.254047-.029888 4.662516 0V-.308842H4.4533C3.716065-.308842 3.696139-.418431 3.696139-.777086V-1.643836H4.692403V-1.952677H3.696139V-6.485679C3.696139-6.684932 3.696139-6.744707 3.536737-6.744707C3.447073-6.744707 3.417186-6.744707 3.337484-6.625156L.278954-1.952677V-1.643836H2.929016ZM2.988792-1.952677H.557908L2.988792-5.668742V-1.952677Z'/>
<path id='g1-53' d='M4.473225-2.002491C4.473225-3.188045 3.656289-4.184309 2.580324-4.184309C2.102117-4.184309 1.673724-4.024907 1.315068-3.676214V-5.618929C1.514321-5.559153 1.843088-5.489415 2.161893-5.489415C3.387298-5.489415 4.084682-6.396015 4.084682-6.525529C4.084682-6.585305 4.054795-6.635118 3.985056-6.635118C3.975093-6.635118 3.955168-6.635118 3.905355-6.60523C3.706102-6.515567 3.217933-6.316314 2.550436-6.316314C2.15193-6.316314 1.693649-6.386052 1.225405-6.595268C1.145704-6.625156 1.125778-6.625156 1.105853-6.625156C1.006227-6.625156 1.006227-6.545455 1.006227-6.386052V-3.437111C1.006227-3.257783 1.006227-3.178082 1.145704-3.178082C1.215442-3.178082 1.235367-3.20797 1.275218-3.267746C1.384807-3.427148 1.753425-3.965131 2.560399-3.965131C3.078456-3.965131 3.327522-3.506849 3.407223-3.327522C3.566625-2.958904 3.58655-2.570361 3.58655-2.072229C3.58655-1.723537 3.58655-1.125778 3.347447-.707347C3.108344-.318804 2.739726-.059776 2.281445-.059776C1.554172-.059776 .986301-.587796 .816936-1.175592C.846824-1.165629 .876712-1.155666 .986301-1.155666C1.315068-1.155666 1.484433-1.404732 1.484433-1.643836S1.315068-2.132005 .986301-2.132005C.846824-2.132005 .498132-2.062267 .498132-1.603985C.498132-.747198 1.185554 .219178 2.30137 .219178C3.457036 .219178 4.473225-.737235 4.473225-2.002491Z'/>
<path id='g1-54' d='M1.315068-3.267746V-3.506849C1.315068-6.027397 2.550436-6.386052 3.058531-6.386052C3.297634-6.386052 3.716065-6.326276 3.935243-5.987547C3.785803-5.987547 3.387298-5.987547 3.387298-5.539228C3.387298-5.230386 3.626401-5.080946 3.845579-5.080946C4.004981-5.080946 4.303861-5.17061 4.303861-5.559153C4.303861-6.156912 3.865504-6.635118 3.038605-6.635118C1.763387-6.635118 .418431-5.349938 .418431-3.148194C.418431-.488169 1.574097 .219178 2.500623 .219178C3.606476 .219178 4.552927-.71731 4.552927-2.032379C4.552927-3.297634 3.666252-4.254047 2.560399-4.254047C1.882939-4.254047 1.514321-3.745953 1.315068-3.267746ZM2.500623-.059776C1.872976-.059776 1.574097-.657534 1.514321-.806974C1.334994-1.275218 1.334994-2.072229 1.334994-2.251557C1.334994-3.028643 1.653798-4.024907 2.550436-4.024907C2.709838-4.024907 3.16812-4.024907 3.476961-3.407223C3.656289-3.038605 3.656289-2.530511 3.656289-2.042341C3.656289-1.564134 3.656289-1.066002 3.486924-.707347C3.188045-.109589 2.729763-.059776 2.500623-.059776Z'/>
<path id='g1-55' d='M4.742217-6.067248C4.83188-6.1868 4.83188-6.206725 4.83188-6.41594H2.410959C1.195517-6.41594 1.175592-6.545455 1.135741-6.734745H.886675L.557908-4.682441H.806974C.836862-4.841843 .926526-5.469489 1.05604-5.589041C1.125778-5.648817 1.902864-5.648817 2.032379-5.648817H4.094645C3.985056-5.489415 3.198007-4.403487 2.978829-4.07472C2.082192-2.729763 1.753425-1.344956 1.753425-.328767C1.753425-.229141 1.753425 .219178 2.211706 .219178S2.669988-.229141 2.669988-.328767V-.836862C2.669988-1.384807 2.699875-1.932752 2.779577-2.470735C2.819427-2.699875 2.958904-3.556663 3.39726-4.174346L4.742217-6.067248Z'/>
<path id='g1-56' d='M1.62391-4.552927C1.165629-4.851806 1.125778-5.190535 1.125778-5.3599C1.125778-5.967621 1.77335-6.386052 2.480697-6.386052C3.20797-6.386052 3.845579-5.867995 3.845579-5.150685C3.845579-4.582814 3.457036-4.104608 2.859278-3.755915L1.62391-4.552927ZM3.078456-3.606476C3.795766-3.975093 4.283935-4.493151 4.283935-5.150685C4.283935-6.067248 3.39726-6.635118 2.49066-6.635118C1.494396-6.635118 .687422-5.897883 .687422-4.971357C.687422-4.79203 .707347-4.343711 1.125778-3.875467C1.235367-3.755915 1.603985-3.506849 1.853051-3.337484C1.275218-3.048568 .418431-2.49066 .418431-1.504359C.418431-.448319 1.43462 .219178 2.480697 .219178C3.606476 .219178 4.552927-.607721 4.552927-1.673724C4.552927-2.032379 4.443337-2.480697 4.064757-2.899128C3.875467-3.108344 3.716065-3.20797 3.078456-3.606476ZM2.082192-3.188045L3.307597-2.410959C3.58655-2.221669 4.054795-1.92279 4.054795-1.315068C4.054795-.577833 3.307597-.059776 2.49066-.059776C1.633873-.059776 .916563-.67746 .916563-1.504359C.916563-2.082192 1.235367-2.719801 2.082192-3.188045Z'/>
<path id='g1-57' d='M3.656289-3.16812V-2.849315C3.656289-.518057 2.620174-.059776 2.042341-.059776C1.872976-.059776 1.334994-.079701 1.066002-.418431C1.504359-.418431 1.58406-.707347 1.58406-.876712C1.58406-1.185554 1.344956-1.334994 1.125778-1.334994C.966376-1.334994 .667497-1.24533 .667497-.856787C.667497-.18929 1.205479 .219178 2.052304 .219178C3.337484 .219178 4.552927-1.135741 4.552927-3.277709C4.552927-5.957659 3.407223-6.635118 2.520548-6.635118C1.972603-6.635118 1.484433-6.455791 1.05604-6.007472C.647572-5.559153 .418431-5.140722 .418431-4.393524C.418431-3.148194 1.295143-2.171856 2.410959-2.171856C3.01868-2.171856 3.427148-2.590286 3.656289-3.16812ZM2.420922-2.400996C2.261519-2.400996 1.803238-2.400996 1.494396-3.028643C1.315068-3.39726 1.315068-3.895392 1.315068-4.383562C1.315068-4.921544 1.315068-5.389788 1.524284-5.758406C1.793275-6.256538 2.171856-6.386052 2.520548-6.386052C2.978829-6.386052 3.307597-6.047323 3.476961-5.599004C3.596513-5.280199 3.636364-4.652553 3.636364-4.194271C3.636364-3.367372 3.297634-2.400996 2.420922-2.400996Z'/>
<path id='g1-61' d='M6.844334-3.257783C6.993773-3.257783 7.183064-3.257783 7.183064-3.457036S6.993773-3.656289 6.854296-3.656289H.886675C.747198-3.656289 .557908-3.656289 .557908-3.457036S.747198-3.257783 .896638-3.257783H6.844334ZM6.854296-1.325031C6.993773-1.325031 7.183064-1.325031 7.183064-1.524284S6.993773-1.723537 6.844334-1.723537H.896638C.747198-1.723537 .557908-1.723537 .557908-1.524284S.747198-1.325031 .886675-1.325031H6.854296Z'/>
<path id='g2-50' d='M3.521793-1.26924H3.284682C3.263761-1.115816 3.194022-.704359 3.103362-.63462C3.047572-.592777 2.510585-.592777 2.412951-.592777H1.129763C1.862017-1.241345 2.106102-1.436613 2.524533-1.764384C3.040598-2.175841 3.521793-2.608219 3.521793-3.270735C3.521793-4.11457 2.782565-4.630635 1.889913-4.630635C1.025156-4.630635 .439352-4.02391 .439352-3.382316C.439352-3.02665 .739228-2.991781 .808966-2.991781C.976339-2.991781 1.17858-3.110336 1.17858-3.361395C1.17858-3.486924 1.129763-3.731009 .767123-3.731009C.983313-4.226152 1.457534-4.379577 1.785305-4.379577C2.48269-4.379577 2.84533-3.835616 2.84533-3.270735C2.84533-2.66401 2.412951-2.182814 2.189788-1.931756L.509091-.27198C.439352-.209215 .439352-.195268 .439352 0H3.312578L3.521793-1.26924Z'/>
<path id='g0-112' d='M.448319 1.215442C.368618 1.554172 .348692 1.62391-.089664 1.62391C-.209215 1.62391-.318804 1.62391-.318804 1.8132C-.318804 1.892902-.268991 1.932752-.18929 1.932752C.079701 1.932752 .368618 1.902864 .647572 1.902864C.976339 1.902864 1.315068 1.932752 1.633873 1.932752C1.683686 1.932752 1.8132 1.932752 1.8132 1.733499C1.8132 1.62391 1.713574 1.62391 1.574097 1.62391C1.075965 1.62391 1.075965 1.554172 1.075965 1.464508C1.075965 1.344956 1.494396-.278954 1.564134-.52802C1.693649-.239103 1.972603 .109589 2.480697 .109589C3.636364 .109589 4.881694-1.344956 4.881694-2.809465C4.881694-3.745953 4.313823-4.403487 3.556663-4.403487C3.058531-4.403487 2.580324-4.044832 2.251557-3.656289C2.15193-4.194271 1.723537-4.403487 1.354919-4.403487C.896638-4.403487 .707347-4.014944 .617684-3.835616C.438356-3.496887 .308842-2.899128 .308842-2.86924C.308842-2.769614 .408468-2.769614 .428394-2.769614C.52802-2.769614 .537983-2.779577 .597758-2.998755C.767123-3.706102 .966376-4.184309 1.325031-4.184309C1.494396-4.184309 1.633873-4.104608 1.633873-3.726027C1.633873-3.496887 1.603985-3.387298 1.564134-3.217933L.448319 1.215442ZM2.201743-3.108344C2.271482-3.377335 2.540473-3.656289 2.719801-3.805729C3.068493-4.11457 3.35741-4.184309 3.526775-4.184309C3.92528-4.184309 4.164384-3.835616 4.164384-3.247821S3.835616-1.514321 3.656289-1.135741C3.317559-.438356 2.839352-.109589 2.470735-.109589C1.8132-.109589 1.683686-.936488 1.683686-.996264C1.683686-1.016189 1.683686-1.036115 1.713574-1.155666L2.201743-3.108344Z'/>
</defs>
<g id='page1'>
<use x='33.448877' y='0' xlink:href='#g0-112'/>
<use x='38.461342' y='1.494381' xlink:href='#g2-50'/>
<use x='45.698044' y='0' xlink:href='#g1-61'/>
<use x='56.214124' y='0' xlink:href='#g1-57'/>
<use x='61.195463' y='0' xlink:href='#g1-50'/>
<use x='66.176802' y='0' xlink:href='#g1-53'/>
<use x='71.158141' y='0' xlink:href='#g1-51'/>
<use x='76.13948' y='0' xlink:href='#g1-52'/>
<use x='81.120819' y='0' xlink:href='#g1-53'/>
<use x='86.102158' y='0' xlink:href='#g1-52'/>
<use x='91.083497' y='0' xlink:href='#g1-51'/>
<use x='96.064836' y='0' xlink:href='#g1-51'/>
<use x='101.046175' y='0' xlink:href='#g1-53'/>
<use x='106.027514' y='0' xlink:href='#g1-52'/>
<use x='111.008853' y='0' xlink:href='#g1-48'/>
<use x='115.990192' y='0' xlink:href='#g1-56'/>
<use x='120.971531' y='0' xlink:href='#g1-54'/>
<use x='125.952871' y='0' xlink:href='#g1-53'/>
<use x='130.93421' y='0' xlink:href='#g1-53'/>
<use x='135.915549' y='0' xlink:href='#g1-54'/>
<use x='140.896888' y='0' xlink:href='#g1-52'/>
<use x='145.878227' y='0' xlink:href='#g1-48'/>
<use x='150.859566' y='0' xlink:href='#g1-49'/>
<use x='155.840905' y='0' xlink:href='#g1-53'/>
<use x='160.822244' y='0' xlink:href='#g1-55'/>
<use x='165.803583' y='0' xlink:href='#g1-48'/>
<use x='170.784922' y='0' xlink:href='#g1-55'/>
<use x='175.766261' y='0' xlink:href='#g1-49'/>
<use x='180.7476' y='0' xlink:href='#g1-50'/>
<use x='185.728939' y='0' xlink:href='#g1-55'/>
<use x='190.710278' y='0' xlink:href='#g1-52'/>
<use x='195.691617' y='0' xlink:href='#g1-57'/>
<use x='200.672956' y='0' xlink:href='#g1-49'/>
<use x='205.654295' y='0' xlink:href='#g1-49'/>
<use x='210.635634' y='0' xlink:href='#g1-55'/>
<use x='215.616973' y='0' xlink:href='#g1-49'/>
<use x='220.598313' y='0' xlink:href='#g1-48'/>
<use x='225.579652' y='0' xlink:href='#g1-48'/>
<use x='230.560991' y='0' xlink:href='#g1-53'/>
<use x='235.54233' y='0' xlink:href='#g1-51'/>
<use x='240.523669' y='0' xlink:href='#g1-57'/>
<use x='245.505008' y='0' xlink:href='#g1-48'/>
<use x='250.486347' y='0' xlink:href='#g1-51'/>
<use x='255.467686' y='0' xlink:href='#g1-53'/>
<use x='260.449025' y='0' xlink:href='#g1-54'/>
<use x='265.430364' y='0' xlink:href='#g1-49'/>
<use x='270.411703' y='0' xlink:href='#g1-53'/>
<use x='275.393042' y='0' xlink:href='#g1-55'/>
<use x='280.374381' y='0' xlink:href='#g1-48'/>
<use x='285.35572' y='0' xlink:href='#g1-49'/>
<use x='290.337059' y='0' xlink:href='#g1-49'/>
<use x='295.318398' y='0' xlink:href='#g1-49'/>
<use x='300.299737' y='0' xlink:href='#g1-49'/>
<use x='305.281076' y='0' xlink:href='#g1-51'/>
</g>
</svg>