<?xml version='1.0' encoding='UTF-8'?>
<!-- This file was generated by dvisvgm 2.13.1 -->
<svg version='1.1' xmlns='http://www.w3.org/2000/svg' xmlns:xlink='http://www.w3.org/1999/xlink' width='183.494147pt' height='23.910579pt' viewBox='79.610381 -14.445946 183.494147 23.910579'>
<defs>
<path id='g5-49' d='M1.982565-3.16812C1.982565-3.317559 1.967621-3.317559 1.803238-3.317559C1.449564-2.998755 .896638-2.998755 .797011-2.998755H.712329V-2.779577H.797011C.911582-2.779577 1.235367-2.794521 1.524284-2.919054V-.428394C1.524284-.273973 1.524284-.219178 .996264-.219178H.747198V0C1.021171-.019925 1.464508-.019925 1.753425-.019925S2.485679-.019925 2.759651 0V-.219178H2.510585C1.982565-.219178 1.982565-.273973 1.982565-.428394V-3.16812Z'/>
<path id='g5-50' d='M2.933998-.961395H2.724782C2.709838-.86675 2.660025-.557908 2.580324-.508095C2.540473-.478207 2.122042-.478207 2.047323-.478207H1.070984C1.399751-.722291 1.768369-1.001245 2.067248-1.200498C2.515567-1.50934 2.933998-1.798257 2.933998-2.326276C2.933998-2.963885 2.331258-3.317559 1.618929-3.317559C.946451-3.317559 .4533-2.929016 .4533-2.440847C.4533-2.181818 .672478-2.136986 .742217-2.136986C.876712-2.136986 1.036115-2.22665 1.036115-2.430884C1.036115-2.610212 .9066-2.709838 .752179-2.724782C.891656-2.948941 1.180573-3.098381 1.514321-3.098381C1.997509-3.098381 2.400996-2.809465 2.400996-2.321295C2.400996-1.902864 2.11208-1.58406 1.728518-1.260274L.513076-.229141C.463263-.184309 .458281-.184309 .4533-.14944V0H2.769614L2.933998-.961395Z'/>
<path id='g5-51' d='M1.643836-1.648817C2.102117-1.648817 2.405978-1.364882 2.405978-.871731C2.405978-.363636 2.092154-.094645 1.648817-.094645C1.594022-.094645 1.001245-.094645 .747198-.353674C.951432-.383562 1.011208-.537983 1.011208-.657534C1.011208-.841843 .871731-.961395 .707347-.961395C.547945-.961395 .398506-.856787 .398506-.647572C.398506-.129514 .986301 .109589 1.663761 .109589C2.480697 .109589 2.988792-.383562 2.988792-.86675C2.988792-1.275218 2.625156-1.62391 2.057285-1.753425C2.655044-1.947696 2.814446-2.326276 2.814446-2.60523C2.814446-3.013699 2.306351-3.317559 1.678705-3.317559C1.066002-3.317559 .572852-3.058531 .572852-2.610212C.572852-2.37609 .762142-2.316314 .856787-2.316314C1.001245-2.316314 1.140722-2.420922 1.140722-2.600249C1.140722-2.714819 1.080946-2.854296 .901619-2.884184C1.115816-3.113325 1.559153-3.128269 1.663761-3.128269C2.027397-3.128269 2.286426-2.94396 2.286426-2.60523C2.286426-2.316314 2.097136-1.863014 1.574097-1.833126C1.43462-1.828144 1.414695-1.823163 1.285181-1.818182C1.230386-1.8132 1.175592-1.808219 1.175592-1.733499C1.175592-1.648817 1.225405-1.648817 1.315068-1.648817H1.643836Z'/>
<path id='g4-40' d='M2.475716-5.230386C1.150685-4.29589 .801993-2.817435 .801993-1.750436C.801993-.767123 1.094894 .760149 2.475716 1.736488C2.531507 1.736488 2.615193 1.736488 2.615193 1.652802C2.615193 1.610959 2.594271 1.597011 2.545455 1.548194C1.617933 .711333 1.276214-.474222 1.276214-1.743462C1.276214-3.626401 1.994521-4.546949 2.566376-5.063014C2.594271-5.090909 2.615193-5.111831 2.615193-5.1467C2.615193-5.230386 2.531507-5.230386 2.475716-5.230386Z'/>
<path id='g4-41' d='M.627646-5.230386C.578829-5.230386 .495143-5.230386 .495143-5.1467C.495143-5.111831 .516065-5.090909 .557908-5.042092C1.157659-4.491158 1.827148-3.549689 1.827148-1.750436C1.827148-.292902 1.373848 .808966 .620672 1.492403C.502117 1.610959 .495143 1.617933 .495143 1.652802S.516065 1.736488 .585803 1.736488C.669489 1.736488 1.332005 1.276214 1.792279 .404483C2.099128-.174346 2.30137-.927522 2.30137-1.743462C2.30137-2.726775 2.008468-4.254047 .627646-5.230386Z'/>
<path id='g4-43' d='M3.228892-1.57609H5.362889C5.453549-1.57609 5.620922-1.57609 5.620922-1.743462C5.620922-1.917808 5.460523-1.917808 5.362889-1.917808H3.228892V-4.05878C3.228892-4.14944 3.228892-4.316812 3.061519-4.316812C2.887173-4.316812 2.887173-4.156413 2.887173-4.05878V-1.917808H.746202C.655542-1.917808 .488169-1.917808 .488169-1.750436C.488169-1.57609 .648568-1.57609 .746202-1.57609H2.887173V.564882C2.887173 .655542 2.887173 .822914 3.054545 .822914C3.228892 .822914 3.228892 .662516 3.228892 .564882V-1.57609Z'/>
<path id='g4-49' d='M2.336239-4.435367C2.336239-4.623661 2.322291-4.630635 2.127024-4.630635C1.680697-4.191283 1.046077-4.184309 .760149-4.184309V-3.93325C.927522-3.93325 1.387796-3.93325 1.771357-4.128518V-.571856C1.771357-.341719 1.771357-.251059 1.073973-.251059H.808966V0C.934496-.006974 1.792279-.027895 2.050311-.027895C2.266501-.027895 3.145205-.006974 3.29863 0V-.251059H3.033624C2.336239-.251059 2.336239-.341719 2.336239-.571856V-4.435367Z'/>
<path id='g4-103' d='M1.004234-1.241345C1.108842-1.17858 1.3599-1.025156 1.764384-1.025156C2.48269-1.025156 3.005729-1.506351 3.005729-2.050311C3.005729-2.322291 2.880199-2.538481 2.712827-2.719801C3.02665-2.942964 3.29863-2.949938 3.417186-2.949938C3.38929-2.922042 3.354421-2.894147 3.354421-2.782565C3.354421-2.643088 3.459029-2.559402 3.577584-2.559402C3.675218-2.559402 3.800747-2.629141 3.800747-2.789539S3.668244-3.145205 3.38929-3.145205C3.284682-3.145205 2.908095-3.124284 2.580324-2.824408C2.371108-2.977833 2.078207-3.075467 1.771357-3.075467C1.053051-3.075467 .530012-2.594271 .530012-2.050311C.530012-1.778331 .669489-1.527273 .864757-1.345953C.808966-1.283188 .655542-1.053051 .655542-.781071C.655542-.690411 .676463-.36264 .948443-.160399C.63462-.055791 .27198 .174346 .27198 .536986C.27198 1.046077 1.039103 1.429639 1.980573 1.429639C2.866252 1.429639 3.689166 1.080946 3.689166 .523039C3.689166 .313823 3.605479-.062765 3.221918-.27198C2.810461-.488169 2.399004-.488169 1.72254-.488169C1.569116-.488169 1.318057-.488169 1.262267-.495143C1.039103-.54396 .913574-.753176 .913574-.955417C.913574-1.129763 .962391-1.185554 1.004234-1.241345ZM1.771357-1.234371C1.08792-1.234371 1.08792-1.903861 1.08792-2.050311C1.08792-2.161893 1.08792-2.440847 1.227397-2.622167C1.325031-2.740722 1.513325-2.866252 1.764384-2.866252C2.447821-2.866252 2.447821-2.196762 2.447821-2.050311C2.447821-1.93873 2.447821-1.659776 2.308344-1.478456C2.21071-1.3599 2.022416-1.234371 1.771357-1.234371ZM1.771357-.020922C2.39203-.020922 3.263761-.020922 3.263761 .530012C3.263761 .899626 2.712827 1.220423 1.980573 1.220423S.697385 .892653 .697385 .530012C.697385 .285928 .920548-.013948 1.366874-.020922H1.771357Z'/>
<path id='g4-108' d='M1.436613-4.839851L.390535-4.763138V-4.51208C.857783-4.51208 .913574-4.463263 .913574-4.121544V-.550934C.913574-.251059 .843836-.251059 .390535-.251059V0C.404483 0 .892653-.027895 1.171606-.027895C1.436613-.027895 1.694645-.020922 1.959651 0V-.251059C1.506351-.251059 1.436613-.251059 1.436613-.550934V-4.839851Z'/>
<path id='g4-111' d='M3.689166-1.48543C3.689166-2.357161 2.942964-3.110336 1.980573-3.110336S.27198-2.357161 .27198-1.48543C.27198-.620672 1.039103 .069738 1.980573 .069738S3.689166-.620672 3.689166-1.48543ZM1.980573-.153425C1.72254-.153425 1.345953-.237111 1.115816-.578829C.927522-.864757 .9066-1.227397 .9066-1.548194C.9066-1.84807 .913574-2.259527 1.157659-2.559402C1.332005-2.761644 1.624907-2.915068 1.980573-2.915068C2.39203-2.915068 2.684932-2.719801 2.838356-2.503611C3.033624-2.231631 3.054545-1.882939 3.054545-1.548194S3.033624-.843836 2.831382-.557908C2.643088-.292902 2.322291-.153425 1.980573-.153425Z'/>
<path id='g3-49' d='M2.929016-6.37609C2.929016-6.615193 2.929016-6.635118 2.699875-6.635118C2.082192-5.997509 1.205479-5.997509 .886675-5.997509V-5.688667C1.085928-5.688667 1.673724-5.688667 2.191781-5.947696V-.787049C2.191781-.428394 2.161893-.308842 1.265255-.308842H.946451V0C1.295143-.029888 2.161893-.029888 2.560399-.029888S3.825654-.029888 4.174346 0V-.308842H3.855542C2.958904-.308842 2.929016-.418431 2.929016-.787049V-6.37609Z'/>
<path id='g3-51' d='M2.889166-3.506849C3.706102-3.775841 4.283935-4.473225 4.283935-5.260274C4.283935-6.07721 3.407223-6.635118 2.450809-6.635118C1.444583-6.635118 .687422-6.03736 .687422-5.280199C.687422-4.951432 .9066-4.762142 1.195517-4.762142C1.504359-4.762142 1.703611-4.98132 1.703611-5.270237C1.703611-5.768369 1.235367-5.768369 1.085928-5.768369C1.39477-6.256538 2.052304-6.386052 2.410959-6.386052C2.819427-6.386052 3.367372-6.166874 3.367372-5.270237C3.367372-5.150685 3.347447-4.572852 3.088418-4.134496C2.789539-3.656289 2.450809-3.626401 2.201743-3.616438C2.122042-3.606476 1.882939-3.58655 1.8132-3.58655C1.733499-3.576588 1.663761-3.566625 1.663761-3.466999C1.663761-3.35741 1.733499-3.35741 1.902864-3.35741H2.34122C3.158157-3.35741 3.526775-2.67995 3.526775-1.703611C3.526775-.348692 2.839352-.059776 2.400996-.059776C1.972603-.059776 1.225405-.229141 .876712-.816936C1.225405-.767123 1.534247-.986301 1.534247-1.364882C1.534247-1.723537 1.265255-1.92279 .976339-1.92279C.737235-1.92279 .418431-1.783313 .418431-1.344956C.418431-.438356 1.344956 .219178 2.430884 .219178C3.646326 .219178 4.552927-.687422 4.552927-1.703611C4.552927-2.520548 3.92528-3.297634 2.889166-3.506849Z'/>
<path id='g3-61' d='M6.844334-3.257783C6.993773-3.257783 7.183064-3.257783 7.183064-3.457036S6.993773-3.656289 6.854296-3.656289H.886675C.747198-3.656289 .557908-3.656289 .557908-3.457036S.747198-3.257783 .896638-3.257783H6.844334ZM6.854296-1.325031C6.993773-1.325031 7.183064-1.325031 7.183064-1.524284S6.993773-1.723537 6.844334-1.723537H.896638C.747198-1.723537 .557908-1.723537 .557908-1.524284S.747198-1.325031 .886675-1.325031H6.854296Z'/>
<path id='g2-61' d='M3.008717-3.486924C3.043587-3.561644 3.043587-3.581569 3.043587-3.596513C3.043587-3.671233 2.978829-3.73599 2.90411-3.73599C2.824408-3.73599 2.784558-3.681196 2.75467-3.611457L.657534 .996264C.622665 1.070984 .622665 1.090909 .622665 1.105853C.622665 1.180573 .687422 1.24533 .762142 1.24533C.841843 1.24533 .881694 1.190535 .911582 1.120797L3.008717-3.486924Z'/>
<path id='g2-110' d='M.971357-.488169C.941469-.363636 .886675-.144458 .886675-.119552C.886675-.009963 .976339 .054795 1.070984 .054795C1.145704 .054795 1.255293 .014944 1.310087-.109589C1.315068-.134496 1.374844-.368618 1.404732-.498132C1.574097-1.17061 1.574097-1.180573 1.58406-1.200498C1.648817-1.334994 2.007472-2.032379 2.615193-2.032379C2.859278-2.032379 2.963885-1.897883 2.963885-1.673724C2.963885-1.389788 2.75467-.876712 2.6401-.592777C2.615193-.533001 2.590286-.468244 2.590286-.383562C2.590286-.124533 2.839352 .054795 3.13325 .054795C3.666252 .054795 3.940224-.592777 3.940224-.71731C3.940224-.787049 3.855542-.787049 3.835616-.787049C3.750934-.787049 3.745953-.767123 3.716065-.672478C3.62142-.373599 3.392279-.11457 3.153176-.11457C3.038605-.11457 3.003736-.194271 3.003736-.303861C3.003736-.408468 3.023661-.458281 3.068493-.56787C3.153176-.767123 3.382316-1.334994 3.382316-1.608966C3.382316-1.977584 3.118306-2.201743 2.645081-2.201743C2.191781-2.201743 1.877958-1.927771 1.703611-1.708593C1.678705-2.117061 1.280199-2.201743 1.09589-2.201743C.597758-2.201743 .4533-1.439601 .4533-1.429639C.4533-1.3599 .533001-1.3599 .557908-1.3599C.64259-1.3599 .652553-1.389788 .672478-1.454545C.747198-1.743462 .861768-2.032379 1.070984-2.032379C1.240349-2.032379 1.275218-1.872976 1.275218-1.768369C1.275218-1.69863 1.225405-1.50934 1.195517-1.379826C1.160648-1.24533 1.110834-1.041096 1.085928-.931507L.971357-.488169Z'/>
<path id='g6-18' d='M6.973848 23.402242C6.973848 23.362391 6.953923 23.342466 6.933998 23.312578C6.56538 22.94396 5.897883 22.276463 5.230386 21.200498C3.626401 18.630137 2.899128 15.392279 2.899128 11.556663C2.899128 8.876712 3.257783 5.419676 4.901619 2.450809C5.688667 1.036115 6.505604 .219178 6.94396-.219178C6.973848-.249066 6.973848-.268991 6.973848-.298879C6.973848-.398506 6.90411-.398506 6.764633-.398506S6.60523-.398506 6.455791-.249066C3.118306 2.789539 2.072229 7.352428 2.072229 11.5467C2.072229 15.462017 2.968867 19.407223 5.499377 22.386052C5.69863 22.615193 6.07721 23.023661 6.485679 23.382316C6.60523 23.501868 6.625156 23.501868 6.764633 23.501868S6.973848 23.501868 6.973848 23.402242Z'/>
<path id='g6-19' d='M5.250311 11.556663C5.250311 7.641345 4.353674 3.696139 1.823163 .71731C1.62391 .488169 1.24533 .079701 .836862-.278954C.71731-.398506 .697385-.398506 .557908-.398506C.438356-.398506 .348692-.398506 .348692-.298879C.348692-.259029 .388543-.219178 .408468-.199253C.757161 .159402 1.424658 .826899 2.092154 1.902864C3.696139 4.473225 4.423412 7.711083 4.423412 11.5467C4.423412 14.22665 4.064757 17.683686 2.420922 20.652553C1.633873 22.067248 .806974 22.894147 .388543 23.312578C.368618 23.342466 .348692 23.372354 .348692 23.402242C.348692 23.501868 .438356 23.501868 .557908 23.501868C.697385 23.501868 .71731 23.501868 .86675 23.352428C4.204234 20.313823 5.250311 15.750934 5.250311 11.556663Z'/>
<path id='g1-99' d='M3.054545-2.670984C2.803487-2.629141 2.698879-2.433873 2.698879-2.280448C2.698879-2.092154 2.84533-2.022416 2.970859-2.022416C3.124284-2.022416 3.368369-2.133998 3.368369-2.468742C3.368369-2.942964 2.824408-3.075467 2.447821-3.075467C1.401743-3.075467 .432379-2.113076 .432379-1.143711C.432379-.54396 .850809 .069738 1.72254 .069738C2.901121 .069738 3.452055-.620672 3.452055-.718306C3.452055-.760149 3.38929-.836862 3.333499-.836862C3.291656-.836862 3.277709-.822914 3.221918-.767123C2.677958-.125529 1.862017-.125529 1.736488-.125529C1.234371-.125529 1.011208-.467248 1.011208-.899626C1.011208-1.101868 1.108842-1.862017 1.471482-2.343213C1.736488-2.684932 2.099128-2.880199 2.447821-2.880199C2.545455-2.880199 2.880199-2.866252 3.054545-2.670984Z'/>
<path id='g1-111' d='M3.703113-1.855044C3.703113-2.629141 3.124284-3.075467 2.440847-3.075467C1.408717-3.075467 .432379-2.106102 .432379-1.150685C.432379-.4533 .941469 .069738 1.701619 .069738C2.698879 .069738 3.703113-.850809 3.703113-1.855044ZM1.708593-.125529C1.3599-.125529 1.011208-.348692 1.011208-.899626C1.011208-1.185554 1.143711-1.868991 1.415691-2.266501C1.715567-2.698879 2.12005-2.880199 2.433873-2.880199C2.810461-2.880199 3.131258-2.622167 3.131258-2.106102C3.131258-1.93873 3.047572-1.248319 2.740722-.760149C2.475716-.348692 2.057285-.125529 1.708593-.125529Z'/>
<path id='g1-112' d='M.523039 .850809C.474222 1.046077 .460274 1.101868 .18132 1.101868C.09066 1.101868-.006974 1.101868-.006974 1.248319C-.006974 1.325031 .055791 1.352927 .09066 1.352927C.27198 1.352927 .502117 1.325031 .690411 1.325031C.927522 1.325031 1.192528 1.352927 1.422665 1.352927C1.48543 1.352927 1.562142 1.332005 1.562142 1.199502C1.562142 1.101868 1.464508 1.101868 1.380822 1.101868C1.227397 1.101868 1.039103 1.101868 1.039103 1.018182C1.039103 .983313 1.08792 .801993 1.115816 .697385C1.199502 .327771 1.297136-.048817 1.373848-.341719C1.457534-.202242 1.673724 .069738 2.092154 .069738C2.942964 .069738 3.884433-.871731 3.884433-1.910834C3.884433-2.726775 3.319552-3.075467 2.838356-3.075467C2.405978-3.075467 2.036364-2.782565 1.84807-2.587298C1.729514-2.984807 1.338979-3.075467 1.129763-3.075467C.857783-3.075467 .690411-2.894147 .578829-2.705853C.439352-2.468742 .327771-2.050311 .327771-2.008468C.327771-1.917808 .425405-1.917808 .446326-1.917808C.54396-1.917808 .550934-1.93873 .599751-2.127024C.704359-2.531507 .836862-2.880199 1.108842-2.880199C1.290162-2.880199 1.338979-2.726775 1.338979-2.538481C1.338979-2.461768 1.325031-2.371108 1.318057-2.329265L.523039 .850809ZM1.841096-2.238605C2.245579-2.775592 2.594271-2.880199 2.817435-2.880199C3.089415-2.880199 3.326526-2.677958 3.326526-2.203736C3.326526-1.917808 3.173101-1.206476 2.963885-.801993C2.789539-.460274 2.447821-.125529 2.092154-.125529C1.597011-.125529 1.471482-.662516 1.471482-.732254C1.471482-.760149 1.48543-.808966 1.492403-.836862L1.841096-2.238605Z'/>
<path id='g0-59' d='M2.022416-.009963C2.022416-.667497 1.77335-1.05604 1.384807-1.05604C1.05604-1.05604 .856787-.806974 .856787-.52802C.856787-.259029 1.05604 0 1.384807 0C1.504359 0 1.633873-.039851 1.733499-.129514C1.763387-.14944 1.77335-.159402 1.783313-.159402S1.803238-.14944 1.803238-.009963C1.803238 .727273 1.454545 1.325031 1.125778 1.653798C1.016189 1.763387 1.016189 1.783313 1.016189 1.8132C1.016189 1.882939 1.066002 1.92279 1.115816 1.92279C1.225405 1.92279 2.022416 1.155666 2.022416-.009963Z'/>
<path id='g0-76' d='M3.726027-6.027397C3.815691-6.386052 3.845579-6.495641 4.782067-6.495641C5.080946-6.495641 5.160648-6.495641 5.160648-6.684932C5.160648-6.804483 5.051059-6.804483 5.001245-6.804483C4.672478-6.804483 3.855542-6.774595 3.526775-6.774595C3.227895-6.774595 2.500623-6.804483 2.201743-6.804483C2.132005-6.804483 2.012453-6.804483 2.012453-6.60523C2.012453-6.495641 2.102117-6.495641 2.291407-6.495641C2.311333-6.495641 2.500623-6.495641 2.669988-6.475716C2.849315-6.455791 2.938979-6.445828 2.938979-6.316314C2.938979-6.276463 2.929016-6.246575 2.899128-6.127024L1.564134-.777086C1.464508-.388543 1.444583-.308842 .657534-.308842C.488169-.308842 .388543-.308842 .388543-.109589C.388543 0 .478207 0 .657534 0H5.270237C5.50934 0 5.519303 0 5.579078-.169365L6.366127-2.321295C6.405978-2.430884 6.405978-2.450809 6.405978-2.460772C6.405978-2.500623 6.37609-2.570361 6.286426-2.570361S6.1868-2.520548 6.117061-2.361146C5.778331-1.444583 5.339975-.308842 3.616438-.308842H2.67995C2.540473-.308842 2.520548-.308842 2.460772-.318804C2.361146-.328767 2.331258-.33873 2.331258-.418431C2.331258-.448319 2.331258-.468244 2.381071-.647572L3.726027-6.027397Z'/>
<path id='g0-99' d='M3.945205-3.785803C3.785803-3.785803 3.646326-3.785803 3.506849-3.646326C3.347447-3.496887 3.327522-3.327522 3.327522-3.257783C3.327522-3.01868 3.506849-2.909091 3.696139-2.909091C3.985056-2.909091 4.254047-3.148194 4.254047-3.5467C4.254047-4.034869 3.785803-4.403487 3.078456-4.403487C1.733499-4.403487 .408468-2.978829 .408468-1.574097C.408468-.67746 .986301 .109589 2.022416 .109589C3.447073 .109589 4.283935-.946451 4.283935-1.066002C4.283935-1.125778 4.224159-1.195517 4.164384-1.195517C4.11457-1.195517 4.094645-1.175592 4.034869-1.09589C3.247821-.109589 2.161893-.109589 2.042341-.109589C1.414695-.109589 1.145704-.597758 1.145704-1.195517C1.145704-1.603985 1.344956-2.570361 1.683686-3.188045C1.992528-3.755915 2.540473-4.184309 3.088418-4.184309C3.427148-4.184309 3.805729-4.054795 3.945205-3.785803Z'/>
<path id='g0-101' d='M1.863014-2.30137C2.15193-2.30137 2.889166-2.321295 3.387298-2.530511C4.084682-2.82939 4.134496-3.417186 4.134496-3.556663C4.134496-3.995019 3.755915-4.403487 3.068493-4.403487C1.96264-4.403487 .458281-3.437111 .458281-1.693649C.458281-.67746 1.046077 .109589 2.022416 .109589C3.447073 .109589 4.283935-.946451 4.283935-1.066002C4.283935-1.125778 4.224159-1.195517 4.164384-1.195517C4.11457-1.195517 4.094645-1.175592 4.034869-1.09589C3.247821-.109589 2.161893-.109589 2.042341-.109589C1.265255-.109589 1.175592-.946451 1.175592-1.265255C1.175592-1.384807 1.185554-1.693649 1.334994-2.30137H1.863014ZM1.39477-2.520548C1.783313-4.034869 2.809465-4.184309 3.068493-4.184309C3.536737-4.184309 3.805729-3.895392 3.805729-3.556663C3.805729-2.520548 2.211706-2.520548 1.803238-2.520548H1.39477Z'/>
</defs>
<g id='page1'>
<use x='79.610381' y='0' xlink:href='#g0-76'/>
<use x='86.390528' y='1.494381' xlink:href='#g1-112'/>
<use x='90.497485' y='-.498132' xlink:href='#g2-110'/>
<use x='97.541674' y='-14.04745' xlink:href='#g6-18'/>
<use x='106.070832' y='-6.739801' xlink:href='#g3-49'/>
<rect x='106.070832' y='-2.68991' height='.398484' width='4.981335'/>
<use x='106.070832' y='6.83387' xlink:href='#g3-51'/>
<use x='112.247681' y='0' xlink:href='#g0-59'/>
<use x='116.675489' y='0' xlink:href='#g0-99'/>
<use x='120.986885' y='-14.04745' xlink:href='#g6-19'/>
<use x='131.087858' y='0' xlink:href='#g3-61'/>
<use x='141.603938' y='0' xlink:href='#g0-101'/>
<use x='146.242809' y='-4.113496' xlink:href='#g4-40'/>
<use x='149.356152' y='-4.113496' xlink:href='#g1-99'/>
<use x='152.916547' y='-4.113496' xlink:href='#g4-43'/>
<use x='159.032531' y='-4.113496' xlink:href='#g1-111'/>
<use x='162.965018' y='-4.113496' xlink:href='#g4-40'/>
<use x='166.078361' y='-4.113496' xlink:href='#g4-49'/>
<use x='170.049601' y='-4.113496' xlink:href='#g4-41'/>
<use x='173.162944' y='-4.113496' xlink:href='#g4-41'/>
<use x='177.636923' y='-4.113496' xlink:href='#g4-108'/>
<use x='179.892369' y='-4.113496' xlink:href='#g4-111'/>
<use x='183.863609' y='-4.113496' xlink:href='#g4-103'/>
<use x='187.942059' y='-4.113496' xlink:href='#g4-40'/>
<use x='191.055402' y='-4.113496' xlink:href='#g1-112'/>
<use x='195.162359' y='-7.120013' xlink:href='#g2-110'/>
<use x='200.048029' y='-4.113496' xlink:href='#g4-41'/>
<use x='203.161372' y='-7.120013' xlink:href='#g5-49'/>
<use x='206.551493' y='-7.120013' xlink:href='#g2-61'/>
<use x='210.218344' y='-7.120013' xlink:href='#g5-51'/>
<use x='215.467215' y='-4.113496' xlink:href='#g4-108'/>
<use x='217.722661' y='-4.113496' xlink:href='#g4-111'/>
<use x='221.693901' y='-4.113496' xlink:href='#g4-103'/>
<use x='227.132987' y='-4.113496' xlink:href='#g4-108'/>
<use x='229.388432' y='-4.113496' xlink:href='#g4-111'/>
<use x='233.359673' y='-4.113496' xlink:href='#g4-103'/>
<use x='237.438123' y='-4.113496' xlink:href='#g4-40'/>
<use x='240.551466' y='-4.113496' xlink:href='#g1-112'/>
<use x='244.658422' y='-7.120013' xlink:href='#g2-110'/>
<use x='249.544093' y='-4.113496' xlink:href='#g4-41'/>
<use x='252.657436' y='-7.120013' xlink:href='#g5-50'/>
<use x='256.047557' y='-7.120013' xlink:href='#g2-61'/>
<use x='259.714407' y='-7.120013' xlink:href='#g5-51'/>
</g>
</svg>