<?xml version='1.0' encoding='UTF-8'?>
<!-- This file was generated by dvisvgm 2.13.1 -->
<svg version='1.1' xmlns='http://www.w3.org/2000/svg' xmlns:xlink='http://www.w3.org/1999/xlink' width='81.703488pt' height='11.129286pt' viewBox='131.003822 -7.47198 81.703488 11.129286'>
<defs>
<path id='g5-50' d='M3.521793-1.26924H3.284682C3.263761-1.115816 3.194022-.704359 3.103362-.63462C3.047572-.592777 2.510585-.592777 2.412951-.592777H1.129763C1.862017-1.241345 2.106102-1.436613 2.524533-1.764384C3.040598-2.175841 3.521793-2.608219 3.521793-3.270735C3.521793-4.11457 2.782565-4.630635 1.889913-4.630635C1.025156-4.630635 .439352-4.02391 .439352-3.382316C.439352-3.02665 .739228-2.991781 .808966-2.991781C.976339-2.991781 1.17858-3.110336 1.17858-3.361395C1.17858-3.486924 1.129763-3.731009 .767123-3.731009C.983313-4.226152 1.457534-4.379577 1.785305-4.379577C2.48269-4.379577 2.84533-3.835616 2.84533-3.270735C2.84533-2.66401 2.412951-2.182814 2.189788-1.931756L.509091-.27198C.439352-.209215 .439352-.195268 .439352 0H3.312578L3.521793-1.26924Z'/>
<path id='g1-32' d='M4.801993-6.655044C4.811955-6.694894 4.83188-6.75467 4.83188-6.804483C4.83188-6.90411 4.762142-6.914072 4.712329-6.914072C4.612702-6.914072 4.60274-6.894147 4.562889-6.714819L2.909091-.129514C2.15193-.219178 1.77335-.587796 1.77335-1.24533C1.77335-1.444583 1.77335-1.703611 2.311333-3.098381C2.351183-3.217933 2.420922-3.387298 2.420922-3.58655C2.420922-4.034869 2.102117-4.403487 1.603985-4.403487C.657534-4.403487 .288917-2.958904 .288917-2.86924C.288917-2.769614 .388543-2.769614 .408468-2.769614C.508095-2.769614 .518057-2.789539 .56787-2.948941C.836862-3.895392 1.235367-4.184309 1.574097-4.184309C1.653798-4.184309 1.823163-4.184309 1.823163-3.865504C1.823163-3.606476 1.723537-3.35741 1.594022-3.008717C1.115816-1.753425 1.115816-1.494396 1.115816-1.325031C1.115816-.37858 1.892902 .029888 2.849315 .089664C2.769614 .448319 2.769614 .468244 2.630137 .996264C2.600249 1.105853 2.400996 1.912827 2.400996 1.942715C2.400996 1.952677 2.400996 2.042341 2.520548 2.042341C2.540473 2.042341 2.590286 2.042341 2.610212 2.002491C2.6401 1.982565 2.699875 1.733499 2.729763 1.594022L3.108344 .109589C3.476961 .109589 4.353674 .109589 5.290162-.956413C5.69863-1.414695 5.907846-1.853051 6.017435-2.15193C6.107098-2.400996 6.326276-3.267746 6.326276-3.706102C6.326276-4.26401 6.057285-4.403487 5.88792-4.403487C5.638854-4.403487 5.389788-4.144458 5.389788-3.92528C5.389788-3.795766 5.449564-3.73599 5.539228-3.656289C5.648817-3.5467 5.897883-3.287671 5.897883-2.809465C5.897883-2.171856 5.379826-1.354919 5.031133-.996264C4.154421-.109589 3.516812-.109589 3.158157-.109589L4.801993-6.655044Z'/>
<path id='g1-61' d='M4.373599-7.0934C4.423412-7.222914 4.423412-7.262765 4.423412-7.272727C4.423412-7.382316 4.333748-7.47198 4.224159-7.47198C4.154421-7.47198 4.084682-7.442092 4.054795-7.382316L.597758 2.11208C.547945 2.241594 .547945 2.281445 .547945 2.291407C.547945 2.400996 .637609 2.49066 .747198 2.49066C.876712 2.49066 .9066 2.420922 .966376 2.251557L4.373599-7.0934Z'/>
<path id='g1-88' d='M4.83188-4.094645L3.995019-6.07721C3.965131-6.156912 3.945205-6.196762 3.945205-6.206725C3.945205-6.266501 4.11457-6.455791 4.533001-6.495641C4.632628-6.505604 4.732254-6.515567 4.732254-6.684932C4.732254-6.804483 4.612702-6.804483 4.582814-6.804483C4.174346-6.804483 3.745953-6.774595 3.327522-6.774595C3.078456-6.774595 2.460772-6.804483 2.211706-6.804483C2.15193-6.804483 2.032379-6.804483 2.032379-6.60523C2.032379-6.495641 2.132005-6.495641 2.261519-6.495641C2.859278-6.495641 2.919054-6.396015 3.008717-6.176837L4.184309-3.39726L2.082192-1.135741L1.952677-1.026152C1.464508-.498132 .996264-.33873 .488169-.308842C.358655-.298879 .268991-.298879 .268991-.109589C.268991-.099626 .268991 0 .398506 0C.697385 0 1.026152-.029888 1.334994-.029888C1.703611-.029888 2.092154 0 2.450809 0C2.510585 0 2.630137 0 2.630137-.199253C2.630137-.298879 2.530511-.308842 2.510585-.308842C2.420922-.318804 2.11208-.33873 2.11208-.617684C2.11208-.777086 2.261519-.936488 2.381071-1.066002L3.39726-2.141968L4.293898-3.118306L5.300125-.737235C5.339975-.627646 5.349938-.617684 5.349938-.597758C5.349938-.518057 5.160648-.348692 4.772105-.308842C4.662516-.298879 4.572852-.288917 4.572852-.119552C4.572852 0 4.682441 0 4.722291 0C5.001245 0 5.69863-.029888 5.977584-.029888C6.22665-.029888 6.834371 0 7.083437 0C7.153176 0 7.272727 0 7.272727-.18929C7.272727-.308842 7.173101-.308842 7.0934-.308842C6.425903-.318804 6.405978-.348692 6.236613-.747198C5.84807-1.673724 5.180573-3.227895 4.951432-3.825654C5.628892-4.523039 6.674969-5.708593 6.993773-5.987547C7.28269-6.22665 7.66127-6.465753 8.259029-6.495641C8.388543-6.505604 8.478207-6.505604 8.478207-6.694894C8.478207-6.704857 8.478207-6.804483 8.348692-6.804483C8.049813-6.804483 7.721046-6.774595 7.412204-6.774595C7.043587-6.774595 6.665006-6.804483 6.306351-6.804483C6.246575-6.804483 6.117061-6.804483 6.117061-6.60523C6.117061-6.535492 6.166874-6.505604 6.236613-6.495641C6.326276-6.485679 6.635118-6.465753 6.635118-6.1868C6.635118-6.047323 6.525529-5.917808 6.445828-5.828144L4.83188-4.094645Z'/>
<path id='g4-40' d='M3.297634 2.391034C3.297634 2.361146 3.297634 2.34122 3.128269 2.171856C1.882939 .916563 1.564134-.966376 1.564134-2.49066C1.564134-4.224159 1.942715-5.957659 3.16812-7.202989C3.297634-7.32254 3.297634-7.342466 3.297634-7.372354C3.297634-7.442092 3.257783-7.47198 3.198007-7.47198C3.098381-7.47198 2.201743-6.794521 1.613948-5.529265C1.105853-4.433375 .986301-3.327522 .986301-2.49066C.986301-1.713574 1.09589-.508095 1.643836 .617684C2.241594 1.843088 3.098381 2.49066 3.198007 2.49066C3.257783 2.49066 3.297634 2.460772 3.297634 2.391034Z'/>
<path id='g4-41' d='M2.879203-2.49066C2.879203-3.267746 2.769614-4.473225 2.221669-5.599004C1.62391-6.824408 .767123-7.47198 .667497-7.47198C.607721-7.47198 .56787-7.43213 .56787-7.372354C.56787-7.342466 .56787-7.32254 .757161-7.143213C1.733499-6.156912 2.30137-4.572852 2.30137-2.49066C2.30137-.787049 1.932752 .966376 .697385 2.221669C.56787 2.34122 .56787 2.361146 .56787 2.391034C.56787 2.450809 .607721 2.49066 .667497 2.49066C.767123 2.49066 1.663761 1.8132 2.251557 .547945C2.759651-.547945 2.879203-1.653798 2.879203-2.49066Z'/>
<path id='g4-61' d='M6.844334-3.257783C6.993773-3.257783 7.183064-3.257783 7.183064-3.457036S6.993773-3.656289 6.854296-3.656289H.886675C.747198-3.656289 .557908-3.656289 .557908-3.457036S.747198-3.257783 .896638-3.257783H6.844334ZM6.854296-1.325031C6.993773-1.325031 7.183064-1.325031 7.183064-1.524284S6.993773-1.723537 6.844334-1.723537H.896638C.747198-1.723537 .557908-1.723537 .557908-1.524284S.747198-1.325031 .886675-1.325031H6.854296Z'/>
<path id='g4-91' d='M2.540473 2.49066V2.092154H1.574097V-7.073474H2.540473V-7.47198H1.175592V2.49066H2.540473Z'/>
<path id='g4-93' d='M1.58406-7.47198H.219178V-7.073474H1.185554V2.092154H.219178V2.49066H1.58406V-7.47198Z'/>
<path id='g6-50' d='M2.933998-.961395H2.724782C2.709838-.86675 2.660025-.557908 2.580324-.508095C2.540473-.478207 2.122042-.478207 2.047323-.478207H1.070984C1.399751-.722291 1.768369-1.001245 2.067248-1.200498C2.515567-1.50934 2.933998-1.798257 2.933998-2.326276C2.933998-2.963885 2.331258-3.317559 1.618929-3.317559C.946451-3.317559 .4533-2.929016 .4533-2.440847C.4533-2.181818 .672478-2.136986 .742217-2.136986C.876712-2.136986 1.036115-2.22665 1.036115-2.430884C1.036115-2.610212 .9066-2.709838 .752179-2.724782C.891656-2.948941 1.180573-3.098381 1.514321-3.098381C1.997509-3.098381 2.400996-2.809465 2.400996-2.321295C2.400996-1.902864 2.11208-1.58406 1.728518-1.260274L.513076-.229141C.463263-.184309 .458281-.184309 .4533-.14944V0H2.769614L2.933998-.961395Z'/>
<path id='g3-110' d='M.971357-.488169C.941469-.363636 .886675-.144458 .886675-.119552C.886675-.009963 .976339 .054795 1.070984 .054795C1.145704 .054795 1.255293 .014944 1.310087-.109589C1.315068-.134496 1.374844-.368618 1.404732-.498132C1.574097-1.17061 1.574097-1.180573 1.58406-1.200498C1.648817-1.334994 2.007472-2.032379 2.615193-2.032379C2.859278-2.032379 2.963885-1.897883 2.963885-1.673724C2.963885-1.389788 2.75467-.876712 2.6401-.592777C2.615193-.533001 2.590286-.468244 2.590286-.383562C2.590286-.124533 2.839352 .054795 3.13325 .054795C3.666252 .054795 3.940224-.592777 3.940224-.71731C3.940224-.787049 3.855542-.787049 3.835616-.787049C3.750934-.787049 3.745953-.767123 3.716065-.672478C3.62142-.373599 3.392279-.11457 3.153176-.11457C3.038605-.11457 3.003736-.194271 3.003736-.303861C3.003736-.408468 3.023661-.458281 3.068493-.56787C3.153176-.767123 3.382316-1.334994 3.382316-1.608966C3.382316-1.977584 3.118306-2.201743 2.645081-2.201743C2.191781-2.201743 1.877958-1.927771 1.703611-1.708593C1.678705-2.117061 1.280199-2.201743 1.09589-2.201743C.597758-2.201743 .4533-1.439601 .4533-1.429639C.4533-1.3599 .533001-1.3599 .557908-1.3599C.64259-1.3599 .652553-1.389788 .672478-1.454545C.747198-1.743462 .861768-2.032379 1.070984-2.032379C1.240349-2.032379 1.275218-1.872976 1.275218-1.768369C1.275218-1.69863 1.225405-1.50934 1.195517-1.379826C1.160648-1.24533 1.110834-1.041096 1.085928-.931507L.971357-.488169Z'/>
<path id='g2-112' d='M.523039 .850809C.474222 1.046077 .460274 1.101868 .18132 1.101868C.09066 1.101868-.006974 1.101868-.006974 1.248319C-.006974 1.325031 .055791 1.352927 .09066 1.352927C.27198 1.352927 .502117 1.325031 .690411 1.325031C.927522 1.325031 1.192528 1.352927 1.422665 1.352927C1.48543 1.352927 1.562142 1.332005 1.562142 1.199502C1.562142 1.101868 1.464508 1.101868 1.380822 1.101868C1.227397 1.101868 1.039103 1.101868 1.039103 1.018182C1.039103 .983313 1.08792 .801993 1.115816 .697385C1.199502 .327771 1.297136-.048817 1.373848-.341719C1.457534-.202242 1.673724 .069738 2.092154 .069738C2.942964 .069738 3.884433-.871731 3.884433-1.910834C3.884433-2.726775 3.319552-3.075467 2.838356-3.075467C2.405978-3.075467 2.036364-2.782565 1.84807-2.587298C1.729514-2.984807 1.338979-3.075467 1.129763-3.075467C.857783-3.075467 .690411-2.894147 .578829-2.705853C.439352-2.468742 .327771-2.050311 .327771-2.008468C.327771-1.917808 .425405-1.917808 .446326-1.917808C.54396-1.917808 .550934-1.93873 .599751-2.127024C.704359-2.531507 .836862-2.880199 1.108842-2.880199C1.290162-2.880199 1.338979-2.726775 1.338979-2.538481C1.338979-2.461768 1.325031-2.371108 1.318057-2.329265L.523039 .850809ZM1.841096-2.238605C2.245579-2.775592 2.594271-2.880199 2.817435-2.880199C3.089415-2.880199 3.326526-2.677958 3.326526-2.203736C3.326526-1.917808 3.173101-1.206476 2.963885-.801993C2.789539-.460274 2.447821-.125529 2.092154-.125529C1.597011-.125529 1.471482-.662516 1.471482-.732254C1.471482-.760149 1.48543-.808966 1.492403-.836862L1.841096-2.238605Z'/>
<path id='g0-70' d='M2.580324-3.347447C2.988792-3.347447 3.985056-3.327522 4.064757-2.211706C4.07472-2.092154 4.084682-1.96264 4.244085-1.96264C4.41345-1.96264 4.41345-2.102117 4.41345-2.281445V-4.98132C4.41345-5.140722 4.41345-5.300125 4.244085-5.300125C4.11457-5.300125 4.07472-5.200498 4.064757-5.090909C4.004981-3.935243 3.307597-3.73599 2.580324-3.706102V-5.808219C2.580324-6.475716 2.769614-6.475716 3.008717-6.475716H3.476961C4.752179-6.475716 5.399751-5.788294 5.459527-5.100872C5.469489-5.021171 5.479452-4.871731 5.638854-4.871731C5.808219-4.871731 5.808219-5.031133 5.808219-5.200498V-6.495641C5.808219-6.804483 5.788294-6.824408 5.479452-6.824408H.478207C.298879-6.824408 .139477-6.824408 .139477-6.645081C.139477-6.475716 .328767-6.475716 .408468-6.475716C.976339-6.475716 1.016189-6.396015 1.016189-5.907846V-.916563C1.016189-.448319 .986301-.348692 .458281-.348692C.308842-.348692 .139477-.348692 .139477-.179328C.139477 0 .298879 0 .478207 0H3.35741C3.536737 0 3.686177 0 3.686177-.179328C3.686177-.348692 3.516812-.348692 3.387298-.348692C2.620174-.348692 2.580324-.418431 2.580324-.946451V-3.347447ZM5.459527-6.475716V-6.007472C5.32005-6.156912 5.150685-6.336239 4.921544-6.475716H5.459527ZM4.064757-3.158157C3.915318-3.347447 3.656289-3.496887 3.536737-3.5467C3.726027-3.636364 3.92528-3.795766 4.064757-3.965131V-3.158157ZM1.364882-5.927771C1.364882-6.047323 1.364882-6.296389 1.285181-6.475716H2.34122C2.231631-6.246575 2.231631-5.917808 2.231631-5.828144V-.926526C2.231631-.777086 2.231631-.537983 2.331258-.348692H1.285181C1.364882-.52802 1.364882-.777086 1.364882-.896638V-5.927771Z'/>
</defs>
<g id='page1'>
<use x='131.003822' y='0' xlink:href='#g0-70'/>
<use x='137.092117' y='1.494381' xlink:href='#g2-112'/>
<use x='141.199073' y='-.907714' xlink:href='#g3-110'/>
<use x='141.199073' y='3.657306' xlink:href='#g6-50'/>
<use x='149.350196' y='0' xlink:href='#g4-61'/>
<use x='159.866276' y='0' xlink:href='#g0-70'/>
<use x='165.954571' y='1.494381' xlink:href='#g2-112'/>
<use x='170.061527' y='2.490645' xlink:href='#g6-50'/>
<use x='174.447898' y='0' xlink:href='#g4-91'/>
<use x='177.215306' y='0' xlink:href='#g1-88'/>
<use x='186.250862' y='0' xlink:href='#g4-93'/>
<use x='189.01827' y='0' xlink:href='#g1-61'/>
<use x='193.999609' y='0' xlink:href='#g4-40'/>
<use x='197.873983' y='0' xlink:href='#g1-32'/>
<use x='204.363567' y='1.494381' xlink:href='#g5-50'/>
<use x='208.832937' y='0' xlink:href='#g4-41'/>
</g>
</svg>