<?xml version="1.0" encoding="UTF-8"?>
<svg xmlns="http://www.w3.org/2000/svg" xmlns:xlink="http://www.w3.org/1999/xlink" width="1280pt" height="720pt" viewBox="0 0 1280 720" version="1.1">
<defs>
<g>
<symbol overflow="visible" id="glyph0-0">
<path style="stroke:none;" d="M 0.65625 2.359375 L 0.65625 -9.390625 L 7.328125 -9.390625 L 7.328125 2.359375 Z M 1.40625 1.609375 L 6.59375 1.609375 L 6.59375 -8.65625 L 1.40625 -8.65625 Z "/>
</symbol>
<symbol overflow="visible" id="glyph0-1">
<path style="stroke:none;" d="M -1.125 2.328125 L -1.125 0.796875 L -0.375 0.796875 C -0.363281 1.222656 -0.257812 1.539062 -0.0625 1.75 C 0.125 1.96875 0.40625 2.078125 0.78125 2.078125 C 1.300781 2.078125 1.660156 1.910156 1.859375 1.578125 C 2.066406 1.253906 2.171875 0.625 2.171875 -0.3125 L 2.171875 -9.015625 L 0.65625 -9.015625 L 0.65625 -9.71875 L 4.734375 -9.71875 L 4.734375 -9.015625 L 3.5 -9.015625 L 3.5 -0.265625 C 3.5 0.804688 3.28125 1.578125 2.84375 2.046875 C 2.414062 2.523438 1.726562 2.765625 0.78125 2.765625 C 0.46875 2.765625 0.15625 2.726562 -0.15625 2.65625 C -0.476562 2.582031 -0.800781 2.472656 -1.125 2.328125 Z "/>
</symbol>
<symbol overflow="visible" id="glyph0-2">
<path style="stroke:none;" d="M 4.015625 -0.453125 C 4.648438 -0.453125 5.128906 -0.707031 5.453125 -1.21875 C 5.785156 -1.726562 5.953125 -2.476562 5.953125 -3.46875 C 5.953125 -4.457031 5.785156 -5.203125 5.453125 -5.703125 C 5.128906 -6.210938 4.648438 -6.46875 4.015625 -6.46875 C 3.367188 -6.46875 2.878906 -6.210938 2.546875 -5.703125 C 2.222656 -5.203125 2.0625 -4.457031 2.0625 -3.46875 C 2.0625 -2.476562 2.222656 -1.726562 2.546875 -1.21875 C 2.878906 -0.707031 3.367188 -0.453125 4.015625 -0.453125 Z M 4.015625 0.1875 C 3.003906 0.1875 2.191406 -0.144531 1.578125 -0.8125 C 0.960938 -1.476562 0.65625 -2.363281 0.65625 -3.46875 C 0.65625 -4.5625 0.960938 -5.441406 1.578125 -6.109375 C 2.191406 -6.773438 3.003906 -7.109375 4.015625 -7.109375 C 5.023438 -7.109375 5.832031 -6.773438 6.4375 -6.109375 C 7.050781 -5.441406 7.359375 -4.5625 7.359375 -3.46875 C 7.359375 -2.363281 7.050781 -1.476562 6.4375 -0.8125 C 5.832031 -0.144531 5.023438 0.1875 4.015625 0.1875 Z "/>
</symbol>
<symbol overflow="visible" id="glyph0-3">
<path style="stroke:none;" d="M 1.296875 -9.0625 C 1.296875 -9.257812 1.367188 -9.429688 1.515625 -9.578125 C 1.660156 -9.734375 1.832031 -9.8125 2.03125 -9.8125 C 2.238281 -9.8125 2.410156 -9.734375 2.546875 -9.578125 C 2.691406 -9.429688 2.765625 -9.257812 2.765625 -9.0625 C 2.765625 -8.863281 2.691406 -8.691406 2.546875 -8.546875 C 2.410156 -8.398438 2.238281 -8.328125 2.03125 -8.328125 C 1.832031 -8.328125 1.660156 -8.398438 1.515625 -8.546875 C 1.367188 -8.691406 1.296875 -8.863281 1.296875 -9.0625 Z M 2.828125 -0.6875 L 3.953125 -0.6875 L 3.953125 0 L 0.484375 0 L 0.484375 -0.6875 L 1.625 -0.6875 L 1.625 -6.21875 L 0.484375 -6.21875 L 0.484375 -6.921875 L 2.828125 -6.921875 Z "/>
</symbol>
<symbol overflow="visible" id="glyph0-4">
<path style="stroke:none;" d="M 0.546875 0 L 0.546875 -0.6875 L 1.625 -0.6875 L 1.625 -6.21875 L 0.484375 -6.21875 L 0.484375 -6.921875 L 2.828125 -6.921875 L 2.828125 -5.6875 C 3.046875 -6.15625 3.332031 -6.507812 3.6875 -6.75 C 4.039062 -6.988281 4.453125 -7.109375 4.921875 -7.109375 C 5.679688 -7.109375 6.238281 -6.890625 6.59375 -6.453125 C 6.957031 -6.015625 7.140625 -5.332031 7.140625 -4.40625 L 7.140625 -0.6875 L 8.21875 -0.6875 L 8.21875 0 L 4.90625 0 L 4.90625 -0.6875 L 5.9375 -0.6875 L 5.9375 -4.015625 C 5.9375 -4.867188 5.832031 -5.453125 5.625 -5.765625 C 5.414062 -6.078125 5.050781 -6.234375 4.53125 -6.234375 C 3.976562 -6.234375 3.554688 -6.03125 3.265625 -5.625 C 2.972656 -5.21875 2.828125 -4.628906 2.828125 -3.859375 L 2.828125 -0.6875 L 3.859375 -0.6875 L 3.859375 0 Z "/>
</symbol>
<symbol overflow="visible" id="glyph0-5">
<path style="stroke:none;" d="M 1.4375 -6.21875 L 0.390625 -6.21875 L 0.390625 -6.921875 L 1.4375 -6.921875 L 1.4375 -9.0625 L 2.640625 -9.0625 L 2.640625 -6.921875 L 4.890625 -6.921875 L 4.890625 -6.21875 L 2.640625 -6.21875 L 2.640625 -1.828125 C 2.640625 -1.242188 2.695312 -0.867188 2.8125 -0.703125 C 2.925781 -0.535156 3.132812 -0.453125 3.4375 -0.453125 C 3.75 -0.453125 3.972656 -0.546875 4.109375 -0.734375 C 4.253906 -0.921875 4.332031 -1.21875 4.34375 -1.625 L 5.25 -1.625 C 5.21875 -1 5.046875 -0.539062 4.734375 -0.25 C 4.429688 0.0390625 3.960938 0.1875 3.328125 0.1875 C 2.640625 0.1875 2.148438 0.0351562 1.859375 -0.265625 C 1.578125 -0.578125 1.4375 -1.097656 1.4375 -1.828125 Z "/>
</symbol>
<symbol overflow="visible" id="glyph0-6">
<path style="stroke:none;" d=""/>
</symbol>
<symbol overflow="visible" id="glyph0-7">
<path style="stroke:none;" d="M 6.390625 -6.921875 L 8.171875 -1.515625 L 9.734375 -6.21875 L 8.734375 -6.21875 L 8.734375 -6.921875 L 11.234375 -6.921875 L 11.234375 -6.21875 L 10.46875 -6.21875 L 8.40625 0 L 7.40625 0 L 5.703125 -5.171875 L 4 0 L 3.046875 0 L 0.984375 -6.21875 L 0.21875 -6.21875 L 0.21875 -6.921875 L 3.34375 -6.921875 L 3.34375 -6.21875 L 2.21875 -6.21875 L 3.78125 -1.515625 L 5.5625 -6.921875 Z "/>
</symbol>
<symbol overflow="visible" id="glyph0-8">
<path style="stroke:none;" d="M 6.375 -6.9375 L 6.375 -5.203125 L 5.6875 -5.203125 C 5.664062 -5.546875 5.566406 -5.800781 5.390625 -5.96875 C 5.222656 -6.132812 4.976562 -6.21875 4.65625 -6.21875 C 4.0625 -6.21875 3.609375 -6.015625 3.296875 -5.609375 C 2.984375 -5.203125 2.828125 -4.617188 2.828125 -3.859375 L 2.828125 -0.6875 L 4.203125 -0.6875 L 4.203125 0 L 0.546875 0 L 0.546875 -0.6875 L 1.625 -0.6875 L 1.625 -6.234375 L 0.484375 -6.234375 L 0.484375 -6.921875 L 2.828125 -6.921875 L 2.828125 -5.6875 C 3.054688 -6.164062 3.351562 -6.519531 3.71875 -6.75 C 4.09375 -6.988281 4.546875 -7.109375 5.078125 -7.109375 C 5.273438 -7.109375 5.476562 -7.09375 5.6875 -7.0625 C 5.90625 -7.03125 6.132812 -6.988281 6.375 -6.9375 Z "/>
</symbol>
<symbol overflow="visible" id="glyph0-9">
<path style="stroke:none;" d="M 3.8125 0 L 0.453125 0 L 0.453125 -0.6875 L 1.53125 -0.6875 L 1.53125 -9.4375 L 0.390625 -9.4375 L 0.390625 -10.125 L 2.734375 -10.125 L 2.734375 -3.53125 L 5.65625 -6.21875 L 4.65625 -6.21875 L 4.65625 -6.921875 L 7.78125 -6.921875 L 7.78125 -6.21875 L 6.59375 -6.21875 L 4.546875 -4.328125 L 7.171875 -0.6875 L 8.171875 -0.6875 L 8.171875 0 L 4.75 0 L 4.75 -0.6875 L 5.75 -0.6875 L 3.671875 -3.53125 L 2.734375 -2.65625 L 2.734375 -0.6875 L 3.8125 -0.6875 Z "/>
</symbol>
<symbol overflow="visible" id="glyph0-10">
<path style="stroke:none;" d="M 0.546875 0 L 0.546875 -0.6875 L 1.625 -0.6875 L 1.625 -9.4375 L 0.484375 -9.4375 L 0.484375 -10.125 L 2.828125 -10.125 L 2.828125 -5.6875 C 3.046875 -6.15625 3.332031 -6.507812 3.6875 -6.75 C 4.039062 -6.988281 4.453125 -7.109375 4.921875 -7.109375 C 5.679688 -7.109375 6.238281 -6.890625 6.59375 -6.453125 C 6.957031 -6.015625 7.140625 -5.332031 7.140625 -4.40625 L 7.140625 -0.6875 L 8.21875 -0.6875 L 8.21875 0 L 4.90625 0 L 4.90625 -0.6875 L 5.9375 -0.6875 L 5.9375 -4.015625 C 5.9375 -4.867188 5.832031 -5.445312 5.625 -5.75 C 5.425781 -6.0625 5.0625 -6.21875 4.53125 -6.21875 C 3.976562 -6.21875 3.554688 -6.015625 3.265625 -5.609375 C 2.972656 -5.210938 2.828125 -4.628906 2.828125 -3.859375 L 2.828125 -0.6875 L 3.859375 -0.6875 L 3.859375 0 Z "/>
</symbol>
<symbol overflow="visible" id="glyph0-11">
<path style="stroke:none;" d="M 9.390625 -2.578125 C 9.109375 -1.660156 8.628906 -0.96875 7.953125 -0.5 C 7.273438 -0.0390625 6.421875 0.1875 5.390625 0.1875 C 4.753906 0.1875 4.164062 0.078125 3.625 -0.140625 C 3.082031 -0.359375 2.601562 -0.675781 2.1875 -1.09375 C 1.695312 -1.582031 1.332031 -2.132812 1.09375 -2.75 C 0.863281 -3.363281 0.75 -4.0625 0.75 -4.84375 C 0.75 -6.351562 1.179688 -7.570312 2.046875 -8.5 C 2.921875 -9.425781 4.070312 -9.890625 5.5 -9.890625 C 6.03125 -9.890625 6.59375 -9.816406 7.1875 -9.671875 C 7.789062 -9.535156 8.4375 -9.328125 9.125 -9.046875 L 9.125 -6.8125 L 8.390625 -6.8125 C 8.234375 -7.625 7.910156 -8.222656 7.421875 -8.609375 C 6.941406 -9.003906 6.265625 -9.203125 5.390625 -9.203125 C 4.359375 -9.203125 3.570312 -8.832031 3.03125 -8.09375 C 2.5 -7.351562 2.234375 -6.269531 2.234375 -4.84375 C 2.234375 -3.425781 2.5 -2.347656 3.03125 -1.609375 C 3.570312 -0.867188 4.359375 -0.5 5.390625 -0.5 C 6.117188 -0.5 6.71875 -0.671875 7.1875 -1.015625 C 7.65625 -1.367188 7.992188 -1.890625 8.203125 -2.578125 Z "/>
</symbol>
<symbol overflow="visible" id="glyph0-12">
<path style="stroke:none;" d="M 7.21875 -3.328125 L 2.0625 -3.328125 L 2.0625 -3.28125 C 2.0625 -2.34375 2.238281 -1.632812 2.59375 -1.15625 C 2.945312 -0.6875 3.460938 -0.453125 4.140625 -0.453125 C 4.671875 -0.453125 5.101562 -0.585938 5.4375 -0.859375 C 5.769531 -1.140625 6.003906 -1.550781 6.140625 -2.09375 L 7.109375 -2.09375 C 6.910156 -1.332031 6.554688 -0.757812 6.046875 -0.375 C 5.535156 0 4.859375 0.1875 4.015625 0.1875 C 3.003906 0.1875 2.191406 -0.144531 1.578125 -0.8125 C 0.960938 -1.476562 0.65625 -2.363281 0.65625 -3.46875 C 0.65625 -4.5625 0.957031 -5.441406 1.5625 -6.109375 C 2.164062 -6.773438 2.957031 -7.109375 3.9375 -7.109375 C 4.988281 -7.109375 5.789062 -6.785156 6.34375 -6.140625 C 6.90625 -5.492188 7.195312 -4.554688 7.21875 -3.328125 Z M 5.8125 -4.015625 C 5.78125 -4.828125 5.609375 -5.4375 5.296875 -5.84375 C 4.984375 -6.257812 4.53125 -6.46875 3.9375 -6.46875 C 3.394531 -6.46875 2.960938 -6.257812 2.640625 -5.84375 C 2.328125 -5.425781 2.132812 -4.816406 2.0625 -4.015625 Z M 4.84375 -10.65625 L 6.140625 -10.65625 L 3.921875 -8.21875 L 3.171875 -8.21875 Z "/>
</symbol>
<symbol overflow="visible" id="glyph0-13">
<path style="stroke:none;" d="M 6.859375 -2.078125 C 6.679688 -1.335938 6.351562 -0.773438 5.875 -0.390625 C 5.394531 -0.00390625 4.773438 0.1875 4.015625 0.1875 C 3.003906 0.1875 2.191406 -0.144531 1.578125 -0.8125 C 0.960938 -1.476562 0.65625 -2.363281 0.65625 -3.46875 C 0.65625 -4.570312 0.960938 -5.453125 1.578125 -6.109375 C 2.191406 -6.773438 3.003906 -7.109375 4.015625 -7.109375 C 4.453125 -7.109375 4.882812 -7.054688 5.3125 -6.953125 C 5.75 -6.847656 6.1875 -6.691406 6.625 -6.484375 L 6.625 -4.71875 L 5.921875 -4.71875 C 5.835938 -5.320312 5.640625 -5.765625 5.328125 -6.046875 C 5.023438 -6.328125 4.585938 -6.46875 4.015625 -6.46875 C 3.367188 -6.46875 2.878906 -6.210938 2.546875 -5.703125 C 2.222656 -5.203125 2.0625 -4.457031 2.0625 -3.46875 C 2.0625 -2.46875 2.222656 -1.710938 2.546875 -1.203125 C 2.878906 -0.703125 3.367188 -0.453125 4.015625 -0.453125 C 4.535156 -0.453125 4.945312 -0.585938 5.25 -0.859375 C 5.5625 -1.128906 5.773438 -1.535156 5.890625 -2.078125 Z "/>
</symbol>
<symbol overflow="visible" id="glyph0-14">
<path style="stroke:none;" d="M 2.734375 -0.6875 L 3.859375 -0.6875 L 3.859375 0 L 0.390625 0 L 0.390625 -0.6875 L 1.53125 -0.6875 L 1.53125 -9.4375 L 0.390625 -9.4375 L 0.390625 -10.125 L 2.734375 -10.125 Z "/>
</symbol>
<symbol overflow="visible" id="glyph0-15">
<path style="stroke:none;" d="M 7.21875 -3.328125 L 2.0625 -3.328125 L 2.0625 -3.28125 C 2.0625 -2.34375 2.238281 -1.632812 2.59375 -1.15625 C 2.945312 -0.6875 3.460938 -0.453125 4.140625 -0.453125 C 4.671875 -0.453125 5.101562 -0.585938 5.4375 -0.859375 C 5.769531 -1.140625 6.003906 -1.550781 6.140625 -2.09375 L 7.109375 -2.09375 C 6.910156 -1.332031 6.554688 -0.757812 6.046875 -0.375 C 5.535156 0 4.859375 0.1875 4.015625 0.1875 C 3.003906 0.1875 2.191406 -0.144531 1.578125 -0.8125 C 0.960938 -1.476562 0.65625 -2.363281 0.65625 -3.46875 C 0.65625 -4.5625 0.957031 -5.441406 1.5625 -6.109375 C 2.164062 -6.773438 2.957031 -7.109375 3.9375 -7.109375 C 4.988281 -7.109375 5.789062 -6.785156 6.34375 -6.140625 C 6.90625 -5.492188 7.195312 -4.554688 7.21875 -3.328125 Z M 5.8125 -4.015625 C 5.78125 -4.828125 5.609375 -5.4375 5.296875 -5.84375 C 4.984375 -6.257812 4.53125 -6.46875 3.9375 -6.46875 C 3.394531 -6.46875 2.960938 -6.257812 2.640625 -5.84375 C 2.328125 -5.425781 2.132812 -4.816406 2.0625 -4.015625 Z "/>
</symbol>
<symbol overflow="visible" id="glyph0-16">
<path style="stroke:none;" d="M 3.296875 -4.953125 L 5.015625 -4.953125 C 5.660156 -4.953125 6.148438 -5.125 6.484375 -5.46875 C 6.828125 -5.820312 7 -6.328125 7 -6.984375 C 7 -7.648438 6.828125 -8.15625 6.484375 -8.5 C 6.148438 -8.84375 5.660156 -9.015625 5.015625 -9.015625 L 3.296875 -9.015625 Z M 0.734375 0 L 0.734375 -0.6875 L 1.96875 -0.6875 L 1.96875 -9.015625 L 0.734375 -9.015625 L 0.734375 -9.71875 L 5.328125 -9.71875 C 6.296875 -9.71875 7.066406 -9.46875 7.640625 -8.96875 C 8.210938 -8.476562 8.5 -7.816406 8.5 -6.984375 C 8.5 -6.148438 8.210938 -5.484375 7.640625 -4.984375 C 7.066406 -4.492188 6.296875 -4.25 5.328125 -4.25 L 3.296875 -4.25 L 3.296875 -0.6875 L 4.796875 -0.6875 L 4.796875 0 Z "/>
</symbol>
<symbol overflow="visible" id="glyph0-17">
<path style="stroke:none;" d="M 5.296875 -2.171875 L 5.296875 -3.640625 L 3.765625 -3.640625 C 3.171875 -3.640625 2.726562 -3.507812 2.4375 -3.25 C 2.144531 -3 2 -2.609375 2 -2.078125 C 2 -1.597656 2.144531 -1.210938 2.4375 -0.921875 C 2.738281 -0.640625 3.140625 -0.5 3.640625 -0.5 C 4.140625 -0.5 4.539062 -0.65625 4.84375 -0.96875 C 5.144531 -1.28125 5.296875 -1.679688 5.296875 -2.171875 Z M 6.5 -4.328125 L 6.5 -0.6875 L 7.5625 -0.6875 L 7.5625 0 L 5.296875 0 L 5.296875 -0.75 C 5.035156 -0.425781 4.726562 -0.1875 4.375 -0.03125 C 4.03125 0.113281 3.628906 0.1875 3.171875 0.1875 C 2.398438 0.1875 1.785156 -0.015625 1.328125 -0.421875 C 0.878906 -0.828125 0.65625 -1.378906 0.65625 -2.078125 C 0.65625 -2.796875 0.914062 -3.347656 1.4375 -3.734375 C 1.957031 -4.128906 2.6875 -4.328125 3.625 -4.328125 L 5.296875 -4.328125 L 5.296875 -4.8125 C 5.296875 -5.332031 5.132812 -5.738281 4.8125 -6.03125 C 4.5 -6.320312 4.054688 -6.46875 3.484375 -6.46875 C 3.003906 -6.46875 2.625 -6.359375 2.34375 -6.140625 C 2.0625 -5.921875 1.882812 -5.597656 1.8125 -5.171875 L 1.203125 -5.171875 L 1.203125 -6.578125 C 1.617188 -6.753906 2.019531 -6.882812 2.40625 -6.96875 C 2.800781 -7.0625 3.1875 -7.109375 3.5625 -7.109375 C 4.519531 -7.109375 5.25 -6.867188 5.75 -6.390625 C 6.25 -5.921875 6.5 -5.234375 6.5 -4.328125 Z "/>
</symbol>
<symbol overflow="visible" id="glyph0-18">
<path style="stroke:none;" d="M 7 -0.6875 L 8.140625 -0.6875 L 8.140625 0 L 5.796875 0 L 5.796875 -1.078125 C 5.566406 -0.640625 5.269531 -0.316406 4.90625 -0.109375 C 4.539062 0.0859375 4.09375 0.1875 3.5625 0.1875 C 2.707031 0.1875 2.007812 -0.144531 1.46875 -0.8125 C 0.925781 -1.488281 0.65625 -2.375 0.65625 -3.46875 C 0.65625 -4.550781 0.925781 -5.425781 1.46875 -6.09375 C 2.007812 -6.769531 2.707031 -7.109375 3.5625 -7.109375 C 4.09375 -7.109375 4.539062 -7.003906 4.90625 -6.796875 C 5.269531 -6.585938 5.566406 -6.269531 5.796875 -5.84375 L 5.796875 -9.4375 L 4.671875 -9.4375 L 4.671875 -10.125 L 7 -10.125 Z M 5.796875 -3.125 L 5.796875 -3.796875 C 5.796875 -4.628906 5.632812 -5.265625 5.3125 -5.703125 C 5 -6.140625 4.539062 -6.359375 3.9375 -6.359375 C 3.3125 -6.359375 2.84375 -6.113281 2.53125 -5.625 C 2.21875 -5.144531 2.0625 -4.425781 2.0625 -3.46875 C 2.0625 -2.507812 2.21875 -1.785156 2.53125 -1.296875 C 2.84375 -0.804688 3.3125 -0.5625 3.9375 -0.5625 C 4.539062 -0.5625 5 -0.78125 5.3125 -1.21875 C 5.632812 -1.65625 5.796875 -2.289062 5.796875 -3.125 Z "/>
</symbol>
<symbol overflow="visible" id="glyph0-19">
<path style="stroke:none;" d="M 0.734375 0 L 0.734375 -0.6875 L 1.96875 -0.6875 L 1.96875 -9.015625 L 0.734375 -9.015625 L 0.734375 -9.71875 L 8.5625 -9.71875 L 8.5625 -7.5625 L 7.75 -7.5625 L 7.75 -8.921875 L 3.296875 -8.921875 L 3.296875 -5.65625 L 6.46875 -5.65625 L 6.46875 -6.875 L 7.28125 -6.875 L 7.28125 -3.65625 L 6.46875 -3.65625 L 6.46875 -4.875 L 3.296875 -4.875 L 3.296875 -0.796875 L 7.859375 -0.796875 L 7.859375 -2.15625 L 8.65625 -2.15625 L 8.65625 0 Z "/>
</symbol>
<symbol overflow="visible" id="glyph0-20">
<path style="stroke:none;" d="M 6.90625 -5.578125 C 7.132812 -6.078125 7.425781 -6.457031 7.78125 -6.71875 C 8.144531 -6.976562 8.566406 -7.109375 9.046875 -7.109375 C 9.765625 -7.109375 10.300781 -6.882812 10.65625 -6.4375 C 11.007812 -5.988281 11.1875 -5.3125 11.1875 -4.40625 L 11.1875 -0.6875 L 12.28125 -0.6875 L 12.28125 0 L 8.953125 0 L 8.953125 -0.6875 L 10 -0.6875 L 10 -4.265625 C 10 -4.972656 9.894531 -5.472656 9.6875 -5.765625 C 9.476562 -6.066406 9.132812 -6.21875 8.65625 -6.21875 C 8.113281 -6.21875 7.703125 -6.015625 7.421875 -5.609375 C 7.148438 -5.210938 7.015625 -4.628906 7.015625 -3.859375 L 7.015625 -0.6875 L 8.046875 -0.6875 L 8.046875 0 L 4.765625 0 L 4.765625 -0.6875 L 5.8125 -0.6875 L 5.8125 -4.3125 C 5.8125 -5 5.707031 -5.488281 5.5 -5.78125 C 5.289062 -6.070312 4.945312 -6.21875 4.46875 -6.21875 C 3.925781 -6.21875 3.515625 -6.015625 3.234375 -5.609375 C 2.960938 -5.210938 2.828125 -4.628906 2.828125 -3.859375 L 2.828125 -0.6875 L 3.859375 -0.6875 L 3.859375 0 L 0.546875 0 L 0.546875 -0.6875 L 1.625 -0.6875 L 1.625 -6.234375 L 0.484375 -6.234375 L 0.484375 -6.921875 L 2.828125 -6.921875 L 2.828125 -5.6875 C 3.046875 -6.144531 3.328125 -6.492188 3.671875 -6.734375 C 4.015625 -6.984375 4.398438 -7.109375 4.828125 -7.109375 C 5.367188 -7.109375 5.816406 -6.972656 6.171875 -6.703125 C 6.535156 -6.441406 6.78125 -6.066406 6.90625 -5.578125 Z "/>
</symbol>
<symbol overflow="visible" id="glyph0-21">
<path style="stroke:none;" d="M 4.71875 -6.921875 L 6.953125 -6.921875 L 6.953125 -0.6875 L 8.09375 -0.6875 L 8.09375 0 L 5.765625 0 L 5.765625 -1.21875 C 5.535156 -0.757812 5.242188 -0.410156 4.890625 -0.171875 C 4.546875 0.0664062 4.140625 0.1875 3.671875 0.1875 C 2.910156 0.1875 2.347656 -0.03125 1.984375 -0.46875 C 1.617188 -0.90625 1.4375 -1.585938 1.4375 -2.515625 L 1.4375 -6.21875 L 0.359375 -6.21875 L 0.359375 -6.921875 L 2.640625 -6.921875 L 2.640625 -2.890625 C 2.640625 -2.046875 2.742188 -1.46875 2.953125 -1.15625 C 3.160156 -0.84375 3.523438 -0.6875 4.046875 -0.6875 C 4.609375 -0.6875 5.035156 -0.890625 5.328125 -1.296875 C 5.617188 -1.703125 5.765625 -2.296875 5.765625 -3.078125 L 5.765625 -6.21875 L 4.71875 -6.21875 Z "/>
</symbol>
<symbol overflow="visible" id="glyph0-22">
<path style="stroke:none;" d="M 2.546875 0 L 2.546875 -0.6875 L 3.78125 -0.6875 L 3.78125 -8.9375 L 0.9375 -8.9375 L 0.9375 -7.421875 L 0.125 -7.421875 L 0.125 -9.71875 L 8.765625 -9.71875 L 8.765625 -7.421875 L 7.953125 -7.421875 L 7.953125 -8.9375 L 5.109375 -8.9375 L 5.109375 -0.6875 L 6.34375 -0.6875 L 6.34375 0 Z "/>
</symbol>
<symbol overflow="visible" id="glyph0-23">
<path style="stroke:none;" d="M 0.734375 0 L 0.734375 -0.6875 L 1.96875 -0.6875 L 1.96875 -9.015625 L 0.734375 -9.015625 L 0.734375 -9.71875 L 4.53125 -9.71875 L 4.53125 -9.015625 L 3.296875 -9.015625 L 3.296875 -5.65625 L 8.328125 -5.65625 L 8.328125 -9.015625 L 7.09375 -9.015625 L 7.09375 -9.71875 L 10.890625 -9.71875 L 10.890625 -9.015625 L 9.65625 -9.015625 L 9.65625 -0.6875 L 10.890625 -0.6875 L 10.890625 0 L 7.09375 0 L 7.09375 -0.6875 L 8.328125 -0.6875 L 8.328125 -4.875 L 3.296875 -4.875 L 3.296875 -0.6875 L 4.53125 -0.6875 L 4.53125 0 Z "/>
</symbol>
<symbol overflow="visible" id="glyph0-24">
<path style="stroke:none;" d="M 5.46875 -0.5 C 6.53125 -0.5 7.332031 -0.863281 7.875 -1.59375 C 8.414062 -2.332031 8.6875 -3.414062 8.6875 -4.84375 C 8.6875 -6.28125 8.414062 -7.363281 7.875 -8.09375 C 7.332031 -8.832031 6.53125 -9.203125 5.46875 -9.203125 C 4.394531 -9.203125 3.585938 -8.832031 3.046875 -8.09375 C 2.503906 -7.363281 2.234375 -6.28125 2.234375 -4.84375 C 2.234375 -3.414062 2.503906 -2.332031 3.046875 -1.59375 C 3.585938 -0.863281 4.394531 -0.5 5.46875 -0.5 Z M 5.46875 0.1875 C 4.8125 0.1875 4.203125 0.078125 3.640625 -0.140625 C 3.085938 -0.359375 2.601562 -0.675781 2.1875 -1.09375 C 1.695312 -1.582031 1.332031 -2.132812 1.09375 -2.75 C 0.863281 -3.363281 0.75 -4.0625 0.75 -4.84375 C 0.75 -5.632812 0.863281 -6.335938 1.09375 -6.953125 C 1.332031 -7.566406 1.695312 -8.117188 2.1875 -8.609375 C 2.613281 -9.035156 3.097656 -9.351562 3.640625 -9.5625 C 4.191406 -9.78125 4.800781 -9.890625 5.46875 -9.890625 C 6.875 -9.890625 8.007812 -9.425781 8.875 -8.5 C 9.75 -7.582031 10.1875 -6.363281 10.1875 -4.84375 C 10.1875 -4.070312 10.066406 -3.375 9.828125 -2.75 C 9.585938 -2.125 9.222656 -1.570312 8.734375 -1.09375 C 8.316406 -0.664062 7.832031 -0.34375 7.28125 -0.125 C 6.738281 0.0820312 6.132812 0.1875 5.46875 0.1875 Z "/>
</symbol>
<symbol overflow="visible" id="glyph0-25">
<path style="stroke:none;" d="M 0.734375 0 L 0.734375 -0.6875 L 1.96875 -0.6875 L 1.96875 -9.015625 L 0.65625 -9.015625 L 0.65625 -9.71875 L 3.5 -9.71875 L 6.90625 -2.796875 L 10.3125 -9.71875 L 12.96875 -9.71875 L 12.96875 -9.015625 L 11.671875 -9.015625 L 11.671875 -0.6875 L 12.921875 -0.6875 L 12.921875 0 L 9.125 0 L 9.125 -0.6875 L 10.359375 -0.6875 L 10.359375 -8.203125 L 7.015625 -1.421875 L 6.109375 -1.421875 L 2.765625 -8.203125 L 2.765625 -0.6875 L 4.015625 -0.6875 L 4.015625 0 Z "/>
</symbol>
<symbol overflow="visible" id="glyph0-26">
<path style="stroke:none;" d="M 0.734375 0 L 0.734375 -0.6875 L 1.96875 -0.6875 L 1.96875 -9.015625 L 0.734375 -9.015625 L 0.734375 -9.71875 L 8.5625 -9.71875 L 8.5625 -7.5625 L 7.75 -7.5625 L 7.75 -8.921875 L 3.296875 -8.921875 L 3.296875 -5.65625 L 6.46875 -5.65625 L 6.46875 -6.875 L 7.28125 -6.875 L 7.28125 -3.65625 L 6.46875 -3.65625 L 6.46875 -4.875 L 3.296875 -4.875 L 3.296875 -0.796875 L 7.859375 -0.796875 L 7.859375 -2.15625 L 8.65625 -2.15625 L 8.65625 0 Z M 5.28125 -12.359375 L 6.5625 -12.359375 L 4.859375 -10.640625 L 4.09375 -10.640625 Z "/>
</symbol>
</g>
</defs>
<g id="surface6">
<g style="fill:rgb(100%,100%,100%);fill-opacity:1;">
  <use xlink:href="#glyph0-1" x="30" y="32.375977"/>
  <use xlink:href="#glyph0-2" x="35" y="32.375977"/>
  <use xlink:href="#glyph0-3" x="43" y="32.375977"/>
  <use xlink:href="#glyph0-4" x="47" y="32.375977"/>
  <use xlink:href="#glyph0-5" x="56" y="32.375977"/>
  <use xlink:href="#glyph0-6" x="61" y="32.375977"/>
  <use xlink:href="#glyph0-7" x="65" y="32.375977"/>
  <use xlink:href="#glyph0-2" x="76" y="32.375977"/>
  <use xlink:href="#glyph0-8" x="84" y="32.375977"/>
  <use xlink:href="#glyph0-9" x="90" y="32.375977"/>
  <use xlink:href="#glyph0-6" x="98" y="32.375977"/>
  <use xlink:href="#glyph0-7" x="102" y="32.375977"/>
  <use xlink:href="#glyph0-3" x="113" y="32.375977"/>
  <use xlink:href="#glyph0-5" x="117" y="32.375977"/>
  <use xlink:href="#glyph0-10" x="122" y="32.375977"/>
  <use xlink:href="#glyph0-6" x="131" y="32.375977"/>
  <use xlink:href="#glyph0-11" x="135" y="32.375977"/>
  <use xlink:href="#glyph0-12" x="145" y="32.375977"/>
  <use xlink:href="#glyph0-13" x="153" y="32.375977"/>
  <use xlink:href="#glyph0-3" x="160" y="32.375977"/>
  <use xlink:href="#glyph0-14" x="164" y="32.375977"/>
  <use xlink:href="#glyph0-15" x="168" y="32.375977"/>
  <use xlink:href="#glyph0-6" x="176" y="32.375977"/>
  <use xlink:href="#glyph0-16" x="180" y="32.375977"/>
  <use xlink:href="#glyph0-3" x="189" y="32.375977"/>
  <use xlink:href="#glyph0-15" x="193" y="32.375977"/>
  <use xlink:href="#glyph0-8" x="201" y="32.375977"/>
  <use xlink:href="#glyph0-8" x="207" y="32.375977"/>
  <use xlink:href="#glyph0-2" x="213" y="32.375977"/>
  <use xlink:href="#glyph0-5" x="221" y="32.375977"/>
  <use xlink:href="#glyph0-6" x="226" y="32.375977"/>
  <use xlink:href="#glyph0-17" x="230" y="32.375977"/>
  <use xlink:href="#glyph0-4" x="238" y="32.375977"/>
  <use xlink:href="#glyph0-18" x="247" y="32.375977"/>
  <use xlink:href="#glyph0-6" x="256" y="32.375977"/>
  <use xlink:href="#glyph0-19" x="260" y="32.375977"/>
  <use xlink:href="#glyph0-20" x="270" y="32.375977"/>
  <use xlink:href="#glyph0-20" x="283" y="32.375977"/>
  <use xlink:href="#glyph0-17" x="296" y="32.375977"/>
  <use xlink:href="#glyph0-4" x="304" y="32.375977"/>
  <use xlink:href="#glyph0-21" x="313" y="32.375977"/>
  <use xlink:href="#glyph0-15" x="322" y="32.375977"/>
  <use xlink:href="#glyph0-14" x="330" y="32.375977"/>
  <use xlink:href="#glyph0-6" x="334" y="32.375977"/>
  <use xlink:href="#glyph0-22" x="338" y="32.375977"/>
  <use xlink:href="#glyph0-23" x="347" y="32.375977"/>
  <use xlink:href="#glyph0-24" x="359" y="32.375977"/>
  <use xlink:href="#glyph0-25" x="370" y="32.375977"/>
  <use xlink:href="#glyph0-26" x="384" y="32.375977"/>
</g>
</g>
</svg>
