<?xml version="1.0" encoding="UTF-8"?>
<svg xmlns="http://www.w3.org/2000/svg" xmlns:xlink="http://www.w3.org/1999/xlink" width="854pt" height="480pt" viewBox="0 0 854 480" version="1.1">
<defs>
<g>
<symbol overflow="visible" id="glyph0-0">
<path style="stroke:none;" d="M 0.65625 2.359375 L 0.65625 -9.390625 L 7.328125 -9.390625 L 7.328125 2.359375 Z M 1.40625 1.609375 L 6.59375 1.609375 L 6.59375 -8.65625 L 1.40625 -8.65625 Z "/>
</symbol>
<symbol overflow="visible" id="glyph0-1">
<path style="stroke:none;" d="M 1.890625 0 L 1.890625 -0.6875 L 3.578125 -0.6875 L 3.578125 -8.765625 L 1.625 -7.5 L 1.625 -8.359375 L 4 -9.890625 L 4.890625 -9.890625 L 4.890625 -0.6875 L 6.59375 -0.6875 L 6.59375 0 Z "/>
</symbol>
<symbol overflow="visible" id="glyph0-2">
<path style="stroke:none;" d="M 1.703125 -7.40625 L 0.96875 -7.40625 L 0.96875 -9.125 C 1.4375 -9.375 1.90625 -9.5625 2.375 -9.6875 C 2.84375 -9.820312 3.304688 -9.890625 3.765625 -9.890625 C 4.773438 -9.890625 5.570312 -9.644531 6.15625 -9.15625 C 6.738281 -8.664062 7.03125 -8 7.03125 -7.15625 C 7.03125 -6.207031 6.367188 -5.070312 5.046875 -3.75 C 4.941406 -3.644531 4.863281 -3.566406 4.8125 -3.515625 L 2.359375 -1.0625 L 6.40625 -1.0625 L 6.40625 -2.265625 L 7.171875 -2.265625 L 7.171875 0 L 0.90625 0 L 0.90625 -0.703125 L 3.859375 -3.65625 C 4.503906 -4.300781 4.960938 -4.894531 5.234375 -5.4375 C 5.515625 -5.988281 5.65625 -6.5625 5.65625 -7.15625 C 5.65625 -7.8125 5.484375 -8.320312 5.140625 -8.6875 C 4.804688 -9.0625 4.335938 -9.25 3.734375 -9.25 C 3.117188 -9.25 2.640625 -9.09375 2.296875 -8.78125 C 1.960938 -8.476562 1.765625 -8.019531 1.703125 -7.40625 Z "/>
</symbol>
<symbol overflow="visible" id="glyph0-3">
<path style="stroke:none;" d="M 1.25 -0.671875 C 1.25 -0.921875 1.332031 -1.128906 1.5 -1.296875 C 1.664062 -1.460938 1.875 -1.546875 2.125 -1.546875 C 2.363281 -1.546875 2.566406 -1.460938 2.734375 -1.296875 C 2.898438 -1.128906 2.984375 -0.921875 2.984375 -0.671875 C 2.984375 -0.429688 2.898438 -0.226562 2.734375 -0.0625 C 2.566406 0.101562 2.363281 0.1875 2.125 0.1875 C 1.875 0.1875 1.664062 0.101562 1.5 -0.0625 C 1.332031 -0.226562 1.25 -0.429688 1.25 -0.671875 Z "/>
</symbol>
<symbol overflow="visible" id="glyph0-4">
<path style="stroke:none;" d="M 6.234375 -4.359375 C 5.941406 -4.023438 5.609375 -3.78125 5.234375 -3.625 C 4.859375 -3.46875 4.429688 -3.390625 3.953125 -3.390625 C 2.992188 -3.390625 2.234375 -3.675781 1.671875 -4.25 C 1.117188 -4.832031 0.84375 -5.628906 0.84375 -6.640625 C 0.84375 -7.617188 1.144531 -8.40625 1.75 -9 C 2.351562 -9.59375 3.160156 -9.890625 4.171875 -9.890625 C 5.265625 -9.890625 6.101562 -9.476562 6.6875 -8.65625 C 7.28125 -7.84375 7.578125 -6.675781 7.578125 -5.15625 C 7.578125 -3.457031 7.226562 -2.140625 6.53125 -1.203125 C 5.832031 -0.273438 4.847656 0.1875 3.578125 0.1875 C 3.242188 0.1875 2.882812 0.15625 2.5 0.09375 C 2.125 0.03125 1.738281 -0.0664062 1.34375 -0.203125 L 1.34375 -1.8125 L 2.078125 -1.8125 C 2.128906 -1.375 2.296875 -1.035156 2.578125 -0.796875 C 2.859375 -0.566406 3.238281 -0.453125 3.71875 -0.453125 C 4.5625 -0.453125 5.1875 -0.769531 5.59375 -1.40625 C 6.007812 -2.039062 6.222656 -3.023438 6.234375 -4.359375 Z M 4.125 -9.25 C 3.507812 -9.25 3.035156 -9.023438 2.703125 -8.578125 C 2.378906 -8.128906 2.21875 -7.484375 2.21875 -6.640625 C 2.21875 -5.796875 2.378906 -5.144531 2.703125 -4.6875 C 3.035156 -4.238281 3.507812 -4.015625 4.125 -4.015625 C 4.738281 -4.015625 5.207031 -4.234375 5.53125 -4.671875 C 5.863281 -5.109375 6.03125 -5.738281 6.03125 -6.5625 C 6.03125 -7.425781 5.863281 -8.085938 5.53125 -8.546875 C 5.195312 -9.015625 4.726562 -9.25 4.125 -9.25 Z "/>
</symbol>
<symbol overflow="visible" id="glyph0-5">
<path style="stroke:none;" d=""/>
</symbol>
<symbol overflow="visible" id="glyph0-6">
<path style="stroke:none;" d="M 2.984375 -9.28125 C 2.609375 -9.28125 2.3125 -9.097656 2.09375 -8.734375 C 1.875 -8.378906 1.765625 -7.878906 1.765625 -7.234375 C 1.765625 -6.597656 1.875 -6.097656 2.09375 -5.734375 C 2.3125 -5.367188 2.609375 -5.1875 2.984375 -5.1875 C 3.359375 -5.1875 3.648438 -5.367188 3.859375 -5.734375 C 4.078125 -6.097656 4.1875 -6.597656 4.1875 -7.234375 C 4.1875 -7.878906 4.078125 -8.378906 3.859375 -8.734375 C 3.648438 -9.097656 3.359375 -9.28125 2.984375 -9.28125 Z M 9.6875 -4.515625 C 9.3125 -4.515625 9.015625 -4.332031 8.796875 -3.96875 C 8.585938 -3.601562 8.484375 -3.097656 8.484375 -2.453125 C 8.484375 -1.816406 8.585938 -1.316406 8.796875 -0.953125 C 9.015625 -0.585938 9.3125 -0.40625 9.6875 -0.40625 C 10.0625 -0.40625 10.351562 -0.585938 10.5625 -0.953125 C 10.78125 -1.316406 10.890625 -1.816406 10.890625 -2.453125 C 10.890625 -3.097656 10.78125 -3.601562 10.5625 -3.96875 C 10.351562 -4.332031 10.0625 -4.515625 9.6875 -4.515625 Z M 9.6875 -5.109375 C 10.375 -5.109375 10.914062 -4.867188 11.3125 -4.390625 C 11.71875 -3.910156 11.921875 -3.265625 11.921875 -2.453125 C 11.921875 -1.640625 11.71875 -0.992188 11.3125 -0.515625 C 10.914062 -0.046875 10.375 0.1875 9.6875 0.1875 C 9 0.1875 8.453125 -0.046875 8.046875 -0.515625 C 7.640625 -0.992188 7.4375 -1.640625 7.4375 -2.453125 C 7.4375 -3.265625 7.640625 -3.910156 8.046875 -4.390625 C 8.453125 -4.867188 9 -5.109375 9.6875 -5.109375 Z M 8.875 -9.890625 L 9.859375 -9.890625 L 3.78125 0.1875 L 2.796875 0.1875 Z M 2.96875 -9.890625 C 3.65625 -9.890625 4.203125 -9.648438 4.609375 -9.171875 C 5.015625 -8.703125 5.21875 -8.0625 5.21875 -7.25 C 5.21875 -6.425781 5.015625 -5.773438 4.609375 -5.296875 C 4.210938 -4.828125 3.664062 -4.59375 2.96875 -4.59375 C 2.28125 -4.59375 1.734375 -4.832031 1.328125 -5.3125 C 0.929688 -5.789062 0.734375 -6.4375 0.734375 -7.25 C 0.734375 -8.050781 0.9375 -8.691406 1.34375 -9.171875 C 1.75 -9.648438 2.289062 -9.890625 2.96875 -9.890625 Z "/>
</symbol>
</g>
</defs>
<g id="surface17">
<g style="fill:rgb(100%,100%,100%);fill-opacity:1;">
  <use xlink:href="#glyph0-1" x="30" y="32.375977"/>
  <use xlink:href="#glyph0-2" x="38" y="32.375977"/>
  <use xlink:href="#glyph0-3" x="46" y="32.375977"/>
  <use xlink:href="#glyph0-4" x="50" y="32.375977"/>
  <use xlink:href="#glyph0-5" x="58" y="32.375977"/>
  <use xlink:href="#glyph0-6" x="62" y="32.375977"/>
</g>
</g>
</svg>
