<?xml version="1.0" encoding="UTF-8"?>
<svg xmlns="http://www.w3.org/2000/svg" xmlns:xlink="http://www.w3.org/1999/xlink" width="1280pt" height="720pt" viewBox="0 0 1280 720" version="1.1">
<defs>
<g>
<symbol overflow="visible" id="glyph0-0">
<path style="stroke:none;" d="M 0.65625 2.359375 L 0.65625 -9.390625 L 7.328125 -9.390625 L 7.328125 2.359375 Z M 1.40625 1.609375 L 6.59375 1.609375 L 6.59375 -8.65625 L 1.40625 -8.65625 Z "/>
</symbol>
<symbol overflow="visible" id="glyph0-1">
<path style="stroke:none;" d="M 2.671875 -3.515625 L 6.234375 -3.515625 L 4.453125 -8.140625 Z M -0.078125 0 L -0.078125 -0.6875 L 0.78125 -0.6875 L 4.234375 -9.71875 L 5.328125 -9.71875 L 8.796875 -0.6875 L 9.75 -0.6875 L 9.75 0 L 6.21875 0 L 6.21875 -0.6875 L 7.296875 -0.6875 L 6.484375 -2.828125 L 2.40625 -2.828125 L 1.59375 -0.6875 L 2.65625 -0.6875 L 2.65625 0 Z "/>
</symbol>
<symbol overflow="visible" id="glyph0-2">
<path style="stroke:none;" d="M 2.734375 -0.6875 L 3.859375 -0.6875 L 3.859375 0 L 0.390625 0 L 0.390625 -0.6875 L 1.53125 -0.6875 L 1.53125 -9.4375 L 0.390625 -9.4375 L 0.390625 -10.125 L 2.734375 -10.125 Z "/>
</symbol>
<symbol overflow="visible" id="glyph0-3">
<path style="stroke:none;" d=""/>
</symbol>
<symbol overflow="visible" id="glyph0-4">
<path style="stroke:none;" d="M 6.96875 -8.375 L 6.359375 -8.375 C 6.347656 -8.75 6.207031 -9.023438 5.9375 -9.203125 C 5.675781 -9.390625 5.28125 -9.484375 4.75 -9.484375 C 4.082031 -9.484375 3.59375 -9.328125 3.28125 -9.015625 C 2.976562 -8.710938 2.828125 -8.226562 2.828125 -7.5625 L 2.828125 -6.921875 L 7.453125 -6.921875 L 7.453125 -0.6875 L 8.578125 -0.6875 L 8.578125 0 L 5.109375 0 L 5.109375 -0.6875 L 6.25 -0.6875 L 6.25 -6.21875 L 2.828125 -6.21875 L 2.828125 -0.6875 L 3.953125 -0.6875 L 3.953125 0 L 0.484375 0 L 0.484375 -0.6875 L 1.625 -0.6875 L 1.625 -6.21875 L 0.484375 -6.21875 L 0.484375 -6.921875 L 1.625 -6.921875 L 1.625 -7.546875 C 1.625 -8.398438 1.878906 -9.039062 2.390625 -9.46875 C 2.898438 -9.90625 3.648438 -10.125 4.640625 -10.125 C 5.015625 -10.125 5.398438 -10.09375 5.796875 -10.03125 C 6.191406 -9.976562 6.582031 -9.894531 6.96875 -9.78125 Z "/>
</symbol>
<symbol overflow="visible" id="glyph0-5">
<path style="stroke:none;" d="M 7.21875 -3.328125 L 2.0625 -3.328125 L 2.0625 -3.28125 C 2.0625 -2.34375 2.238281 -1.632812 2.59375 -1.15625 C 2.945312 -0.6875 3.460938 -0.453125 4.140625 -0.453125 C 4.671875 -0.453125 5.101562 -0.585938 5.4375 -0.859375 C 5.769531 -1.140625 6.003906 -1.550781 6.140625 -2.09375 L 7.109375 -2.09375 C 6.910156 -1.332031 6.554688 -0.757812 6.046875 -0.375 C 5.535156 0 4.859375 0.1875 4.015625 0.1875 C 3.003906 0.1875 2.191406 -0.144531 1.578125 -0.8125 C 0.960938 -1.476562 0.65625 -2.363281 0.65625 -3.46875 C 0.65625 -4.5625 0.957031 -5.441406 1.5625 -6.109375 C 2.164062 -6.773438 2.957031 -7.109375 3.9375 -7.109375 C 4.988281 -7.109375 5.789062 -6.785156 6.34375 -6.140625 C 6.90625 -5.492188 7.195312 -4.554688 7.21875 -3.328125 Z M 5.8125 -4.015625 C 5.78125 -4.828125 5.609375 -5.4375 5.296875 -5.84375 C 4.984375 -6.257812 4.53125 -6.46875 3.9375 -6.46875 C 3.394531 -6.46875 2.960938 -6.257812 2.640625 -5.84375 C 2.328125 -5.425781 2.132812 -4.816406 2.0625 -4.015625 Z "/>
</symbol>
<symbol overflow="visible" id="glyph0-6">
<path style="stroke:none;" d="M 7 -0.6875 L 8.140625 -0.6875 L 8.140625 0 L 5.796875 0 L 5.796875 -1.078125 C 5.566406 -0.640625 5.269531 -0.316406 4.90625 -0.109375 C 4.539062 0.0859375 4.09375 0.1875 3.5625 0.1875 C 2.707031 0.1875 2.007812 -0.144531 1.46875 -0.8125 C 0.925781 -1.488281 0.65625 -2.375 0.65625 -3.46875 C 0.65625 -4.550781 0.925781 -5.425781 1.46875 -6.09375 C 2.007812 -6.769531 2.707031 -7.109375 3.5625 -7.109375 C 4.09375 -7.109375 4.539062 -7.003906 4.90625 -6.796875 C 5.269531 -6.585938 5.566406 -6.269531 5.796875 -5.84375 L 5.796875 -9.4375 L 4.671875 -9.4375 L 4.671875 -10.125 L 7 -10.125 Z M 5.796875 -3.125 L 5.796875 -3.796875 C 5.796875 -4.628906 5.632812 -5.265625 5.3125 -5.703125 C 5 -6.140625 4.539062 -6.359375 3.9375 -6.359375 C 3.3125 -6.359375 2.84375 -6.113281 2.53125 -5.625 C 2.21875 -5.144531 2.0625 -4.425781 2.0625 -3.46875 C 2.0625 -2.507812 2.21875 -1.785156 2.53125 -1.296875 C 2.84375 -0.804688 3.3125 -0.5625 3.9375 -0.5625 C 4.539062 -0.5625 5 -0.78125 5.3125 -1.21875 C 5.632812 -1.65625 5.796875 -2.289062 5.796875 -3.125 Z "/>
</symbol>
<symbol overflow="visible" id="glyph0-7">
<path style="stroke:none;" d="M 0.75 -0.390625 L 0.75 -2 L 1.4375 -2 C 1.457031 -1.476562 1.617188 -1.085938 1.921875 -0.828125 C 2.222656 -0.578125 2.675781 -0.453125 3.28125 -0.453125 C 3.820312 -0.453125 4.234375 -0.550781 4.515625 -0.75 C 4.796875 -0.957031 4.9375 -1.253906 4.9375 -1.640625 C 4.9375 -1.941406 4.832031 -2.1875 4.625 -2.375 C 4.414062 -2.5625 3.976562 -2.757812 3.3125 -2.96875 L 2.453125 -3.265625 C 1.859375 -3.453125 1.425781 -3.6875 1.15625 -3.96875 C 0.894531 -4.257812 0.765625 -4.628906 0.765625 -5.078125 C 0.765625 -5.710938 0.992188 -6.207031 1.453125 -6.5625 C 1.921875 -6.925781 2.566406 -7.109375 3.390625 -7.109375 C 3.753906 -7.109375 4.132812 -7.054688 4.53125 -6.953125 C 4.9375 -6.859375 5.351562 -6.722656 5.78125 -6.546875 L 5.78125 -5.03125 L 5.09375 -5.03125 C 5.070312 -5.476562 4.914062 -5.828125 4.625 -6.078125 C 4.332031 -6.335938 3.929688 -6.46875 3.421875 -6.46875 C 2.921875 -6.46875 2.539062 -6.375 2.28125 -6.1875 C 2.019531 -6.007812 1.890625 -5.742188 1.890625 -5.390625 C 1.890625 -5.097656 1.988281 -4.863281 2.1875 -4.6875 C 2.382812 -4.519531 2.773438 -4.34375 3.359375 -4.15625 L 4.3125 -3.859375 C 4.96875 -3.660156 5.4375 -3.40625 5.71875 -3.09375 C 6.007812 -2.789062 6.15625 -2.398438 6.15625 -1.921875 C 6.15625 -1.265625 5.90625 -0.75 5.40625 -0.375 C 4.90625 0 4.210938 0.1875 3.328125 0.1875 C 2.878906 0.1875 2.441406 0.140625 2.015625 0.046875 C 1.597656 -0.046875 1.175781 -0.191406 0.75 -0.390625 Z "/>
</symbol>
<symbol overflow="visible" id="glyph0-8">
<path style="stroke:none;" d="M 4.015625 -0.453125 C 4.648438 -0.453125 5.128906 -0.707031 5.453125 -1.21875 C 5.785156 -1.726562 5.953125 -2.476562 5.953125 -3.46875 C 5.953125 -4.457031 5.785156 -5.203125 5.453125 -5.703125 C 5.128906 -6.210938 4.648438 -6.46875 4.015625 -6.46875 C 3.367188 -6.46875 2.878906 -6.210938 2.546875 -5.703125 C 2.222656 -5.203125 2.0625 -4.457031 2.0625 -3.46875 C 2.0625 -2.476562 2.222656 -1.726562 2.546875 -1.21875 C 2.878906 -0.707031 3.367188 -0.453125 4.015625 -0.453125 Z M 4.015625 0.1875 C 3.003906 0.1875 2.191406 -0.144531 1.578125 -0.8125 C 0.960938 -1.476562 0.65625 -2.363281 0.65625 -3.46875 C 0.65625 -4.5625 0.960938 -5.441406 1.578125 -6.109375 C 2.191406 -6.773438 3.003906 -7.109375 4.015625 -7.109375 C 5.023438 -7.109375 5.832031 -6.773438 6.4375 -6.109375 C 7.050781 -5.441406 7.359375 -4.5625 7.359375 -3.46875 C 7.359375 -2.363281 7.050781 -1.476562 6.4375 -0.8125 C 5.832031 -0.144531 5.023438 0.1875 4.015625 0.1875 Z "/>
</symbol>
<symbol overflow="visible" id="glyph0-9">
<path style="stroke:none;" d="M 5.734375 -8.5 L 5.109375 -8.5 C 5.097656 -8.820312 5.003906 -9.066406 4.828125 -9.234375 C 4.648438 -9.398438 4.390625 -9.484375 4.046875 -9.484375 C 3.597656 -9.484375 3.28125 -9.359375 3.09375 -9.109375 C 2.914062 -8.867188 2.828125 -8.4375 2.828125 -7.8125 L 2.828125 -6.921875 L 4.75 -6.921875 L 4.75 -6.21875 L 2.828125 -6.21875 L 2.828125 -0.6875 L 4.359375 -0.6875 L 4.359375 0 L 0.484375 0 L 0.484375 -0.6875 L 1.625 -0.6875 L 1.625 -6.21875 L 0.484375 -6.21875 L 0.484375 -6.921875 L 1.625 -6.921875 L 1.625 -7.78125 C 1.625 -8.550781 1.820312 -9.132812 2.21875 -9.53125 C 2.625 -9.925781 3.21875 -10.125 4 -10.125 C 4.289062 -10.125 4.578125 -10.097656 4.859375 -10.046875 C 5.148438 -9.992188 5.441406 -9.914062 5.734375 -9.8125 Z "/>
</symbol>
<symbol overflow="visible" id="glyph0-10">
<path style="stroke:none;" d="M 6.375 -6.9375 L 6.375 -5.203125 L 5.6875 -5.203125 C 5.664062 -5.546875 5.566406 -5.800781 5.390625 -5.96875 C 5.222656 -6.132812 4.976562 -6.21875 4.65625 -6.21875 C 4.0625 -6.21875 3.609375 -6.015625 3.296875 -5.609375 C 2.984375 -5.203125 2.828125 -4.617188 2.828125 -3.859375 L 2.828125 -0.6875 L 4.203125 -0.6875 L 4.203125 0 L 0.546875 0 L 0.546875 -0.6875 L 1.625 -0.6875 L 1.625 -6.234375 L 0.484375 -6.234375 L 0.484375 -6.921875 L 2.828125 -6.921875 L 2.828125 -5.6875 C 3.054688 -6.164062 3.351562 -6.519531 3.71875 -6.75 C 4.09375 -6.988281 4.546875 -7.109375 5.078125 -7.109375 C 5.273438 -7.109375 5.476562 -7.09375 5.6875 -7.0625 C 5.90625 -7.03125 6.132812 -6.988281 6.375 -6.9375 Z "/>
</symbol>
<symbol overflow="visible" id="glyph0-11">
<path style="stroke:none;" d="M 4.71875 -6.921875 L 6.953125 -6.921875 L 6.953125 -0.6875 L 8.09375 -0.6875 L 8.09375 0 L 5.765625 0 L 5.765625 -1.21875 C 5.535156 -0.757812 5.242188 -0.410156 4.890625 -0.171875 C 4.546875 0.0664062 4.140625 0.1875 3.671875 0.1875 C 2.910156 0.1875 2.347656 -0.03125 1.984375 -0.46875 C 1.617188 -0.90625 1.4375 -1.585938 1.4375 -2.515625 L 1.4375 -6.21875 L 0.359375 -6.21875 L 0.359375 -6.921875 L 2.640625 -6.921875 L 2.640625 -2.890625 C 2.640625 -2.046875 2.742188 -1.46875 2.953125 -1.15625 C 3.160156 -0.84375 3.523438 -0.6875 4.046875 -0.6875 C 4.609375 -0.6875 5.035156 -0.890625 5.328125 -1.296875 C 5.617188 -1.703125 5.765625 -2.296875 5.765625 -3.078125 L 5.765625 -6.21875 L 4.71875 -6.21875 Z "/>
</symbol>
<symbol overflow="visible" id="glyph0-12">
<path style="stroke:none;" d="M 7 -6.21875 L 7 -0.15625 C 7 0.84375 6.722656 1.613281 6.171875 2.15625 C 5.628906 2.695312 4.851562 2.96875 3.84375 2.96875 C 3.382812 2.96875 2.945312 2.925781 2.53125 2.84375 C 2.113281 2.757812 1.710938 2.632812 1.328125 2.46875 L 1.328125 1.015625 L 1.953125 1.015625 C 2.035156 1.460938 2.222656 1.789062 2.515625 2 C 2.804688 2.207031 3.222656 2.3125 3.765625 2.3125 C 4.460938 2.3125 4.972656 2.113281 5.296875 1.71875 C 5.628906 1.320312 5.796875 0.695312 5.796875 -0.15625 L 5.796875 -1.078125 C 5.566406 -0.640625 5.269531 -0.316406 4.90625 -0.109375 C 4.539062 0.0859375 4.09375 0.1875 3.5625 0.1875 C 2.707031 0.1875 2.007812 -0.144531 1.46875 -0.8125 C 0.925781 -1.488281 0.65625 -2.375 0.65625 -3.46875 C 0.65625 -4.550781 0.925781 -5.425781 1.46875 -6.09375 C 2.007812 -6.769531 2.707031 -7.109375 3.5625 -7.109375 C 4.09375 -7.109375 4.539062 -7.003906 4.90625 -6.796875 C 5.269531 -6.585938 5.566406 -6.269531 5.796875 -5.84375 L 5.796875 -6.921875 L 8.140625 -6.921875 L 8.140625 -6.21875 Z M 5.796875 -3.796875 C 5.796875 -4.628906 5.632812 -5.265625 5.3125 -5.703125 C 5 -6.140625 4.539062 -6.359375 3.9375 -6.359375 C 3.3125 -6.359375 2.84375 -6.113281 2.53125 -5.625 C 2.21875 -5.144531 2.0625 -4.425781 2.0625 -3.46875 C 2.0625 -2.507812 2.21875 -1.785156 2.53125 -1.296875 C 2.84375 -0.804688 3.3125 -0.5625 3.9375 -0.5625 C 4.539062 -0.5625 5 -0.78125 5.3125 -1.21875 C 5.632812 -1.65625 5.796875 -2.289062 5.796875 -3.125 Z "/>
</symbol>
<symbol overflow="visible" id="glyph0-13">
<path style="stroke:none;" d="M 0.546875 0 L 0.546875 -0.6875 L 1.625 -0.6875 L 1.625 -9.4375 L 0.484375 -9.4375 L 0.484375 -10.125 L 2.828125 -10.125 L 2.828125 -5.6875 C 3.046875 -6.15625 3.332031 -6.507812 3.6875 -6.75 C 4.039062 -6.988281 4.453125 -7.109375 4.921875 -7.109375 C 5.679688 -7.109375 6.238281 -6.890625 6.59375 -6.453125 C 6.957031 -6.015625 7.140625 -5.332031 7.140625 -4.40625 L 7.140625 -0.6875 L 8.21875 -0.6875 L 8.21875 0 L 4.90625 0 L 4.90625 -0.6875 L 5.9375 -0.6875 L 5.9375 -4.015625 C 5.9375 -4.867188 5.832031 -5.445312 5.625 -5.75 C 5.425781 -6.0625 5.0625 -6.21875 4.53125 -6.21875 C 3.976562 -6.21875 3.554688 -6.015625 3.265625 -5.609375 C 2.972656 -5.210938 2.828125 -4.628906 2.828125 -3.859375 L 2.828125 -0.6875 L 3.859375 -0.6875 L 3.859375 0 Z "/>
</symbol>
<symbol overflow="visible" id="glyph0-14">
<path style="stroke:none;" d="M 2.875 1.265625 L 3.328125 0.109375 L 0.75 -6.21875 L -0.03125 -6.21875 L -0.03125 -6.921875 L 3.140625 -6.921875 L 3.140625 -6.21875 L 2.03125 -6.21875 L 3.984375 -1.46875 L 5.921875 -6.21875 L 4.890625 -6.21875 L 4.890625 -6.921875 L 7.484375 -6.921875 L 7.484375 -6.21875 L 6.71875 -6.21875 L 3.546875 1.5625 C 3.328125 2.101562 3.082031 2.472656 2.8125 2.671875 C 2.550781 2.867188 2.179688 2.96875 1.703125 2.96875 C 1.503906 2.96875 1.296875 2.945312 1.078125 2.90625 C 0.859375 2.875 0.640625 2.828125 0.421875 2.765625 L 0.421875 1.4375 L 1.046875 1.4375 C 1.066406 1.726562 1.140625 1.9375 1.265625 2.0625 C 1.390625 2.195312 1.582031 2.265625 1.84375 2.265625 C 2.082031 2.265625 2.273438 2.195312 2.421875 2.0625 C 2.566406 1.9375 2.71875 1.671875 2.875 1.265625 Z "/>
</symbol>
<symbol overflow="visible" id="glyph0-15">
<path style="stroke:none;" d="M 1.890625 0 L 1.890625 -0.6875 L 3.578125 -0.6875 L 3.578125 -8.765625 L 1.625 -7.5 L 1.625 -8.359375 L 4 -9.890625 L 4.890625 -9.890625 L 4.890625 -0.6875 L 6.59375 -0.6875 L 6.59375 0 Z "/>
</symbol>
<symbol overflow="visible" id="glyph0-16">
<path style="stroke:none;" d="M 4.234375 -0.453125 C 4.898438 -0.453125 5.394531 -0.816406 5.71875 -1.546875 C 6.050781 -2.273438 6.21875 -3.375 6.21875 -4.84375 C 6.21875 -6.320312 6.050781 -7.425781 5.71875 -8.15625 C 5.394531 -8.882812 4.898438 -9.25 4.234375 -9.25 C 3.566406 -9.25 3.066406 -8.882812 2.734375 -8.15625 C 2.410156 -7.425781 2.25 -6.320312 2.25 -4.84375 C 2.25 -3.375 2.410156 -2.273438 2.734375 -1.546875 C 3.066406 -0.816406 3.566406 -0.453125 4.234375 -0.453125 Z M 4.234375 0.1875 C 3.179688 0.1875 2.359375 -0.253906 1.765625 -1.140625 C 1.171875 -2.023438 0.875 -3.257812 0.875 -4.84375 C 0.875 -6.4375 1.171875 -7.675781 1.765625 -8.5625 C 2.359375 -9.445312 3.179688 -9.890625 4.234375 -9.890625 C 5.296875 -9.890625 6.117188 -9.445312 6.703125 -8.5625 C 7.296875 -7.675781 7.59375 -6.4375 7.59375 -4.84375 C 7.59375 -3.257812 7.296875 -2.023438 6.703125 -1.140625 C 6.117188 -0.253906 5.296875 0.1875 4.234375 0.1875 Z "/>
</symbol>
<symbol overflow="visible" id="glyph0-17">
<path style="stroke:none;" d="M 1.703125 -7.40625 L 0.96875 -7.40625 L 0.96875 -9.125 C 1.4375 -9.375 1.90625 -9.5625 2.375 -9.6875 C 2.84375 -9.820312 3.304688 -9.890625 3.765625 -9.890625 C 4.773438 -9.890625 5.570312 -9.644531 6.15625 -9.15625 C 6.738281 -8.664062 7.03125 -8 7.03125 -7.15625 C 7.03125 -6.207031 6.367188 -5.070312 5.046875 -3.75 C 4.941406 -3.644531 4.863281 -3.566406 4.8125 -3.515625 L 2.359375 -1.0625 L 6.40625 -1.0625 L 6.40625 -2.265625 L 7.171875 -2.265625 L 7.171875 0 L 0.90625 0 L 0.90625 -0.703125 L 3.859375 -3.65625 C 4.503906 -4.300781 4.960938 -4.894531 5.234375 -5.4375 C 5.515625 -5.988281 5.65625 -6.5625 5.65625 -7.15625 C 5.65625 -7.8125 5.484375 -8.320312 5.140625 -8.6875 C 4.804688 -9.0625 4.335938 -9.25 3.734375 -9.25 C 3.117188 -9.25 2.640625 -9.09375 2.296875 -8.78125 C 1.960938 -8.476562 1.765625 -8.019531 1.703125 -7.40625 Z "/>
</symbol>
<symbol overflow="visible" id="glyph0-18">
<path style="stroke:none;" d="M 4.65625 -3.296875 L 4.65625 -8.453125 L 1.328125 -3.296875 Z M 7.515625 0 L 3.09375 0 L 3.09375 -0.6875 L 4.65625 -0.6875 L 4.65625 -2.59375 L 0.40625 -2.59375 L 0.40625 -3.3125 L 4.671875 -9.890625 L 5.953125 -9.890625 L 5.953125 -3.296875 L 7.8125 -3.296875 L 7.8125 -2.59375 L 5.953125 -2.59375 L 5.953125 -0.6875 L 7.515625 -0.6875 Z "/>
</symbol>
<symbol overflow="visible" id="glyph0-19">
<path style="stroke:none;" d="M 1.53125 -0.6875 L 1.53125 -9.4375 L 0.390625 -9.4375 L 0.390625 -10.125 L 2.734375 -10.125 L 2.734375 -5.84375 C 2.960938 -6.269531 3.257812 -6.585938 3.625 -6.796875 C 3.988281 -7.003906 4.4375 -7.109375 4.96875 -7.109375 C 5.820312 -7.109375 6.515625 -6.769531 7.046875 -6.09375 C 7.585938 -5.425781 7.859375 -4.550781 7.859375 -3.46875 C 7.859375 -2.375 7.585938 -1.488281 7.046875 -0.8125 C 6.515625 -0.144531 5.820312 0.1875 4.96875 0.1875 C 4.4375 0.1875 3.988281 0.0859375 3.625 -0.109375 C 3.257812 -0.316406 2.960938 -0.640625 2.734375 -1.078125 L 2.734375 0 L 0.390625 0 L 0.390625 -0.6875 Z M 2.734375 -3.125 C 2.734375 -2.289062 2.890625 -1.65625 3.203125 -1.21875 C 3.523438 -0.78125 3.988281 -0.5625 4.59375 -0.5625 C 5.207031 -0.5625 5.671875 -0.804688 5.984375 -1.296875 C 6.304688 -1.785156 6.46875 -2.507812 6.46875 -3.46875 C 6.46875 -4.425781 6.304688 -5.144531 5.984375 -5.625 C 5.671875 -6.113281 5.207031 -6.359375 4.59375 -6.359375 C 3.988281 -6.359375 3.523438 -6.140625 3.203125 -5.703125 C 2.890625 -5.265625 2.734375 -4.628906 2.734375 -3.796875 Z "/>
</symbol>
<symbol overflow="visible" id="glyph0-20">
<path style="stroke:none;" d="M 1.296875 -9.0625 C 1.296875 -9.257812 1.367188 -9.429688 1.515625 -9.578125 C 1.660156 -9.734375 1.832031 -9.8125 2.03125 -9.8125 C 2.238281 -9.8125 2.410156 -9.734375 2.546875 -9.578125 C 2.691406 -9.429688 2.765625 -9.257812 2.765625 -9.0625 C 2.765625 -8.863281 2.691406 -8.691406 2.546875 -8.546875 C 2.410156 -8.398438 2.238281 -8.328125 2.03125 -8.328125 C 1.832031 -8.328125 1.660156 -8.398438 1.515625 -8.546875 C 1.367188 -8.691406 1.296875 -8.863281 1.296875 -9.0625 Z M 2.828125 -0.6875 L 3.953125 -0.6875 L 3.953125 0 L 0.484375 0 L 0.484375 -0.6875 L 1.625 -0.6875 L 1.625 -6.21875 L 0.484375 -6.21875 L 0.484375 -6.921875 L 2.828125 -6.921875 Z "/>
</symbol>
<symbol overflow="visible" id="glyph0-21">
<path style="stroke:none;" d="M 1.4375 -6.21875 L 0.390625 -6.21875 L 0.390625 -6.921875 L 1.4375 -6.921875 L 1.4375 -9.0625 L 2.640625 -9.0625 L 2.640625 -6.921875 L 4.890625 -6.921875 L 4.890625 -6.21875 L 2.640625 -6.21875 L 2.640625 -1.828125 C 2.640625 -1.242188 2.695312 -0.867188 2.8125 -0.703125 C 2.925781 -0.535156 3.132812 -0.453125 3.4375 -0.453125 C 3.75 -0.453125 3.972656 -0.546875 4.109375 -0.734375 C 4.253906 -0.921875 4.332031 -1.21875 4.34375 -1.625 L 5.25 -1.625 C 5.21875 -1 5.046875 -0.539062 4.734375 -0.25 C 4.429688 0.0390625 3.960938 0.1875 3.328125 0.1875 C 2.640625 0.1875 2.148438 0.0351562 1.859375 -0.265625 C 1.578125 -0.578125 1.4375 -1.097656 1.4375 -1.828125 Z "/>
</symbol>
</g>
</defs>
<g id="surface2">
<g style="fill:rgb(100%,100%,100%);fill-opacity:1;">
  <use xlink:href="#glyph0-1" x="30" y="32.375977"/>
  <use xlink:href="#glyph0-2" x="40" y="32.375977"/>
  <use xlink:href="#glyph0-2" x="44" y="32.375977"/>
  <use xlink:href="#glyph0-3" x="48" y="32.375977"/>
  <use xlink:href="#glyph0-4" x="52" y="32.375977"/>
  <use xlink:href="#glyph0-5" x="61" y="32.375977"/>
  <use xlink:href="#glyph0-2" x="69" y="32.375977"/>
  <use xlink:href="#glyph0-6" x="73" y="32.375977"/>
  <use xlink:href="#glyph0-7" x="82" y="32.375977"/>
  <use xlink:href="#glyph0-3" x="89" y="32.375977"/>
  <use xlink:href="#glyph0-8" x="93" y="32.375977"/>
  <use xlink:href="#glyph0-9" x="101" y="32.375977"/>
  <use xlink:href="#glyph0-3" x="106" y="32.375977"/>
  <use xlink:href="#glyph0-10" x="110" y="32.375977"/>
  <use xlink:href="#glyph0-8" x="116" y="32.375977"/>
  <use xlink:href="#glyph0-11" x="124" y="32.375977"/>
  <use xlink:href="#glyph0-12" x="133" y="32.375977"/>
  <use xlink:href="#glyph0-13" x="142" y="32.375977"/>
  <use xlink:href="#glyph0-2" x="151" y="32.375977"/>
  <use xlink:href="#glyph0-14" x="155" y="32.375977"/>
  <use xlink:href="#glyph0-3" x="163" y="32.375977"/>
  <use xlink:href="#glyph0-15" x="167" y="32.375977"/>
  <use xlink:href="#glyph0-16" x="175" y="32.375977"/>
  <use xlink:href="#glyph0-17" x="183" y="32.375977"/>
  <use xlink:href="#glyph0-18" x="191" y="32.375977"/>
  <use xlink:href="#glyph0-3" x="199" y="32.375977"/>
  <use xlink:href="#glyph0-19" x="203" y="32.375977"/>
  <use xlink:href="#glyph0-20" x="212" y="32.375977"/>
  <use xlink:href="#glyph0-21" x="216" y="32.375977"/>
  <use xlink:href="#glyph0-7" x="221" y="32.375977"/>
</g>
</g>
</svg>
